Labs/Processor/Lab06/part01/submitted/cpu_wavedata.vcd
$date
	Sun Jun  7 20:30:52 2020
$end
$version
	Icarus Verilog
$end
$timescale
	1s
$end
$scope module testbenchCPU $end
$var wire 1 ! memWriteEn $end
$var wire 1 " memReadEn $end
$var wire 8 # WRITE_DATA [7:0] $end
$var wire 8 $ READ_DATA [7:0] $end
$var wire 32 % PC [31:0] $end
$var wire 32 & INS [31:0] $end
$var wire 1 ' BUSY_WAIT $end
$var wire 8 ( ADDRESS [7:0] $end
$var reg 1 ) CLK $end
$var reg 1 * RESET $end
$scope module myDataMemory $end
$var wire 1 ) clock $end
$var wire 1 * reset $end
$var wire 8 + writedata [7:0] $end
$var wire 1 ! write $end
$var wire 1 " read $end
$var wire 8 , address [7:0] $end
$var reg 1 ' busywait $end
$var reg 1 - readaccess $end
$var reg 8 . readdata [7:0] $end
$var reg 1 / writeaccess $end
$var integer 32 0 i [31:0] $end
$upscope $end
$scope module mycpu $end
$var wire 8 1 ALOP2 [7:0] $end
$var wire 1 2 ANDOUTBEQ $end
$var wire 1 3 ANDOUTBNE $end
$var wire 1 ' BUSY_WAIT $end
$var wire 1 ) CLK $end
$var wire 32 4 INSTRUCTION [31:0] $end
$var wire 8 5 MEMREAD [7:0] $end
$var wire 1 * RESET $end
$var wire 1 6 jumpMUXSEL $end
$var wire 1 7 regWRITEEN_FIN $end
$var wire 1 8 twoscompMUXSEL $end
$var wire 1 9 regWRITEEN $end
$var wire 1 ! memWriteEn $end
$var wire 1 " memReadEn $end
$var wire 1 : memMUXSEL $end
$var wire 1 ; jump $end
$var wire 1 < immeMUXSEL $end
$var wire 1 = bne $end
$var wire 1 > beq $end
$var wire 2 ? bShifterOpCode [1:0] $end
$var wire 1 @ alu_shiftMUXSEL $end
$var wire 3 A aluOP [2:0] $end
$var wire 8 B TWOSMUXOUT [7:0] $end
$var wire 8 C TWOSCOMPOUT [7:0] $end
$var wire 8 D SOURCE2 [7:0] $end
$var wire 8 E SOURCE1 [7:0] $end
$var wire 8 F REGSAVE [7:0] $end
$var wire 8 G REGOUT2 [7:0] $end
$var wire 8 H REGOUT1 [7:0] $end
$var wire 8 I PREV_ALU_BARREL_OUT [7:0] $end
$var wire 32 J PCNEXT [31:0] $end
$var wire 32 K PCJUMP [31:0] $end
$var wire 32 L PCINCBY4 [31:0] $end
$var wire 8 M DESTINATION [7:0] $end
$var wire 8 N BARRELOUT [7:0] $end
$var wire 8 O ALUOUT [7:0] $end
$var wire 1 P ALUCOMP $end
$var wire 8 Q ALOP1 [7:0] $end
$var reg 32 R PC [31:0] $end
$scope module bs $end
$var wire 8 S INPUT [7:0] $end
$var wire 1 T TMP7 $end
$var wire 1 U TMP6 $end
$var wire 1 V TMP5 $end
$var wire 1 W TMP4 $end
$var wire 1 X TMP3 $end
$var wire 1 Y TMP2 $end
$var wire 1 Z TMP1 $end
$var wire 2 [ SHIFT_MODE [1:0] $end
$var wire 8 \ SHIFT [7:0] $end
$var wire 8 ] OUTPUT [7:0] $end
$var wire 8 ^ OUTINTER [7:0] $end
$var wire 8 _ INTER2 [7:0] $end
$var wire 8 ` INTER1 [7:0] $end
$var wire 8 a INNER3 [7:0] $end
$var wire 8 b ININTER [7:0] $end
$var reg 8 c LAYER4_IN [7:0] $end
$var reg 1 d SHIFT_DIR $end
$scope module inmux $end
$var wire 8 e INPUT1 [7:0] $end
$var wire 8 f INPUT2 [7:0] $end
$var wire 1 d SELECT $end
$var reg 8 g RESULT [7:0] $end
$upscope $end
$scope module m0 $end
$var wire 1 h INPUT1 $end
$var wire 1 i SELECT $end
$var wire 1 Z INPUT2 $end
$var reg 1 j RESULT $end
$upscope $end
$scope module m00 $end
$var wire 1 k INPUT1 $end
$var wire 1 l SELECT $end
$var wire 1 Y INPUT2 $end
$var reg 1 m RESULT $end
$upscope $end
$scope module m000 $end
$var wire 1 n INPUT1 $end
$var wire 1 o SELECT $end
$var wire 1 W INPUT2 $end
$var reg 1 p RESULT $end
$upscope $end
$scope module m0000 $end
$var wire 8 q INPUT1 [7:0] $end
$var wire 8 r INPUT2 [7:0] $end
$var wire 1 s SELECT $end
$var reg 8 t RESULT [7:0] $end
$upscope $end
$scope module m1 $end
$var wire 1 u INPUT1 $end
$var wire 1 v INPUT2 $end
$var wire 1 w SELECT $end
$var reg 1 x RESULT $end
$upscope $end
$scope module m11 $end
$var wire 1 y INPUT1 $end
$var wire 1 z SELECT $end
$var wire 1 X INPUT2 $end
$var reg 1 { RESULT $end
$upscope $end
$scope module m111 $end
$var wire 1 | INPUT1 $end
$var wire 1 } SELECT $end
$var wire 1 V INPUT2 $end
$var reg 1 ~ RESULT $end
$upscope $end
$scope module m2 $end
$var wire 1 !" INPUT1 $end
$var wire 1 "" INPUT2 $end
$var wire 1 #" SELECT $end
$var reg 1 $" RESULT $end
$upscope $end
$scope module m22 $end
$var wire 1 %" INPUT1 $end
$var wire 1 &" INPUT2 $end
$var wire 1 '" SELECT $end
$var reg 1 (" RESULT $end
$upscope $end
$scope module m222 $end
$var wire 1 )" INPUT1 $end
$var wire 1 *" SELECT $end
$var wire 1 U INPUT2 $end
$var reg 1 +" RESULT $end
$upscope $end
$scope module m3 $end
$var wire 1 ," INPUT1 $end
$var wire 1 -" INPUT2 $end
$var wire 1 ." SELECT $end
$var reg 1 /" RESULT $end
$upscope $end
$scope module m33 $end
$var wire 1 0" INPUT1 $end
$var wire 1 1" INPUT2 $end
$var wire 1 2" SELECT $end
$var reg 1 3" RESULT $end
$upscope $end
$scope module m333 $end
$var wire 1 4" INPUT1 $end
$var wire 1 5" SELECT $end
$var wire 1 T INPUT2 $end
$var reg 1 6" RESULT $end
$upscope $end
$scope module m4 $end
$var wire 1 7" INPUT1 $end
$var wire 1 8" INPUT2 $end
$var wire 1 9" SELECT $end
$var reg 1 :" RESULT $end
$upscope $end
$scope module m44 $end
$var wire 1 ;" INPUT1 $end
$var wire 1 <" INPUT2 $end
$var wire 1 =" SELECT $end
$var reg 1 >" RESULT $end
$upscope $end
$scope module m444 $end
$var wire 1 ?" INPUT1 $end
$var wire 1 @" INPUT2 $end
$var wire 1 A" SELECT $end
$var reg 1 B" RESULT $end
$upscope $end
$scope module m5 $end
$var wire 1 C" INPUT1 $end
$var wire 1 D" INPUT2 $end
$var wire 1 E" SELECT $end
$var reg 1 F" RESULT $end
$upscope $end
$scope module m55 $end
$var wire 1 G" INPUT1 $end
$var wire 1 H" INPUT2 $end
$var wire 1 I" SELECT $end
$var reg 1 J" RESULT $end
$upscope $end
$scope module m555 $end
$var wire 1 K" INPUT1 $end
$var wire 1 L" INPUT2 $end
$var wire 1 M" SELECT $end
$var reg 1 N" RESULT $end
$upscope $end
$scope module m6 $end
$var wire 1 O" INPUT1 $end
$var wire 1 P" INPUT2 $end
$var wire 1 Q" SELECT $end
$var reg 1 R" RESULT $end
$upscope $end
$scope module m66 $end
$var wire 1 S" INPUT1 $end
$var wire 1 T" INPUT2 $end
$var wire 1 U" SELECT $end
$var reg 1 V" RESULT $end
$upscope $end
$scope module m666 $end
$var wire 1 W" INPUT1 $end
$var wire 1 X" INPUT2 $end
$var wire 1 Y" SELECT $end
$var reg 1 Z" RESULT $end
$upscope $end
$scope module m7 $end
$var wire 1 [" INPUT1 $end
$var wire 1 \" INPUT2 $end
$var wire 1 ]" SELECT $end
$var reg 1 ^" RESULT $end
$upscope $end
$scope module m77 $end
$var wire 1 _" INPUT1 $end
$var wire 1 `" INPUT2 $end
$var wire 1 a" SELECT $end
$var reg 1 b" RESULT $end
$upscope $end
$scope module m777 $end
$var wire 1 c" INPUT1 $end
$var wire 1 d" INPUT2 $end
$var wire 1 e" SELECT $end
$var reg 1 f" RESULT $end
$upscope $end
$scope module mt1 $end
$var wire 1 g" INPUT1 $end
$var wire 1 h" INPUT2 $end
$var wire 1 i" INPUT3 $end
$var wire 1 j" INPUT4 $end
$var wire 2 k" SELECT [1:0] $end
$var reg 1 Z RESULT $end
$upscope $end
$scope module mt2 $end
$var wire 1 l" INPUT1 $end
$var wire 1 m" INPUT2 $end
$var wire 1 n" INPUT3 $end
$var wire 1 o" INPUT4 $end
$var wire 2 p" SELECT [1:0] $end
$var reg 1 Y RESULT $end
$upscope $end
$scope module mt3 $end
$var wire 1 q" INPUT1 $end
$var wire 1 r" INPUT2 $end
$var wire 1 s" INPUT3 $end
$var wire 1 t" INPUT4 $end
$var wire 2 u" SELECT [1:0] $end
$var reg 1 X RESULT $end
$upscope $end
$scope module mt4 $end
$var wire 1 v" INPUT1 $end
$var wire 1 w" INPUT2 $end
$var wire 1 x" INPUT3 $end
$var wire 1 y" INPUT4 $end
$var wire 2 z" SELECT [1:0] $end
$var reg 1 W RESULT $end
$upscope $end
$scope module mt5 $end
$var wire 1 {" INPUT1 $end
$var wire 1 |" INPUT2 $end
$var wire 1 }" INPUT3 $end
$var wire 1 ~" INPUT4 $end
$var wire 2 !# SELECT [1:0] $end
$var reg 1 V RESULT $end
$upscope $end
$scope module mt6 $end
$var wire 1 "# INPUT1 $end
$var wire 1 ## INPUT2 $end
$var wire 1 $# INPUT3 $end
$var wire 1 %# INPUT4 $end
$var wire 2 &# SELECT [1:0] $end
$var reg 1 U RESULT $end
$upscope $end
$scope module mt7 $end
$var wire 1 '# INPUT1 $end
$var wire 1 (# INPUT2 $end
$var wire 1 )# INPUT3 $end
$var wire 1 *# INPUT4 $end
$var wire 2 +# SELECT [1:0] $end
$var reg 1 T RESULT $end
$upscope $end
$scope module outmux $end
$var wire 8 ,# INPUT1 [7:0] $end
$var wire 8 -# INPUT2 [7:0] $end
$var wire 1 d SELECT $end
$var reg 8 .# RESULT [7:0] $end
$upscope $end
$upscope $end
$scope module jumpadder $end
$var wire 32 /# INPUT2 [31:0] $end
$var wire 32 0# INPUT1 [31:0] $end
$var reg 32 1# RESULT [31:0] $end
$upscope $end
$scope module muMem $end
$var wire 8 2# INPUT2 [7:0] $end
$var wire 1 : SELECT $end
$var wire 8 3# INPUT1 [7:0] $end
$var reg 8 4# RESULT [7:0] $end
$upscope $end
$scope module muxFin $end
$var wire 8 5# INPUT2 [7:0] $end
$var wire 1 @ SELECT $end
$var wire 8 6# INPUT1 [7:0] $end
$var reg 8 7# RESULT [7:0] $end
$upscope $end
$scope module muximme $end
$var wire 8 8# INPUT2 [7:0] $end
$var wire 1 < SELECT $end
$var wire 8 9# INPUT1 [7:0] $end
$var reg 8 :# RESULT [7:0] $end
$upscope $end
$scope module muxjump $end
$var wire 32 ;# INPUT2 [31:0] $end
$var wire 1 6 SELECT $end
$var wire 32 <# INPUT1 [31:0] $end
$var reg 32 =# RESULT [31:0] $end
$upscope $end
$scope module muxtwos $end
$var wire 1 8 SELECT $end
$var wire 8 ># INPUT2 [7:0] $end
$var wire 8 ?# INPUT1 [7:0] $end
$var reg 8 @# RESULT [7:0] $end
$upscope $end
$scope module myadder $end
$var wire 32 A# INPUT1 [31:0] $end
$var wire 32 B# INPUT2 [31:0] $end
$var reg 32 C# RESULT [31:0] $end
$upscope $end
$scope module myalu $end
$var wire 1 P COMP $end
$var wire 8 D# DATA1 [7:0] $end
$var wire 8 E# DATA2 [7:0] $end
$var wire 3 F# SELECT [2:0] $end
$var wire 8 G# MULRESULT [7:0] $end
$var reg 8 H# RESULT [7:0] $end
$scope module mul $end
$var wire 8 I# DATA1 [7:0] $end
$var wire 8 J# DATA2 [7:0] $end
$var wire 8 K# SHIFT7 [7:0] $end
$var wire 8 L# SHIFT6 [7:0] $end
$var wire 8 M# SHIFT5 [7:0] $end
$var wire 8 N# SHIFT4 [7:0] $end
$var wire 8 O# SHIFT3 [7:0] $end
$var wire 8 P# SHIFT2 [7:0] $end
$var wire 8 Q# SHIFT1 [7:0] $end
$var wire 8 R# SHIFT0 [7:0] $end
$var reg 8 S# RES0 [7:0] $end
$var reg 8 T# RES1 [7:0] $end
$var reg 8 U# RES2 [7:0] $end
$var reg 8 V# RES3 [7:0] $end
$var reg 8 W# RES4 [7:0] $end
$var reg 8 X# RES5 [7:0] $end
$var reg 8 Y# RES6 [7:0] $end
$var reg 8 Z# RES7 [7:0] $end
$var reg 8 [# RESULT [7:0] $end
$upscope $end
$upscope $end
$scope module mycu $end
$var wire 1 \# ALUCOMP $end
$var wire 32 ]# INSTRUCTION [31:0] $end
$var wire 1 * RESET $end
$var reg 3 ^# aluOP [2:0] $end
$var reg 1 @ alu_shiftMUXSEL $end
$var reg 2 _# bShifterOpCode [1:0] $end
$var reg 1 > beq $end
$var reg 1 = bne $end
$var reg 1 < immeMUXSEL $end
$var reg 1 ; jump $end
$var reg 1 : memMUXSEL $end
$var reg 1 " memReadEn $end
$var reg 1 ! memWriteEn $end
$var reg 1 9 regWRITEEN $end
$var reg 1 8 twoscompMUXSEL $end
$upscope $end
$scope module myreg $end
$var wire 1 ) CLK $end
$var wire 8 `# IN [7:0] $end
$var wire 3 a# INADDRESS [2:0] $end
$var wire 8 b# OUT1 [7:0] $end
$var wire 3 c# OUT1ADDRESS [2:0] $end
$var wire 8 d# OUT2 [7:0] $end
$var wire 3 e# OUT2ADDRESS [2:0] $end
$var wire 1 * RESET $end
$var wire 1 7 WRITE $end
$var integer 32 f# i [31:0] $end
$upscope $end
$scope module twos $end
$var wire 8 g# INPUT [7:0] $end
$var reg 8 h# RESULT [7:0] $end
$upscope $end
$upscope $end
$upscope $end
$enddefinitions $end
#0
$dumpvars
bx h#
bx g#
bx f#
bx e#
bx d#
bx c#
bx b#
bx a#
bx `#
bx _#
bx ^#
bx ]#
z\#
bx [#
b0 Z#
b0 Y#
b0 X#
b0 W#
b0 V#
b0 U#
b0 T#
b0 S#
bx R#
bx0 Q#
bx00 P#
bx000 O#
bx0000 N#
bx00000 M#
bx000000 L#
bx0000000 K#
bx J#
bx I#
bx H#
bx G#
bx F#
bx E#
bx D#
bx C#
b100 B#
b11111111111111111111111111111100 A#
bx @#
bx ?#
bx >#
bx =#
bx <#
bx ;#
bx :#
bx 9#
bx 8#
bx 7#
bx 6#
bx 5#
bx 4#
bx 3#
bx 2#
bx 1#
bx 0#
bx00 /#
bx .#
bx -#
bx ,#
bx +#
0*#
x)#
x(#
0'#
bx &#
0%#
x$#
x##
0"#
bx !#
0~"
x}"
x|"
0{"
bx z"
0y"
xx"
xw"
0v"
bx u"
0t"
xs"
xr"
0q"
bx p"
0o"
xn"
xm"
0l"
bx k"
0j"
xi"
xh"
0g"
xf"
xe"
xd"
xc"
xb"
xa"
x`"
x_"
x^"
x]"
x\"
x["
0Z"
xY"
0X"
xW"
xV"
xU"
xT"
xS"
xR"
xQ"
xP"
xO"
0N"
xM"
0L"
xK"
xJ"
xI"
xH"
xG"
xF"
xE"
xD"
xC"
0B"
xA"
0@"
x?"
x>"
x="
x<"
x;"
x:"
x9"
x8"
x7"
06"
x5"
x4"
x3"
x2"
x1"
x0"
x/"
x."
x-"
x,"
0+"
x*"
0)"
0("
x'"
0&"
x%"
x$"
x#"
x""
x!"
0~
x}
0|
0{
xz
xy
xx
xw
xv
xu
bx t
xs
bx r
bx0000000 q
0p
xo
0n
0m
xl
0k
0j
xi
xh
bx g
bx f
bx e
xd
bx c
bx b
bx0000000 a
bx0 `
bx000 _
bx ^
bx ]
bx \
bx [
0Z
0Y
0X
0W
0V
0U
0T
bx S
b11111111111111111111111111111100 R
bx Q
xP
bx O
bx N
bx M
bx L
bx K
bx J
bx I
bx H
bx G
bx F
bx E
bx D
bx C
bx B
bx A
x@
bx ?
0>
0=
x<
0;
x:
x9
x8
x7
06
bx 5
bx 4
03
02
bx 1
b100000000 0
0/
bx .
0-
bx ,
bx +
1*
1)
bx (
0'
bx &
b11111111111111111111111111111100 %
bx $
bx #
x"
x!
$end
#1
0*
#2
b0 J
b0 =#
b1000 f#
b0 L
b0 0#
b0 <#
b0 C#
#3
1P
b0 (
b0 ,
b0 O
b0 6#
b0 H#
b0 G#
b0 [#
#4
0)
#8
1)
#9
b0 %
b0 R
b0 A#
#11
x+"
x)"
xX"
bx00 _
x("
xk
x&"
1s
xZ"
xN"
xB"
bx00 a
bx00 q
x6"
bx `
xj
b0 c#
0e"
0Y"
0M"
0A"
05"
0*"
0}
0o
1a"
1U"
1I"
1="
12"
1'"
1z
1l
0]"
0Q"
0E"
09"
0."
0#"
0w
0i
bx0000000 Z#
bx000000 Y#
bx00000 X#
bx0000 W#
bx000 V#
bx0 T#
b0 a#
b0 E
b11111010 Q
b11111010 \
b11111010 :#
b11111010 E#
b11111010 J#
b10 e#
b100 J
b100 =#
b0 /#
b0 M
b11111010 D
b11111010 8#
0"
0!
b100 L
b100 0#
b100 <#
b100 C#
b101000000000000000011111010 &
b101000000000000000011111010 4
b101000000000000000011111010 ]#
#12
b0 N
b0 ]
b0 .#
b0 5#
b0 -#
b0 ^
b0 t
b0 ,#
b0 F
b0 4#
b0 `#
b0 I
b0 3#
b0 7#
17
b0 c
b0 r
1d
0:
b0 ?
b0 [
b0 k"
b0 p"
b0 u"
b0 z"
b0 !#
b0 &#
b0 +#
b0 _#
0@
b0 A
b0 F#
b0 ^#
19
1<
08
0)
#13
0N"
0B"
06"
0f"
0+"
b0 a
b0 q
0Z"
0c"
0)#
0W"
0$#
0K"
0}"
0?"
0x"
04"
0d"
0)"
0X"
0b"
0V"
0J"
0>"
03"
b0 _
0("
0_"
0s"
0S"
0n"
0G"
0`"
0;"
0T"
00"
0H"
0%"
0<"
0y
01"
0k
0&"
0^"
0R"
0F"
0:"
0/"
0$"
0x
b0 `
0j
0P
0\"
0["
0P"
0O"
0D"
0C"
08"
07"
0-"
0,"
0""
0!"
0v
0u
0h
0i"
b11111010 F
b11111010 4#
b11111010 `#
b0 b
b0 g
b0 Z#
b0 Y#
b0 X#
b0 W#
b0 V#
b0 T#
b11111010 I
b11111010 3#
b11111010 7#
0h"
0m"
0r"
0w"
0|"
0##
0(#
b0 f
b0 R#
b0 Q#
b0 P#
b0 O#
b0 N#
b0 M#
b0 L#
b0 K#
b0 B
b0 9#
b0 @#
b11111010 (
b11111010 ,
b11111010 O
b11111010 6#
b11111010 H#
b0 1
b0 S
b0 e
b0 D#
b0 I#
b0 #
b0 +
b0 H
b0 b#
b0 G
b0 ?#
b0 d#
b0 g#
b100 K
b100 1#
b100 ;#
#14
b0 C
b0 >#
b0 h#
#16
1)
#17
b100 %
b100 R
b100 A#
#19
b111110 N
b111110 ]
b111110 .#
b111110 5#
b111110 -#
b1111100 ^
b1111100 t
b1111100 ,#
1N"
1B"
16"
1+"
b1111100 a
b1111100 q
1Z"
1W"
1$#
1K"
1}"
1?"
1x"
14"
1d"
1)"
1X"
1V"
1J"
1>"
13"
b1111100 _
1("
1S"
1n"
1;"
1T"
10"
1H"
1%"
1<"
1y
11"
1k
1&"
1R"
1:"
1/"
1$"
1x
b1011111 `
1j
0s
1\"
1O"
1D"
18"
17"
1-"
1,"
1""
1!"
1v
1u
1h
b1011111 b
b1011111 g
b11110100 T#
b1 a#
b10 Q
b10 \
b10 :#
b10 E#
b10 J#
b1000 J
b1000 =#
1h"
1m"
1r"
1w"
1|"
1##
1(#
b1011111 f
b11111010 R#
b11110100 Q#
b11101000 P#
b11010000 O#
b10100000 N#
b1000000 M#
b10000000 L#
b100 /#
b1 M
b10 D
b10 8#
b1000 L
b1000 0#
b1000 <#
b1000 C#
b11111010 1
b11111010 S
b11111010 e
b11111010 D#
b11111010 I#
b11111010 #
b11111010 +
b11111010 H
b11111010 b#
b1001000000010000000000000010 &
b1001000000010000000000000010 4
b1001000000010000000000000010 ]#
#20
b10111 -#
b11101000 ^
b11101000 t
b11101000 ,#
1f"
0B"
b11101000 a
b11101000 q
0+"
1c"
1)#
0?"
0x"
0)"
0X"
1b"
0>"
b11101000 _
0("
1_"
1s"
1G"
1`"
0%"
0<"
0k
0&"
1^"
1F"
0$"
b11111010 `
0j
1["
1P"
1C"
0-"
0!"
0v
0h
1i"
b11101000 F
b11101000 4#
b11101000 `#
b11111010 b
b11111010 g
b11101000 N
b11101000 ]
b11101000 .#
b11101000 5#
b11101000 I
b11101000 3#
b11101000 7#
b10 (
b10 ,
b10 O
b10 6#
b10 H#
0d
b11 ?
b11 [
b11 k"
b11 p"
b11 u"
b11 z"
b11 !#
b11 &#
b11 +#
b11 _#
1@
0)
#21
b1100 K
b1100 1#
b1100 ;#
#22
b11110100 G#
b11110100 [#
#24
1)
#25
b1000 %
b1000 R
b1000 A#
#27
b1100 J
b1100 =#
b1100 L
b1100 0#
b1100 <#
b1100 C#
b1010000000010000000000000010 &
b1010000000010000000000000010 4
b1010000000010000000000000010 ]#
#28
1P
b0 (
b0 ,
b0 O
b0 6#
b0 H#
b0 ?
b0 [
b0 k"
b0 p"
b0 u"
b0 z"
b0 !#
b0 &#
b0 +#
b0 _#
b111 A
b111 F#
b111 ^#
0)
#29
b111110 -#
b1111100 ^
b1111100 t
b1111100 ,#
0f"
1B"
b1111100 a
b1111100 q
1+"
0c"
0)#
1?"
1x"
1)"
1X"
0b"
1>"
b1111100 _
1("
0_"
0s"
0G"
0`"
1%"
1<"
1k
1&"
0^"
0F"
1$"
b1011111 `
1j
b111110 F
b111110 4#
b111110 `#
0["
0P"
0C"
1-"
1!"
1v
1h
0i"
b111110 I
b111110 3#
b111110 7#
b1011111 b
b1011111 g
b111110 N
b111110 ]
b111110 .#
b111110 5#
1d
b10000 K
b10000 1#
b10000 ;#
#32
1)
#33
b1100 %
b1100 R
b1100 A#
#35
b10000 J
b10000 =#
b10000 L
b10000 0#
b10000 <#
b10000 C#
b1011000000010000000000000010 &
b1011000000010000000000000010 4
b1011000000010000000000000010 ]#
#36
b11111110 F
b11111110 4#
b11111110 `#
b11111110 I
b11111110 3#
b11111110 7#
b11111110 N
b11111110 ]
b11111110 .#
b11111110 5#
b11111110 -#
b1111111 ^
b1111111 t
b1111111 ,#
1p
b1111111 a
b1111111 q
1~
1n
1@"
1|
1L"
1m
b1111111 _
1{
1Z
1Y
1X
1W
1V
1U
1T
b1 ?
b1 [
b1 k"
b1 p"
b1 u"
b1 z"
b1 !#
b1 &#
b1 +#
b1 _#
0)
#37
b11111111 c
b11111111 r
b10100 K
b10100 1#
b10100 ;#
#40
1)
#41
b10000 %
b10000 R
b10000 A#
#43
b10100 J
b10100 =#
b10100 L
b10100 0#
b10100 <#
b10100 C#
b1100000000010000000000000010 &
b1100000000010000000000000010 4
b1100000000010000000000000010 ]#
#44
b10111110 F
b10111110 4#
b10111110 `#
b10111110 I
b10111110 3#
b10111110 7#
b10111110 N
b10111110 ]
b10111110 .#
b10111110 5#
b10111110 -#
b1111101 ^
b1111101 t
b1111101 ,#
b1111101 a
b1111101 q
0~
0|
0L"
b1111101 _
0{
0Z
0X
0T
b10 ?
b10 [
b10 k"
b10 p"
b10 u"
b10 z"
b10 !#
b10 &#
b10 +#
b10 _#
0)
#45
b1111101 c
b1111101 r
b11000 K
b11000 1#
b11000 ;#
#48
1)
#49
b10100 %
b10100 R
b10100 A#
#51
0+"
b11010111 F
b11010111 4#
b11010111 `#
0U
1T
0B"
b11010111 I
b11010111 3#
b11010111 7#
0W"
0$#
1c"
1)#
0n
0@"
b11010111 N
b11010111 ]
b11010111 .#
b11010111 5#
b11010111 -#
1V
1X
0V"
0Y
1b"
0m
b11101011 ^
b11101011 t
b11101011 ,#
1K"
1}"
1|
1L"
1_"
1s"
0S"
0n"
1G"
1`"
0k
0&"
1f"
1N"
16"
b11101011 a
b11101011 q
1~
1J"
b10111110 _
1{
1^"
0R"
1F"
b10111110 `
0j
1e"
1Y"
1M"
1A"
15"
1*"
1}
1o
0a"
0U"
0I"
0="
02"
0'"
0z
0l
1]"
1Q"
1E"
19"
1."
1#"
1w
1i
b11101000 U#
b0 T#
b11111010 S#
b10 a#
b101 Q
b101 \
b101 :#
b101 E#
b101 J#
b101 e#
b11000 J
b11000 =#
b1000 /#
b10 M
b101 D
b101 8#
b11000 L
b11000 0#
b11000 <#
b11000 C#
b101000000100000000000000101 &
b101000000100000000000000101 4
b101000000100000000000000101 ]#
#52
b111 N
b111 ]
b111 .#
b111 5#
b111 -#
b11100000 ^
b11100000 t
b11100000 ,#
0p
0~
b11100000 a
b11100000 q
06"
b0 F
b0 4#
b0 `#
0X
0W
0V
0T
b0 I
b0 3#
b0 7#
b0 c
b0 r
b0 ?
b0 [
b0 k"
b0 p"
b0 u"
b0 z"
b0 !#
b0 &#
b0 +#
b0 _#
0@
b0 A
b0 F#
b0 ^#
0)
#53
0P
b101 F
b101 4#
b101 `#
b101 I
b101 3#
b101 7#
b101 (
b101 ,
b101 O
b101 6#
b101 H#
b100000 K
b100000 1#
b100000 ;#
#54
b11100010 G#
b11100010 [#
#56
1)
#57
b11000 %
b11000 R
b11000 A#
#59
0f"
1s
0c"
0)#
b0 N
b0 ]
b0 .#
b0 5#
b0 -#
0b"
b0 ^
b0 t
b0 ,#
1W"
1$#
1)"
1X"
0|
0L"
0_"
0s"
1S"
1n"
0G"
0`"
1k
1&"
1Z"
1B"
16"
1+"
b1111100 a
b1111100 q
0~
1V"
1("
b1111100 _
0{
0^"
1R"
0F"
b1011111 `
1j
0e"
0Y"
0M"
0A"
05"
0*"
0}
0o
1a"
1U"
1I"
1="
12"
1'"
1z
1l
0]"
0Q"
0E"
09"
0."
0#"
0w
0i
b11010000 V#
b0 U#
b11110100 T#
b0 S#
b11 a#
b1010 Q
b1010 \
b1010 :#
b1010 E#
b1010 J#
b10 e#
b11100 J
b11100 =#
b1100 /#
b11 M
b1010 D
b1010 8#
b11100 L
b11100 0#
b11100 <#
b11100 C#
b101000000110000000000001010 &
b101000000110000000000001010 4
b101000000110000000000001010 ]#
#60
b1010 F
b1010 4#
b1010 `#
b1010 I
b1010 3#
b1010 7#
b1010 (
b1010 ,
b1010 O
b1010 6#
b1010 H#
0)
#61
b101 B
b101 9#
b101 @#
b101 G
b101 ?#
b101 d#
b101 g#
b101000 K
b101000 1#
b101000 ;#
#62
b11111011 C
b11111011 >#
b11111011 h#
b11000100 G#
b11000100 [#
#64
1)
#65
b11100 %
b11100 R
b11100 A#
#67
b11111 N
b11111 ]
b11111 .#
b11111 5#
b11111 -#
b11111000 ^
b11111000 t
b11111000 ,#
1f"
b11111000 a
b11111000 q
0+"
0s
1c"
1)#
0)"
0X"
1b"
b11111000 _
0("
1_"
1s"
0S"
0n"
1G"
1`"
0k
0&"
1^"
0R"
1F"
b10111110 `
0j
b10 c#
1]"
1Q"
1E"
19"
1."
1#"
1w
1i
b0 V#
b11111010 S#
b100 a#
b10 E
b11 Q
b11 \
b11 :#
b11 E#
b11 J#
b11 e#
b100000 J
b100000 =#
b10000 /#
b100 M
b11 D
b11 8#
b100000 L
b100000 0#
b100000 <#
b100000 C#
b1101000001000000001000000011 &
b1101000001000000001000000011 4
b1101000001000000001000000011 ]#
#68
b111 N
b111 ]
b111 .#
b111 5#
b111 -#
b11100000 ^
b11100000 t
b11100000 ,#
0W"
0$#
1)"
1X"
1|
1L"
1Z"
1N"
0B"
b11100000 a
b11100000 q
06"
0V"
1("
b10111110 _
1{
b11000100 F
b11000100 4#
b11000100 `#
1e"
1Y"
1M"
1A"
15"
1*"
1}
1o
0a"
0U"
0I"
0="
02"
0'"
0z
0l
b11101000 U#
b0 T#
b11000100 I
b11000100 3#
b11000100 7#
b101 Q
b101 \
b101 :#
b101 E#
b101 J#
b11000100 (
b11000100 ,
b11000100 O
b11000100 6#
b11000100 H#
b100 A
b100 F#
b100 ^#
0<
0)
#69
0N"
1s
0K"
0}"
0?"
0x"
04"
0d"
b0 N
b0 ]
b0 .#
b0 5#
b0 -#
0J"
0>"
03"
b0 ^
b0 t
b0 ,#
0W"
0$#
0)"
0X"
0|
0L"
0;"
0T"
00"
0H"
0%"
0<"
0y
01"
0Z"
0B"
06"
0+"
b10000000 a
b10000000 q
0~
0V"
0("
b10000000 _
0{
0:"
0/"
0$"
b10100000 `
0x
0\"
1["
1P"
0O"
0D"
1C"
08"
07"
0-"
0,"
0""
0!"
0v
0u
0h
1i"
0e"
0Y"
0M"
0A"
05"
0*"
0}
0o
1a"
1U"
1I"
1="
12"
1'"
1z
1l
0]"
0Q"
0E"
09"
0."
0#"
0w
0i
b10100000 b
b10100000 g
b101000 V#
b0 U#
b1010 T#
b0 S#
b1010 Q
b1010 \
b1010 :#
b1010 E#
b1010 J#
0h"
0m"
0r"
0w"
0|"
0##
0(#
b10100000 f
b101 R#
b1010 Q#
b10100 P#
b101000 O#
b1010000 N#
b10100000 M#
b1000000 L#
b10000000 K#
b1010 B
b1010 9#
b1010 @#
b101 1
b101 S
b101 e
b101 D#
b101 I#
b101 #
b101 +
b101 H
b101 b#
b1010 G
b1010 ?#
b1010 d#
b1010 g#
b110000 K
b110000 1#
b110000 ;#
#70
b110010 F
b110010 4#
b110010 `#
b110010 I
b110010 3#
b110010 7#
b110010 (
b110010 ,
b110010 O
b110010 6#
b110010 H#
b11110110 C
b11110110 >#
b11110110 h#
b110010 G#
b110010 [#
#72
1)
#73
b100000 %
b100000 R
b100000 A#
#75
b0 c#
b0 a#
b0 E
b10 e#
b100100 J
b100100 =#
b0 /#
b0 M
b1010 D
b1010 8#
b100100 L
b100100 0#
b100100 <#
b100100 C#
b101000000000000000000001010 &
b101000000000000000000001010 4
b101000000000000000000001010 ]#
#76
b0 A
b0 F#
b0 ^#
1<
0)
