Labs/Processor/Lab06/part01/submitted/cpu_wavedata.vcd
$date
	Fri Jun 12 20:13:41 2020
$end
$version
	Icarus Verilog
$end
$timescale
	1s
$end
$scope module testbenchCPU $end
$var wire 1 ! memWriteEn $end
$var wire 1 " memReadEn $end
$var wire 8 # WRITE_DATA [7:0] $end
$var wire 8 $ READ_DATA [7:0] $end
$var wire 32 % PC [31:0] $end
$var wire 32 & INS [31:0] $end
$var wire 1 ' BUSY_WAIT $end
$var wire 8 ( ADDRESS [7:0] $end
$var reg 1 ) CLK $end
$var reg 1 * RESET $end
$scope module myDataMemory $end
$var wire 1 ) clock $end
$var wire 1 * reset $end
$var wire 8 + writedata [7:0] $end
$var wire 1 ! write $end
$var wire 1 " read $end
$var wire 8 , address [7:0] $end
$var reg 1 ' busywait $end
$var reg 1 - readaccess $end
$var reg 8 . readdata [7:0] $end
$var reg 1 / writeaccess $end
$var integer 32 0 i [31:0] $end
$upscope $end
$scope module mycpu $end
$var wire 8 1 ALOP2 [7:0] $end
$var wire 1 2 ANDOUTBEQ $end
$var wire 1 3 ANDOUTBNE $end
$var wire 1 ' BUSY_WAIT $end
$var wire 1 ) CLK $end
$var wire 32 4 INSTRUCTION [31:0] $end
$var wire 8 5 MEMREAD [7:0] $end
$var wire 1 * RESET $end
$var wire 1 6 jumpMUXSEL $end
$var wire 1 7 regWRITEEN_FIN $end
$var wire 1 8 twoscompMUXSEL $end
$var wire 1 9 regWRITEEN $end
$var wire 1 ! memWriteEn $end
$var wire 1 " memReadEn $end
$var wire 1 : memMUXSEL $end
$var wire 1 ; jump $end
$var wire 1 < immeMUXSEL $end
$var wire 1 = bne $end
$var wire 1 > beq $end
$var wire 2 ? bShifterOpCode [1:0] $end
$var wire 1 @ alu_shiftMUXSEL $end
$var wire 3 A aluOP [2:0] $end
$var wire 8 B TWOSMUXOUT [7:0] $end
$var wire 8 C TWOSCOMPOUT [7:0] $end
$var wire 8 D SOURCE2 [7:0] $end
$var wire 8 E SOURCE1 [7:0] $end
$var wire 8 F REGSAVE [7:0] $end
$var wire 8 G REGOUT2 [7:0] $end
$var wire 8 H REGOUT1 [7:0] $end
$var wire 8 I PREV_ALU_BARREL_OUT [7:0] $end
$var wire 32 J PCNEXT [31:0] $end
$var wire 32 K PCJUMP [31:0] $end
$var wire 32 L PCINCBY4 [31:0] $end
$var wire 8 M DESTINATION [7:0] $end
$var wire 8 N BARRELOUT [7:0] $end
$var wire 8 O ALUOUT [7:0] $end
$var wire 1 P ALUCOMP $end
$var wire 8 Q ALOP1 [7:0] $end
$var reg 32 R PC [31:0] $end
$scope module bs $end
$var wire 8 S INPUT [7:0] $end
$var wire 1 T TMP7 $end
$var wire 1 U TMP6 $end
$var wire 1 V TMP5 $end
$var wire 1 W TMP4 $end
$var wire 1 X TMP3 $end
$var wire 1 Y TMP2 $end
$var wire 1 Z TMP1 $end
$var wire 2 [ SHIFT_MODE [1:0] $end
$var wire 8 \ SHIFT [7:0] $end
$var wire 8 ] OUTPUT [7:0] $end
$var wire 8 ^ OUTINTER [7:0] $end
$var wire 8 _ INTER2 [7:0] $end
$var wire 8 ` INTER1 [7:0] $end
$var wire 8 a INNER3 [7:0] $end
$var wire 8 b ININTER [7:0] $end
$var reg 8 c LAYER4_IN [7:0] $end
$var reg 1 d SHIFT_DIR $end
$scope module inmux $end
$var wire 8 e INPUT1 [7:0] $end
$var wire 8 f INPUT2 [7:0] $end
$var wire 1 d SELECT $end
$var reg 8 g RESULT [7:0] $end
$upscope $end
$scope module m0 $end
$var wire 1 h INPUT1 $end
$var wire 1 i SELECT $end
$var wire 1 Z INPUT2 $end
$var reg 1 j RESULT $end
$upscope $end
$scope module m00 $end
$var wire 1 k INPUT1 $end
$var wire 1 l SELECT $end
$var wire 1 Y INPUT2 $end
$var reg 1 m RESULT $end
$upscope $end
$scope module m000 $end
$var wire 1 n INPUT1 $end
$var wire 1 o SELECT $end
$var wire 1 W INPUT2 $end
$var reg 1 p RESULT $end
$upscope $end
$scope module m0000 $end
$var wire 8 q INPUT1 [7:0] $end
$var wire 8 r INPUT2 [7:0] $end
$var wire 1 s SELECT $end
$var reg 8 t RESULT [7:0] $end
$upscope $end
$scope module m1 $end
$var wire 1 u INPUT1 $end
$var wire 1 v INPUT2 $end
$var wire 1 w SELECT $end
$var reg 1 x RESULT $end
$upscope $end
$scope module m11 $end
$var wire 1 y INPUT1 $end
$var wire 1 z SELECT $end
$var wire 1 X INPUT2 $end
$var reg 1 { RESULT $end
$upscope $end
$scope module m111 $end
$var wire 1 | INPUT1 $end
$var wire 1 } SELECT $end
$var wire 1 V INPUT2 $end
$var reg 1 ~ RESULT $end
$upscope $end
$scope module m2 $end
$var wire 1 !" INPUT1 $end
$var wire 1 "" INPUT2 $end
$var wire 1 #" SELECT $end
$var reg 1 $" RESULT $end
$upscope $end
$scope module m22 $end
$var wire 1 %" INPUT1 $end
$var wire 1 &" INPUT2 $end
$var wire 1 '" SELECT $end
$var reg 1 (" RESULT $end
$upscope $end
$scope module m222 $end
$var wire 1 )" INPUT1 $end
$var wire 1 *" SELECT $end
$var wire 1 U INPUT2 $end
$var reg 1 +" RESULT $end
$upscope $end
$scope module m3 $end
$var wire 1 ," INPUT1 $end
$var wire 1 -" INPUT2 $end
$var wire 1 ." SELECT $end
$var reg 1 /" RESULT $end
$upscope $end
$scope module m33 $end
$var wire 1 0" INPUT1 $end
$var wire 1 1" INPUT2 $end
$var wire 1 2" SELECT $end
$var reg 1 3" RESULT $end
$upscope $end
$scope module m333 $end
$var wire 1 4" INPUT1 $end
$var wire 1 5" SELECT $end
$var wire 1 T INPUT2 $end
$var reg 1 6" RESULT $end
$upscope $end
$scope module m4 $end
$var wire 1 7" INPUT1 $end
$var wire 1 8" INPUT2 $end
$var wire 1 9" SELECT $end
$var reg 1 :" RESULT $end
$upscope $end
$scope module m44 $end
$var wire 1 ;" INPUT1 $end
$var wire 1 <" INPUT2 $end
$var wire 1 =" SELECT $end
$var reg 1 >" RESULT $end
$upscope $end
$scope module m444 $end
$var wire 1 ?" INPUT1 $end
$var wire 1 @" INPUT2 $end
$var wire 1 A" SELECT $end
$var reg 1 B" RESULT $end
$upscope $end
$scope module m5 $end
$var wire 1 C" INPUT1 $end
$var wire 1 D" INPUT2 $end
$var wire 1 E" SELECT $end
$var reg 1 F" RESULT $end
$upscope $end
$scope module m55 $end
$var wire 1 G" INPUT1 $end
$var wire 1 H" INPUT2 $end
$var wire 1 I" SELECT $end
$var reg 1 J" RESULT $end
$upscope $end
$scope module m555 $end
$var wire 1 K" INPUT1 $end
$var wire 1 L" INPUT2 $end
$var wire 1 M" SELECT $end
$var reg 1 N" RESULT $end
$upscope $end
$scope module m6 $end
$var wire 1 O" INPUT1 $end
$var wire 1 P" INPUT2 $end
$var wire 1 Q" SELECT $end
$var reg 1 R" RESULT $end
$upscope $end
$scope module m66 $end
$var wire 1 S" INPUT1 $end
$var wire 1 T" INPUT2 $end
$var wire 1 U" SELECT $end
$var reg 1 V" RESULT $end
$upscope $end
$scope module m666 $end
$var wire 1 W" INPUT1 $end
$var wire 1 X" INPUT2 $end
$var wire 1 Y" SELECT $end
$var reg 1 Z" RESULT $end
$upscope $end
$scope module m7 $end
$var wire 1 [" INPUT1 $end
$var wire 1 \" INPUT2 $end
$var wire 1 ]" SELECT $end
$var reg 1 ^" RESULT $end
$upscope $end
$scope module m77 $end
$var wire 1 _" INPUT1 $end
$var wire 1 `" INPUT2 $end
$var wire 1 a" SELECT $end
$var reg 1 b" RESULT $end
$upscope $end
$scope module m777 $end
$var wire 1 c" INPUT1 $end
$var wire 1 d" INPUT2 $end
$var wire 1 e" SELECT $end
$var reg 1 f" RESULT $end
$upscope $end
$scope module mt1 $end
$var wire 1 g" INPUT1 $end
$var wire 1 h" INPUT2 $end
$var wire 1 i" INPUT3 $end
$var wire 1 j" INPUT4 $end
$var wire 2 k" SELECT [1:0] $end
$var reg 1 Z RESULT $end
$upscope $end
$scope module mt2 $end
$var wire 1 l" INPUT1 $end
$var wire 1 m" INPUT2 $end
$var wire 1 n" INPUT3 $end
$var wire 1 o" INPUT4 $end
$var wire 2 p" SELECT [1:0] $end
$var reg 1 Y RESULT $end
$upscope $end
$scope module mt3 $end
$var wire 1 q" INPUT1 $end
$var wire 1 r" INPUT2 $end
$var wire 1 s" INPUT3 $end
$var wire 1 t" INPUT4 $end
$var wire 2 u" SELECT [1:0] $end
$var reg 1 X RESULT $end
$upscope $end
$scope module mt4 $end
$var wire 1 v" INPUT1 $end
$var wire 1 w" INPUT2 $end
$var wire 1 x" INPUT3 $end
$var wire 1 y" INPUT4 $end
$var wire 2 z" SELECT [1:0] $end
$var reg 1 W RESULT $end
$upscope $end
$scope module mt5 $end
$var wire 1 {" INPUT1 $end
$var wire 1 |" INPUT2 $end
$var wire 1 }" INPUT3 $end
$var wire 1 ~" INPUT4 $end
$var wire 2 !# SELECT [1:0] $end
$var reg 1 V RESULT $end
$upscope $end
$scope module mt6 $end
$var wire 1 "# INPUT1 $end
$var wire 1 ## INPUT2 $end
$var wire 1 $# INPUT3 $end
$var wire 1 %# INPUT4 $end
$var wire 2 &# SELECT [1:0] $end
$var reg 1 U RESULT $end
$upscope $end
$scope module mt7 $end
$var wire 1 '# INPUT1 $end
$var wire 1 (# INPUT2 $end
$var wire 1 )# INPUT3 $end
$var wire 1 *# INPUT4 $end
$var wire 2 +# SELECT [1:0] $end
$var reg 1 T RESULT $end
$upscope $end
$scope module outmux $end
$var wire 8 ,# INPUT1 [7:0] $end
$var wire 8 -# INPUT2 [7:0] $end
$var wire 1 d SELECT $end
$var reg 8 .# RESULT [7:0] $end
$upscope $end
$upscope $end
$scope module jumpadder $end
$var wire 32 /# INPUT2 [31:0] $end
$var wire 32 0# INPUT1 [31:0] $end
$var reg 32 1# RESULT [31:0] $end
$upscope $end
$scope module muMem $end
$var wire 8 2# INPUT2 [7:0] $end
$var wire 1 : SELECT $end
$var wire 8 3# INPUT1 [7:0] $end
$var reg 8 4# RESULT [7:0] $end
$upscope $end
$scope module muxFin $end
$var wire 8 5# INPUT2 [7:0] $end
$var wire 1 @ SELECT $end
$var wire 8 6# INPUT1 [7:0] $end
$var reg 8 7# RESULT [7:0] $end
$upscope $end
$scope module muximme $end
$var wire 8 8# INPUT2 [7:0] $end
$var wire 1 < SELECT $end
$var wire 8 9# INPUT1 [7:0] $end
$var reg 8 :# RESULT [7:0] $end
$upscope $end
$scope module muxjump $end
$var wire 32 ;# INPUT2 [31:0] $end
$var wire 1 6 SELECT $end
$var wire 32 <# INPUT1 [31:0] $end
$var reg 32 =# RESULT [31:0] $end
$upscope $end
$scope module muxtwos $end
$var wire 1 8 SELECT $end
$var wire 8 ># INPUT2 [7:0] $end
$var wire 8 ?# INPUT1 [7:0] $end
$var reg 8 @# RESULT [7:0] $end
$upscope $end
$scope module myadder $end
$var wire 32 A# INPUT1 [31:0] $end
$var wire 32 B# INPUT2 [31:0] $end
$var reg 32 C# RESULT [31:0] $end
$upscope $end
$scope module myalu $end
$var wire 1 P COMP $end
$var wire 8 D# DATA1 [7:0] $end
$var wire 8 E# DATA2 [7:0] $end
$var wire 3 F# SELECT [2:0] $end
$var wire 8 G# MULRESULT [7:0] $end
$var reg 8 H# RESULT [7:0] $end
$scope module mul $end
$var wire 8 I# DATA1 [7:0] $end
$var wire 8 J# DATA2 [7:0] $end
$var wire 8 K# SHIFT7 [7:0] $end
$var wire 8 L# SHIFT6 [7:0] $end
$var wire 8 M# SHIFT5 [7:0] $end
$var wire 8 N# SHIFT4 [7:0] $end
$var wire 8 O# SHIFT3 [7:0] $end
$var wire 8 P# SHIFT2 [7:0] $end
$var wire 8 Q# SHIFT1 [7:0] $end
$var wire 8 R# SHIFT0 [7:0] $end
$var reg 8 S# RES0 [7:0] $end
$var reg 8 T# RES1 [7:0] $end
$var reg 8 U# RES2 [7:0] $end
$var reg 8 V# RES3 [7:0] $end
$var reg 8 W# RES4 [7:0] $end
$var reg 8 X# RES5 [7:0] $end
$var reg 8 Y# RES6 [7:0] $end
$var reg 8 Z# RES7 [7:0] $end
$var reg 8 [# RESULT [7:0] $end
$upscope $end
$upscope $end
$scope module mycu $end
$var wire 1 \# ALUCOMP $end
$var wire 32 ]# INSTRUCTION [31:0] $end
$var wire 1 * RESET $end
$var reg 3 ^# aluOP [2:0] $end
$var reg 1 @ alu_shiftMUXSEL $end
$var reg 2 _# bShifterOpCode [1:0] $end
$var reg 1 > beq $end
$var reg 1 = bne $end
$var reg 1 < immeMUXSEL $end
$var reg 1 ; jump $end
$var reg 1 : memMUXSEL $end
$var reg 1 " memReadEn $end
$var reg 1 ! memWriteEn $end
$var reg 1 9 regWRITEEN $end
$var reg 1 8 twoscompMUXSEL $end
$upscope $end
$scope module myreg $end
$var wire 1 ) CLK $end
$var wire 8 `# IN [7:0] $end
$var wire 3 a# INADDRESS [2:0] $end
$var wire 8 b# OUT1 [7:0] $end
$var wire 3 c# OUT1ADDRESS [2:0] $end
$var wire 8 d# OUT2 [7:0] $end
$var wire 3 e# OUT2ADDRESS [2:0] $end
$var wire 1 * RESET $end
$var wire 1 7 WRITE $end
$var integer 32 f# i [31:0] $end
$upscope $end
$scope module twos $end
$var wire 8 g# INPUT [7:0] $end
$var reg 8 h# RESULT [7:0] $end
$upscope $end
$upscope $end
$upscope $end
$enddefinitions $end
#0
$dumpvars
bx h#
bx g#
bx f#
bx e#
bx d#
bx c#
bx b#
bx a#
bx `#
bx _#
bx ^#
bx ]#
z\#
bx [#
b0 Z#
b0 Y#
b0 X#
b0 W#
b0 V#
b0 U#
b0 T#
b0 S#
bx R#
bx0 Q#
bx00 P#
bx000 O#
bx0000 N#
bx00000 M#
bx000000 L#
bx0000000 K#
bx J#
bx I#
bx H#
bx G#
bx F#
bx E#
bx D#
bx C#
b100 B#
b11111111111111111111111111111100 A#
bx @#
bx ?#
bx >#
bx =#
bx <#
bx ;#
bx :#
bx 9#
bx 8#
bx 7#
bx 6#
bx 5#
bx 4#
bx 3#
bx 2#
bx 1#
bx 0#
bx00 /#
bx .#
bx -#
bx ,#
bx +#
0*#
x)#
x(#
0'#
bx &#
0%#
x$#
x##
0"#
bx !#
0~"
x}"
x|"
0{"
bx z"
0y"
xx"
xw"
0v"
bx u"
0t"
xs"
xr"
0q"
bx p"
0o"
xn"
xm"
0l"
bx k"
0j"
xi"
xh"
0g"
xf"
xe"
xd"
xc"
xb"
xa"
x`"
x_"
x^"
x]"
x\"
x["
0Z"
xY"
0X"
xW"
xV"
xU"
xT"
xS"
xR"
xQ"
xP"
xO"
0N"
xM"
0L"
xK"
xJ"
xI"
xH"
xG"
xF"
xE"
xD"
xC"
0B"
xA"
0@"
x?"
x>"
x="
x<"
x;"
x:"
x9"
x8"
x7"
06"
x5"
x4"
x3"
x2"
x1"
x0"
x/"
x."
x-"
x,"
0+"
x*"
0)"
0("
x'"
0&"
x%"
x$"
x#"
x""
x!"
0~
x}
0|
0{
xz
xy
xx
xw
xv
xu
bx t
xs
bx r
bx0000000 q
0p
xo
0n
0m
xl
0k
0j
xi
xh
bx g
bx f
bx e
xd
bx c
bx b
bx0000000 a
bx0 `
bx000 _
bx ^
bx ]
bx \
bx [
0Z
0Y
0X
0W
0V
0U
0T
bx S
b11111111111111111111111111111100 R
bx Q
xP
bx O
bx N
bx M
bx L
bx K
bx J
bx I
bx H
bx G
bx F
bx E
bx D
bx C
bx B
bx A
x@
bx ?
0>
0=
x<
0;
x:
x9
x8
x7
06
bx 5
bx 4
03
02
bx 1
b100000000 0
0/
bx .
0-
bx ,
bx +
1*
1)
bx (
0'
bx &
b11111111111111111111111111111100 %
bx $
bx #
x"
x!
$end
#1
0*
#2
b0 J
b0 =#
b1000 f#
b0 L
b0 0#
b0 <#
b0 C#
#3
1P
b0 (
b0 ,
b0 O
b0 6#
b0 H#
b0 G#
b0 [#
#4
0)
#8
1)
#9
b0 %
b0 R
b0 A#
#11
b0xxxxxxx I
b0xxxxxxx 3#
b0xxxxxxx 7#
b0xxxxxxx N
b0xxxxxxx ]
b0xxxxxxx .#
b0xxxxxxx 5#
b0xxxxxxx -#
x+"
x~
bx0 ^
bx0 t
bx0 ,#
x)"
xX"
x|
xL"
0s
xZ"
xN"
xB"
bx0 a
bx0 q
x6"
x("
bx0 _
x{
b0 c#
0e"
0Y"
0M"
0A"
05"
0*"
0}
0o
0a"
0U"
0I"
0="
02"
0'"
0z
0l
1]"
1Q"
1E"
19"
1."
1#"
1w
1i
bx S#
b0 a#
b0 E
b1 Q
b1 \
b1 :#
b1 E#
b1 J#
b1 e#
b100 J
b100 =#
b0 /#
b0 M
b1 D
b1 8#
0"
0!
b100 L
b100 0#
b100 <#
b100 C#
b101000000000000000000000001 &
b101000000000000000000000001 4
b101000000000000000000000001 ]#
#12
b0 F
b0 4#
b0 `#
b0 I
b0 3#
b0 7#
17
b0 c
b0 r
1d
0:
b0 ?
b0 [
b0 k"
b0 p"
b0 u"
b0 z"
b0 !#
b0 &#
b0 +#
b0 _#
0@
b0 A
b0 F#
b0 ^#
19
1<
08
0)
#13
b0 N
b0 ]
b0 .#
b0 5#
b0 -#
b0 ^
b0 t
b0 ,#
0+"
0Z"
0B"
0~
0N"
06"
b0 a
b0 q
0f"
0c"
0)#
0W"
0$#
0K"
0}"
0)"
0X"
0?"
0x"
0|
0L"
04"
0d"
0b"
0V"
0J"
0("
0>"
0{
b0 _
03"
0_"
0s"
0S"
0n"
0G"
0`"
0;"
0T"
00"
0H"
0%"
0<"
0y
01"
0^"
0R"
0F"
0:"
0/"
0$"
b0 `
0x
0\"
0["
0P"
0O"
0D"
0C"
08"
07"
0-"
0,"
0""
0!"
0v
0u
0h
0i"
b1 F
b1 4#
b1 `#
b0 b
b0 g
b0 S#
b1 I
b1 3#
b1 7#
0h"
0m"
0r"
0w"
0|"
0##
0(#
b0 f
b0 R#
b0 Q#
b0 P#
b0 O#
b0 N#
b0 M#
b0 L#
b0 K#
b0 B
b0 9#
b0 @#
b1 (
b1 ,
b1 O
b1 6#
b1 H#
b0 1
b0 S
b0 e
b0 D#
b0 I#
b0 #
b0 +
b0 H
b0 b#
b0 G
b0 ?#
b0 d#
b0 g#
b100 K
b100 1#
b100 ;#
#14
b0 C
b0 >#
b0 h#
#16
1)
#17
b100 %
b100 R
b100 A#
#19
b1 N
b1 ]
b1 .#
b1 5#
b1 -#
b10000000 ^
b10000000 t
b10000000 ,#
b10000000 a
b10000000 q
1f"
1c"
1)#
b10000000 _
1b"
1_"
1s"
b10000000 `
1^"
1["
1i"
0]"
0Q"
0E"
09"
0."
0#"
0w
0i
b10000000 b
b10000000 g
b1 a#
b0 Q
b0 \
b0 :#
b0 E#
b0 J#
b0 e#
b1000 J
b1000 =#
b10000000 f
b1 R#
b10 Q#
b100 P#
b1000 O#
b10000 N#
b100000 M#
b1000000 L#
b10000000 K#
b100 /#
b1 M
b0 D
b0 8#
b1000 L
b1000 0#
b1000 <#
b1000 C#
b1 1
b1 S
b1 e
b1 D#
b1 I#
b1 #
b1 +
b1 H
b1 b#
b101000000010000000000000000 &
b101000000010000000000000000 4
b101000000010000000000000000 ]#
#20
b0 F
b0 4#
b0 `#
b0 I
b0 3#
b0 7#
b0 (
b0 ,
b0 O
b0 6#
b0 H#
0)
#21
b1 B
b1 9#
b1 @#
b1 G
b1 ?#
b1 d#
b1 g#
b1100 K
b1100 1#
b1100 ;#
#22
b11111111 C
b11111111 >#
b11111111 h#
#24
1)
#25
b1000 %
b1000 R
b1000 A#
#27
b0 N
b0 ]
b0 .#
b0 5#
b0 -#
1s
b0 ^
b0 t
b0 ,#
b0 a
b0 q
0f"
0c"
0)#
b0 _
0b"
1a"
1U"
1I"
1="
12"
1'"
1z
1l
b1000 V#
b10 T#
b10 a#
b1010 Q
b1010 \
b1010 :#
b1010 E#
b1010 J#
b10 e#
b1100 J
b1100 =#
b1000 /#
b10 M
b1010 D
b1010 8#
b1100 L
b1100 0#
b1100 <#
b1100 C#
b101000000100000000000001010 &
b101000000100000000000001010 4
b101000000100000000000001010 ]#
#28
0P
b1010 F
b1010 4#
b1010 `#
b1010 I
b1010 3#
b1010 7#
b1010 (
b1010 ,
b1010 O
b1010 6#
b1010 H#
0)
#29
b0 B
b0 9#
b0 @#
b0 G
b0 ?#
b0 d#
b0 g#
b10100 K
b10100 1#
b10100 ;#
#30
b0 C
b0 >#
b0 h#
b1010 G#
b1010 [#
#32
1)
#33
b1100 %
b1100 R
b1100 A#
#35
b1 N
b1 ]
b1 .#
b1 5#
b1 -#
b10000000 ^
b10000000 t
b10000000 ,#
0s
b10000000 a
b10000000 q
1f"
1c"
1)#
b10000000 _
1b"
b1 c#
0a"
0U"
0I"
0="
02"
0'"
0z
0l
b0 V#
b0 T#
b1 a#
b1 E
b0 Q
b0 \
b0 :#
b0 E#
b0 J#
b0 e#
b10000 J
b10000 =#
b1010 B
b1010 9#
b1010 @#
b100 /#
b1 M
b0 D
b0 8#
b10000 L
b10000 0#
b10000 <#
b10000 C#
b1010 G
b1010 ?#
b1010 d#
b1010 g#
b10000000100000000 &
b10000000100000000 4
b10000000100000000 ]#
#36
b0 N
b0 ]
b0 .#
b0 5#
b0 -#
1s
b0 ^
b0 t
b0 ,#
1P
b0 a
b0 q
0f"
0c"
0)#
b0 _
0b"
b0 F
b0 4#
b0 `#
1a"
1U"
1I"
1="
12"
1'"
1z
1l
b1000 V#
b10 T#
b0 I
b0 3#
b0 7#
b1010 Q
b1010 \
b1010 :#
b1010 E#
b1010 J#
b0 (
b0 ,
b0 O
b0 6#
b0 H#
b11110110 C
b11110110 >#
b11110110 h#
b1 A
b1 F#
b1 ^#
0<
0)
#37
0s
b0 a
b0 q
0f"
0c"
0)#
0_"
0s"
b0 _
0b"
b0 `
0^"
0["
0i"
0a"
0U"
0I"
0="
02"
0'"
0z
0l
1]"
1Q"
1E"
19"
1."
1#"
1w
1i
b0 b
b0 g
b0 V#
b0 T#
b1 Q
b1 \
b1 :#
b1 E#
b1 J#
b0 f
b0 R#
b0 Q#
b0 P#
b0 O#
b0 N#
b0 M#
b0 L#
b0 K#
b1 B
b1 9#
b1 @#
b0 1
b0 S
b0 e
b0 D#
b0 I#
b0 #
b0 +
b0 H
b0 b#
b1 G
b1 ?#
b1 d#
b1 g#
#38
b1 F
b1 4#
b1 `#
b1 I
b1 3#
b1 7#
b11111111 C
b11111111 >#
b11111111 h#
b1 (
b1 ,
b1 O
b1 6#
b1 H#
b0 G#
b0 [#
#40
1)
#41
b10000 %
b10000 R
b10000 A#
#43
1["
1i"
b10000000 b
b10000000 g
b1 S#
b0 a#
b10100 J
b10100 =#
b10000000 f
b1 R#
b10 Q#
b100 P#
b1000 O#
b10000 N#
b100000 M#
b1000000 L#
b10000000 K#
b0 /#
b0 M
b10100 L
b10100 0#
b10100 <#
b10100 C#
b1 1
b1 S
b1 e
b1 D#
b1 I#
b1 #
b1 +
b1 H
b1 b#
b10001000000000000000100000000 &
b10001000000000000000100000000 4
b10001000000000000000100000000 ]#
#44
b1 N
b1 ]
b1 .#
b1 5#
b1 -#
b10000000 ^
b10000000 t
b10000000 ,#
b10000000 a
b10000000 q
1f"
1c"
1)#
b10000000 _
1b"
1_"
1s"
b10000000 `
1^"
0]"
0Q"
0E"
09"
0."
0#"
0w
0i
b0 S#
1/
1'
07
b0 Q
b0 \
b0 :#
b0 E#
b0 J#
1!
b0 A
b0 F#
b0 ^#
09
1<
0)
#48
1)
#52
0)
#56
1)
#60
0)
#64
1)
#68
0)
#72
1)
#76
0)
#80
1)
#84
0)
#88
1)
0/
0'
#89
b10100 %
b10100 R
b10100 A#
#91
b0 N
b0 ]
b0 .#
b0 5#
b0 -#
b0 ^
b0 t
b0 ,#
b0 a
b0 q
0f"
0c"
0)#
b0 _
0b"
1a"
1U"
1I"
1="
12"
1'"
1z
1l
b10 T#
b101 a#
b10 Q
b10 \
b10 :#
b10 E#
b10 J#
b10 e#
b11000 J
b11000 =#
b11111111111111111111111111110100 /#
b11111101 M
b10 D
b10 8#
0!
b11000 L
b11000 0#
b11000 <#
b11000 C#
b1000111111010000000100000010 &
b1000111111010000000100000010 4
b1000111111010000000100000010 ]#
#92
b10100 J
b10100 =#
16
13
0_"
0s"
0P
1s
b0 `
0^"
b10 F
b10 4#
b10 `#
1e"
1Y"
1M"
1A"
15"
1*"
1}
1o
1]"
1Q"
1E"
19"
1."
1#"
1w
1i
b10000000 Z#
b1000000 Y#
b100000 X#
b10000 W#
b1000 V#
b100 U#
b1 S#
b10 I
b10 3#
b10 7#
b11111111 Q
b11111111 \
b11111111 :#
b11111111 E#
b11111111 J#
b11111111 B
b11111111 9#
b11111111 @#
b10 (
b10 ,
b10 O
b10 6#
b10 H#
1=
b1 A
b1 F#
b1 ^#
0<
18
0)
#93
b1100 J
b1100 =#
b1010 G
b1010 ?#
b1010 d#
b1010 g#
b1100 K
b1100 1#
b1100 ;#
#94
b11000 J
b11000 =#
06
1_"
1s"
03
b10000000 `
1^"
0]"
0Q"
0E"
09"
0."
0#"
0w
0i
b0 V#
b0 S#
1P
b11110110 Q
b11110110 \
b11110110 :#
b11110110 E#
b11110110 J#
b0 F
b0 4#
b0 `#
b11110110 B
b11110110 9#
b11110110 @#
b0 I
b0 3#
b0 7#
b11110110 C
b11110110 >#
b11110110 h#
b0 (
b0 ,
b0 O
b0 6#
b0 H#
b11111111 G#
b11111111 [#
#96
b1100 J
b1100 =#
16
13
0P
b11110111 F
b11110111 4#
b11110111 `#
b11110111 I
b11110111 3#
b11110111 7#
b11110111 (
b11110111 ,
b11110111 O
b11110111 6#
b11110111 H#
1)
#97
b1100 %
b1100 R
b1100 A#
b11110110 G#
b11110110 [#
#99
b1 a#
b0 e#
b100 /#
b1 M
b0 D
b0 8#
b10000 L
b10000 0#
b10000 <#
b10000 C#
b10000000100000000 &
b10000000100000000 4
b10000000100000000 ]#
#100
b10000 J
b10000 =#
06
0e"
0Y"
0M"
0A"
05"
0*"
0}
0o
b0 Z#
b0 Y#
b0 X#
b0 W#
b1000 V#
b0 U#
b1010 Q
b1010 \
b1010 :#
b1010 E#
b1010 J#
03
17
b1010 B
b1010 9#
b1010 @#
0=
19
08
0)
#101
0s
b0 a
b0 q
0f"
0c"
0)#
0_"
0s"
b0 _
0b"
b0 `
0^"
0a"
0U"
0I"
0="
02"
0'"
0z
0l
1]"
1Q"
1E"
19"
1."
1#"
1w
1i
b0 V#
b0 T#
b1 S#
b1 Q
b1 \
b1 :#
b1 E#
b1 J#
b1 B
b1 9#
b1 @#
b1 G
b1 ?#
b1 d#
b1 g#
b10100 K
b10100 1#
b10100 ;#
#102
b10 F
b10 4#
b10 `#
b10 I
b10 3#
b10 7#
b11111111 C
b11111111 >#
b11111111 h#
b10 (
b10 ,
b10 O
b10 6#
b10 H#
#103
b1 G#
b1 [#
#104
1)
#105
b10000 %
b10000 R
b10000 A#
#107
b1 N
b1 ]
b1 .#
b1 5#
b1 -#
b10000000 ^
b10000000 t
b10000000 ,#
b10000000 a
b10000000 q
1f"
1c"
1)#
b10000000 _
1b"
1_"
1s"
b10000000 `
1^"
1\"
0["
1O"
0i"
b1000000 b
b1000000 g
b10 S#
b0 a#
b10100 J
b10100 =#
b1000000 f
b10 R#
b100 Q#
b1000 P#
b10000 O#
b100000 N#
b1000000 M#
b10000000 L#
b0 K#
b0 /#
b0 M
b10100 L
b10100 0#
b10100 <#
b10100 C#
b10 1
b10 S
b10 e
b10 D#
b10 I#
b10 #
b10 +
b10 H
b10 b#
b10001000000000000000100000000 &
b10001000000000000000100000000 4
b10001000000000000000100000000 ]#
#108
b10 N
b10 ]
b10 .#
b10 5#
b10 -#
b1000000 ^
b1000000 t
b1000000 ,#
0f"
b1000000 a
b1000000 q
1Z"
0c"
0)#
1W"
1$#
0b"
b1000000 _
1V"
0_"
0s"
1S"
1n"
0^"
b1000000 `
1R"
0]"
0Q"
0E"
09"
0."
0#"
0w
0i
b0 S#
1/
1'
07
b0 Q
b0 \
b0 :#
b0 E#
b0 J#
1!
b0 A
b0 F#
b0 ^#
09
1<
0)
#110
b0 G#
b0 [#
#111
1P
b0 F
b0 4#
b0 `#
b0 I
b0 3#
b0 7#
b0 (
b0 ,
b0 O
b0 6#
b0 H#
#112
1)
#116
0)
#120
1)
#124
0)
#128
1)
#132
0)
#136
1)
#140
0)
#144
1)
#148
0)
#152
1)
0/
0'
#153
b10100 %
b10100 R
b10100 A#
#155
b0 N
b0 ]
b0 .#
b0 5#
b0 -#
b0 ^
b0 t
b0 ,#
b0 a
b0 q
0Z"
0W"
0$#
b0 _
0V"
1a"
1U"
1I"
1="
12"
1'"
1z
1l
b100 T#
b101 a#
b10 Q
b10 \
b10 :#
b10 E#
b10 J#
b10 e#
b11000 J
b11000 =#
b11111111111111111111111111110100 /#
b11111101 M
b10 D
b10 8#
0!
b11000 L
b11000 0#
b11000 <#
b11000 C#
b1000111111010000000100000010 &
b1000111111010000000100000010 4
b1000111111010000000100000010 ]#
#156
b10100 J
b10100 =#
16
13
1_"
1s"
0S"
0n"
0P
1s
1^"
b10000000 `
0R"
b10 F
b10 4#
b10 `#
1e"
1Y"
1M"
1A"
15"
1*"
1}
1o
1]"
1Q"
1E"
19"
1."
1#"
1w
1i
b10000000 Y#
b1000000 X#
b100000 W#
b10000 V#
b1000 U#
b10 S#
b10 I
b10 3#
b10 7#
b11111111 Q
b11111111 \
b11111111 :#
b11111111 E#
b11111111 J#
b11111111 B
b11111111 9#
b11111111 @#
b10 (
b10 ,
b10 O
b10 6#
b10 H#
1=
b1 A
b1 F#
b1 ^#
0<
18
0)
