Labs/Processor/Lab05/part05/cpu_wavedata.vcd
$date
	Sun May 17 16:13:49 2020
$end
$version
	Icarus Verilog
$end
$timescale
	1s
$end
$scope module testbenchCPU $end
$var wire 32 ! PC [31:0] $end
$var wire 32 " INS [31:0] $end
$var reg 1 # CLK $end
$var reg 1 $ RESET $end
$scope module mycpu $end
$var wire 8 % ALOP2 [7:0] $end
$var wire 1 & ANDOUTBEQ $end
$var wire 1 ' ANDOUTBNE $end
$var wire 1 # CLK $end
$var wire 32 ( INSTRUCTION [31:0] $end
$var wire 1 $ RESET $end
$var wire 1 ) jumpMUXSEL $end
$var wire 1 * twoscompMUXSEL $end
$var wire 1 + regWRITEEN $end
$var wire 1 , jump $end
$var wire 1 - immeMUXSEL $end
$var wire 1 . bne $end
$var wire 1 / beq $end
$var wire 2 0 bShifterOpCode [1:0] $end
$var wire 1 1 alu_shiftMUXSEL $end
$var wire 3 2 aluOP [2:0] $end
$var wire 8 3 TWOSMUXOUT [7:0] $end
$var wire 8 4 TWOSCOMPOUT [7:0] $end
$var wire 8 5 SOURCE2 [7:0] $end
$var wire 8 6 SOURCE1 [7:0] $end
$var wire 8 7 REGSAVE [7:0] $end
$var wire 8 8 REGOUT2 [7:0] $end
$var wire 8 9 REGOUT1 [7:0] $end
$var wire 32 : PCNEXT [31:0] $end
$var wire 32 ; PCJUMP [31:0] $end
$var wire 32 < PCINCBY4 [31:0] $end
$var wire 8 = OP [7:0] $end
$var wire 8 > DESTINATION [7:0] $end
$var wire 8 ? BARRELOUT [7:0] $end
$var wire 8 @ ALUOUT [7:0] $end
$var wire 1 A ALUCOMP $end
$var wire 8 B ALOP1 [7:0] $end
$var reg 32 C PC [31:0] $end
$scope module bs $end
$var wire 8 D INPUT [7:0] $end
$var wire 1 E TMP7 $end
$var wire 1 F TMP6 $end
$var wire 1 G TMP5 $end
$var wire 1 H TMP4 $end
$var wire 1 I TMP3 $end
$var wire 1 J TMP2 $end
$var wire 1 K TMP1 $end
$var wire 2 L SHIFT_MODE [1:0] $end
$var wire 8 M SHIFT [7:0] $end
$var wire 8 N OUTPUT [7:0] $end
$var wire 8 O OUTINTER [7:0] $end
$var wire 8 P INTER2 [7:0] $end
$var wire 8 Q INTER1 [7:0] $end
$var wire 8 R INNER3 [7:0] $end
$var wire 8 S ININTER [7:0] $end
$var reg 8 T LAYER4_IN [7:0] $end
$var reg 1 U SHIFT_DIR $end
$scope module inmux $end
$var wire 8 V INPUT1 [7:0] $end
$var wire 8 W INPUT2 [7:0] $end
$var wire 1 U SELECT $end
$var reg 8 X RESULT [7:0] $end
$upscope $end
$scope module m0 $end
$var wire 1 Y INPUT1 $end
$var wire 1 Z SELECT $end
$var wire 1 K INPUT2 $end
$var reg 1 [ RESULT $end
$upscope $end
$scope module m00 $end
$var wire 1 \ INPUT1 $end
$var wire 1 ] SELECT $end
$var wire 1 J INPUT2 $end
$var reg 1 ^ RESULT $end
$upscope $end
$scope module m000 $end
$var wire 1 _ INPUT1 $end
$var wire 1 ` SELECT $end
$var wire 1 H INPUT2 $end
$var reg 1 a RESULT $end
$upscope $end
$scope module m0000 $end
$var wire 8 b INPUT1 [7:0] $end
$var wire 8 c INPUT2 [7:0] $end
$var wire 1 d SELECT $end
$var reg 8 e RESULT [7:0] $end
$upscope $end
$scope module m1 $end
$var wire 1 f INPUT1 $end
$var wire 1 g INPUT2 $end
$var wire 1 h SELECT $end
$var reg 1 i RESULT $end
$upscope $end
$scope module m11 $end
$var wire 1 j INPUT1 $end
$var wire 1 k SELECT $end
$var wire 1 I INPUT2 $end
$var reg 1 l RESULT $end
$upscope $end
$scope module m111 $end
$var wire 1 m INPUT1 $end
$var wire 1 n SELECT $end
$var wire 1 G INPUT2 $end
$var reg 1 o RESULT $end
$upscope $end
$scope module m2 $end
$var wire 1 p INPUT1 $end
$var wire 1 q INPUT2 $end
$var wire 1 r SELECT $end
$var reg 1 s RESULT $end
$upscope $end
$scope module m22 $end
$var wire 1 t INPUT1 $end
$var wire 1 u INPUT2 $end
$var wire 1 v SELECT $end
$var reg 1 w RESULT $end
$upscope $end
$scope module m222 $end
$var wire 1 x INPUT1 $end
$var wire 1 y SELECT $end
$var wire 1 F INPUT2 $end
$var reg 1 z RESULT $end
$upscope $end
$scope module m3 $end
$var wire 1 { INPUT1 $end
$var wire 1 | INPUT2 $end
$var wire 1 } SELECT $end
$var reg 1 ~ RESULT $end
$upscope $end
$scope module m33 $end
$var wire 1 !" INPUT1 $end
$var wire 1 "" INPUT2 $end
$var wire 1 #" SELECT $end
$var reg 1 $" RESULT $end
$upscope $end
$scope module m333 $end
$var wire 1 %" INPUT1 $end
$var wire 1 &" SELECT $end
$var wire 1 E INPUT2 $end
$var reg 1 '" RESULT $end
$upscope $end
$scope module m4 $end
$var wire 1 (" INPUT1 $end
$var wire 1 )" INPUT2 $end
$var wire 1 *" SELECT $end
$var reg 1 +" RESULT $end
$upscope $end
$scope module m44 $end
$var wire 1 ," INPUT1 $end
$var wire 1 -" INPUT2 $end
$var wire 1 ." SELECT $end
$var reg 1 /" RESULT $end
$upscope $end
$scope module m444 $end
$var wire 1 0" INPUT1 $end
$var wire 1 1" INPUT2 $end
$var wire 1 2" SELECT $end
$var reg 1 3" RESULT $end
$upscope $end
$scope module m5 $end
$var wire 1 4" INPUT1 $end
$var wire 1 5" INPUT2 $end
$var wire 1 6" SELECT $end
$var reg 1 7" RESULT $end
$upscope $end
$scope module m55 $end
$var wire 1 8" INPUT1 $end
$var wire 1 9" INPUT2 $end
$var wire 1 :" SELECT $end
$var reg 1 ;" RESULT $end
$upscope $end
$scope module m555 $end
$var wire 1 <" INPUT1 $end
$var wire 1 =" INPUT2 $end
$var wire 1 >" SELECT $end
$var reg 1 ?" RESULT $end
$upscope $end
$scope module m6 $end
$var wire 1 @" INPUT1 $end
$var wire 1 A" INPUT2 $end
$var wire 1 B" SELECT $end
$var reg 1 C" RESULT $end
$upscope $end
$scope module m66 $end
$var wire 1 D" INPUT1 $end
$var wire 1 E" INPUT2 $end
$var wire 1 F" SELECT $end
$var reg 1 G" RESULT $end
$upscope $end
$scope module m666 $end
$var wire 1 H" INPUT1 $end
$var wire 1 I" INPUT2 $end
$var wire 1 J" SELECT $end
$var reg 1 K" RESULT $end
$upscope $end
$scope module m7 $end
$var wire 1 L" INPUT1 $end
$var wire 1 M" INPUT2 $end
$var wire 1 N" SELECT $end
$var reg 1 O" RESULT $end
$upscope $end
$scope module m77 $end
$var wire 1 P" INPUT1 $end
$var wire 1 Q" INPUT2 $end
$var wire 1 R" SELECT $end
$var reg 1 S" RESULT $end
$upscope $end
$scope module m777 $end
$var wire 1 T" INPUT1 $end
$var wire 1 U" INPUT2 $end
$var wire 1 V" SELECT $end
$var reg 1 W" RESULT $end
$upscope $end
$scope module mt1 $end
$var wire 1 X" INPUT1 $end
$var wire 1 Y" INPUT2 $end
$var wire 1 Z" INPUT3 $end
$var wire 1 [" INPUT4 $end
$var wire 2 \" SELECT [1:0] $end
$var reg 1 K RESULT $end
$upscope $end
$scope module mt2 $end
$var wire 1 ]" INPUT1 $end
$var wire 1 ^" INPUT2 $end
$var wire 1 _" INPUT3 $end
$var wire 1 `" INPUT4 $end
$var wire 2 a" SELECT [1:0] $end
$var reg 1 J RESULT $end
$upscope $end
$scope module mt3 $end
$var wire 1 b" INPUT1 $end
$var wire 1 c" INPUT2 $end
$var wire 1 d" INPUT3 $end
$var wire 1 e" INPUT4 $end
$var wire 2 f" SELECT [1:0] $end
$var reg 1 I RESULT $end
$upscope $end
$scope module mt4 $end
$var wire 1 g" INPUT1 $end
$var wire 1 h" INPUT2 $end
$var wire 1 i" INPUT3 $end
$var wire 1 j" INPUT4 $end
$var wire 2 k" SELECT [1:0] $end
$var reg 1 H RESULT $end
$upscope $end
$scope module mt5 $end
$var wire 1 l" INPUT1 $end
$var wire 1 m" INPUT2 $end
$var wire 1 n" INPUT3 $end
$var wire 1 o" INPUT4 $end
$var wire 2 p" SELECT [1:0] $end
$var reg 1 G RESULT $end
$upscope $end
$scope module mt6 $end
$var wire 1 q" INPUT1 $end
$var wire 1 r" INPUT2 $end
$var wire 1 s" INPUT3 $end
$var wire 1 t" INPUT4 $end
$var wire 2 u" SELECT [1:0] $end
$var reg 1 F RESULT $end
$upscope $end
$scope module mt7 $end
$var wire 1 v" INPUT1 $end
$var wire 1 w" INPUT2 $end
$var wire 1 x" INPUT3 $end
$var wire 1 y" INPUT4 $end
$var wire 2 z" SELECT [1:0] $end
$var reg 1 E RESULT $end
$upscope $end
$scope module outmux $end
$var wire 8 {" INPUT1 [7:0] $end
$var wire 8 |" INPUT2 [7:0] $end
$var wire 1 U SELECT $end
$var reg 8 }" RESULT [7:0] $end
$upscope $end
$upscope $end
$scope module jumpadder $end
$var wire 32 ~" INPUT2 [31:0] $end
$var wire 32 !# INPUT1 [31:0] $end
$var reg 32 "# RESULT [31:0] $end
$upscope $end
$scope module muxFin $end
$var wire 8 ## INPUT2 [7:0] $end
$var wire 1 1 SELECT $end
$var wire 8 $# INPUT1 [7:0] $end
$var reg 8 %# RESULT [7:0] $end
$upscope $end
$scope module muximme $end
$var wire 8 &# INPUT2 [7:0] $end
$var wire 1 - SELECT $end
$var wire 8 '# INPUT1 [7:0] $end
$var reg 8 (# RESULT [7:0] $end
$upscope $end
$scope module muxjump $end
$var wire 32 )# INPUT2 [31:0] $end
$var wire 1 ) SELECT $end
$var wire 32 *# INPUT1 [31:0] $end
$var reg 32 +# RESULT [31:0] $end
$upscope $end
$scope module muxtwos $end
$var wire 1 * SELECT $end
$var wire 8 ,# INPUT2 [7:0] $end
$var wire 8 -# INPUT1 [7:0] $end
$var reg 8 .# RESULT [7:0] $end
$upscope $end
$scope module myadder $end
$var wire 32 /# INPUT1 [31:0] $end
$var wire 32 0# INPUT2 [31:0] $end
$var reg 32 1# RESULT [31:0] $end
$upscope $end
$scope module myalu $end
$var wire 1 A COMP $end
$var wire 8 2# DATA1 [7:0] $end
$var wire 8 3# DATA2 [7:0] $end
$var wire 3 4# SELECT [2:0] $end
$var wire 8 5# MULRESULT [7:0] $end
$var reg 8 6# RESULT [7:0] $end
$scope module mul $end
$var wire 8 7# DATA1 [7:0] $end
$var wire 8 8# DATA2 [7:0] $end
$var wire 8 9# SHIFT7 [7:0] $end
$var wire 8 :# SHIFT6 [7:0] $end
$var wire 8 ;# SHIFT5 [7:0] $end
$var wire 8 <# SHIFT4 [7:0] $end
$var wire 8 =# SHIFT3 [7:0] $end
$var wire 8 ># SHIFT2 [7:0] $end
$var wire 8 ?# SHIFT1 [7:0] $end
$var wire 8 @# SHIFT0 [7:0] $end
$var reg 8 A# RES0 [7:0] $end
$var reg 8 B# RES1 [7:0] $end
$var reg 8 C# RES2 [7:0] $end
$var reg 8 D# RES3 [7:0] $end
$var reg 8 E# RES4 [7:0] $end
$var reg 8 F# RES5 [7:0] $end
$var reg 8 G# RES6 [7:0] $end
$var reg 8 H# RES7 [7:0] $end
$var reg 8 I# RESULT [7:0] $end
$upscope $end
$upscope $end
$scope module mycu $end
$var wire 1 J# ALUCOMP $end
$var wire 8 K# OP [7:0] $end
$var wire 1 $ RESET $end
$var reg 3 L# aluOP [2:0] $end
$var reg 1 1 alu_shiftMUXSEL $end
$var reg 2 M# bShifterOpCode [1:0] $end
$var reg 1 / beq $end
$var reg 1 . bne $end
$var reg 1 - immeMUXSEL $end
$var reg 1 , jump $end
$var reg 1 + regWRITEEN $end
$var reg 1 * twoscompMUXSEL $end
$upscope $end
$scope module myreg $end
$var wire 1 # CLK $end
$var wire 8 N# IN [7:0] $end
$var wire 3 O# INADDRESS [2:0] $end
$var wire 8 P# OUT1 [7:0] $end
$var wire 3 Q# OUT1ADDRESS [2:0] $end
$var wire 8 R# OUT2 [7:0] $end
$var wire 3 S# OUT2ADDRESS [2:0] $end
$var wire 1 $ RESET $end
$var wire 1 + WRITE $end
$var integer 32 T# i [31:0] $end
$upscope $end
$scope module twos $end
$var wire 8 U# INPUT [7:0] $end
$var reg 8 V# RESULT [7:0] $end
$upscope $end
$upscope $end
$upscope $end
$enddefinitions $end
#0
$dumpvars
bx V#
bx U#
bx T#
bx S#
bx R#
bx Q#
bx P#
bx O#
bx N#
bx M#
bx L#
bx K#
zJ#
b0 I#
b0 H#
b0 G#
b0 F#
b0 E#
b0 D#
b0 C#
b0 B#
b0 A#
bx @#
bx0 ?#
bx00 >#
bx000 =#
bx0000 <#
bx00000 ;#
bx000000 :#
bx0000000 9#
bx 8#
bx 7#
b0 6#
b0 5#
bx 4#
bx 3#
bx 2#
bx 1#
b100 0#
b11111111111111111111111111111100 /#
bx .#
bx -#
bx ,#
bx +#
bx *#
bx )#
bx (#
bx '#
bx &#
bx %#
b0 $#
bx ##
bx "#
bx !#
bx00 ~"
bx }"
bx |"
bx {"
bx z"
0y"
xx"
xw"
0v"
bx u"
0t"
xs"
xr"
0q"
bx p"
0o"
xn"
xm"
0l"
bx k"
0j"
xi"
xh"
0g"
bx f"
0e"
xd"
xc"
0b"
bx a"
0`"
x_"
x^"
0]"
bx \"
0["
xZ"
xY"
0X"
xW"
xV"
xU"
xT"
xS"
xR"
xQ"
xP"
xO"
xN"
xM"
xL"
0K"
xJ"
0I"
xH"
xG"
xF"
xE"
xD"
xC"
xB"
xA"
x@"
0?"
x>"
0="
x<"
x;"
x:"
x9"
x8"
x7"
x6"
x5"
x4"
03"
x2"
01"
x0"
x/"
x."
x-"
x,"
x+"
x*"
x)"
x("
0'"
x&"
x%"
x$"
x#"
x""
x!"
x~
x}
x|
x{
0z
xy
0x
0w
xv
0u
xt
xs
xr
xq
xp
0o
xn
0m
0l
xk
xj
xi
xh
xg
xf
bx e
xd
bx c
bx0000000 b
0a
x`
0_
0^
x]
0\
0[
xZ
xY
bx X
bx W
bx V
xU
bx T
bx S
bx0000000 R
bx0 Q
bx000 P
bx O
bx N
bx M
bx L
0K
0J
0I
0H
0G
0F
0E
bx D
b11111111111111111111111111111100 C
bx B
1A
b0 @
bx ?
bx >
bx =
bx <
bx ;
bx :
bx 9
bx 8
bx 7
bx 6
bx 5
bx 4
bx 3
bx 2
x1
bx 0
0/
0.
x-
0,
x+
x*
0)
bx (
0'
0&
bx %
1$
1#
bx "
b11111111111111111111111111111100 !
$end
#1
0$
#2
b0 :
b0 +#
b1000 T#
b0 <
b0 !#
b0 *#
b0 1#
#5
0#
#10
1#
#11
b0 !
b0 C
b0 /#
#13
xz
xx
xI"
bx00 P
xw
x\
xu
1d
xK"
x?"
x3"
bx00 R
bx00 b
x'"
bx Q
x[
bx 5#
bx I#
b0 Q#
0V"
0J"
0>"
02"
0&"
0y
0n
0`
1R"
1F"
1:"
1."
1#"
1v
1k
1]
0N"
0B"
06"
0*"
0}
0r
0h
0Z
bx0000000 H#
bx000000 G#
bx00000 F#
bx0000 E#
bx000 D#
bx0 B#
b0 O#
b0 6
b11111010 B
b11111010 M
b11111010 (#
b11111010 3#
b11111010 8#
b10 S#
b100 :
b100 +#
b0 ~"
b0 >
b11111010 5
b11111010 &#
b101 =
b101 K#
b100 <
b100 !#
b100 *#
b100 1#
b101000000000000000011111010 "
b101000000000000000011111010 (
#14
b0 ?
b0 N
b0 }"
b0 ##
b0 |"
b0 O
b0 e
b0 {"
b0 7
b0 %#
b0 N#
b0 T
b0 c
1U
b0 0
b0 L
b0 \"
b0 a"
b0 f"
b0 k"
b0 p"
b0 u"
b0 z"
b0 M#
01
b0 2
b0 4#
b0 L#
1+
1-
0*
#15
0?"
03"
0'"
0W"
0z
b0 R
b0 b
0K"
0T"
0x"
0H"
0s"
0<"
0n"
00"
0i"
0%"
0U"
0x
0I"
0S"
0G"
0;"
0/"
0$"
b0 P
0w
0P"
0d"
0D"
0_"
08"
0Q"
0,"
0E"
0!"
09"
0t
0-"
0j
0""
0\
0u
0O"
0C"
07"
0+"
0~
0s
0i
b0 Q
0[
0A
0M"
0L"
0A"
0@"
05"
04"
0)"
0("
0|
0{
0q
0p
0g
0f
0Y
0Z"
b0 5#
b0 I#
b0 S
b0 X
b0 H#
b0 G#
b0 F#
b0 E#
b0 D#
b0 B#
b11111010 7
b11111010 %#
b11111010 N#
0Y"
0^"
0c"
0h"
0m"
0r"
0w"
b0 W
b0 @#
b0 ?#
b0 >#
b0 =#
b0 <#
b0 ;#
b0 :#
b0 9#
b0 3
b0 '#
b0 .#
b0 4
b0 ,#
b0 V#
b11111010 @
b11111010 $#
b11111010 6#
b0 %
b0 D
b0 V
b0 2#
b0 7#
b0 9
b0 P#
b0 8
b0 -#
b0 R#
b0 U#
b100 ;
b100 "#
b100 )#
0#
#20
1#
#21
b100 !
b100 C
b100 /#
#23
0d
b1 O#
b10 B
b10 M
b10 (#
b10 3#
b10 8#
b1000 :
b1000 +#
b100 ~"
b1 >
b10 5
b10 &#
b1001 =
b1001 K#
b1000 <
b1000 !#
b1000 *#
b1000 1#
b1001000000010000000000000010 "
b1001000000010000000000000010 (
#24
b111110 ?
b111110 N
b111110 }"
b111110 ##
b111110 |"
b1111100 O
b1111100 e
b1111100 {"
1?"
13"
1'"
1z
b1111100 R
b1111100 b
1K"
1H"
1s"
1<"
1n"
10"
1i"
1%"
1U"
1x
1I"
1G"
1;"
1/"
1$"
b1111100 P
1w
1D"
1_"
1,"
1E"
1!"
19"
1t
1-"
1j
1""
1\
1u
1C"
1+"
1~
1s
1i
b1011111 Q
1[
1M"
1@"
15"
1)"
1("
1|
1{
1q
1p
1g
1f
1Y
b11110100 5#
b11110100 I#
b1011111 S
b1011111 X
b11110100 B#
b111110 7
b111110 %#
b111110 N#
1Y"
1^"
1c"
1h"
1m"
1r"
1w"
b1011111 W
b11111010 @#
b11110100 ?#
b11101000 >#
b11010000 =#
b10100000 <#
b1000000 ;#
b10000000 :#
b10 @
b10 $#
b10 6#
b11 0
b11 L
b11 \"
b11 a"
b11 f"
b11 k"
b11 p"
b11 u"
b11 z"
b11 M#
11
b11111010 %
b11111010 D
b11111010 V
b11111010 2#
b11111010 7#
b11111010 9
b11111010 P#
#25
b10111 |"
b11101000 O
b11101000 e
b11101000 {"
1W"
03"
b11101000 R
b11101000 b
0z
1T"
1x"
00"
0i"
0x
0I"
1S"
0/"
b11101000 P
0w
1P"
1d"
18"
1Q"
0t
0-"
0\
0u
1O"
17"
0s
b11111010 Q
0[
1L"
1A"
14"
0|
0p
0g
0Y
1Z"
b11101000 7
b11101000 %#
b11101000 N#
b11111010 S
b11111010 X
b11101000 ?
b11101000 N
b11101000 }"
b11101000 ##
0U
b1100 ;
b1100 "#
b1100 )#
0#
#30
1#
#31
b1000 !
b1000 C
b1000 /#
#33
b1100 :
b1100 +#
b1010 =
b1010 K#
b1100 <
b1100 !#
b1100 *#
b1100 1#
b1010000000010000000000000010 "
b1010000000010000000000000010 (
#34
1A
b0 @
b0 $#
b0 6#
b0 0
b0 L
b0 \"
b0 a"
b0 f"
b0 k"
b0 p"
b0 u"
b0 z"
b0 M#
b111 2
b111 4#
b111 L#
#35
b111110 |"
b1111100 O
b1111100 e
b1111100 {"
0W"
13"
b1111100 R
b1111100 b
1z
0T"
0x"
10"
1i"
1x
1I"
0S"
1/"
b1111100 P
1w
0P"
0d"
08"
0Q"
1t
1-"
1\
1u
0O"
07"
1s
b1011111 Q
1[
0L"
0A"
04"
1|
1p
1g
1Y
0Z"
b111110 7
b111110 %#
b111110 N#
b1011111 S
b1011111 X
b111110 ?
b111110 N
b111110 }"
b111110 ##
1U
b10000 ;
b10000 "#
b10000 )#
0#
#40
1#
#41
b1100 !
b1100 C
b1100 /#
#43
b10000 :
b10000 +#
b1011 =
b1011 K#
b10000 <
b10000 !#
b10000 *#
b10000 1#
b1011000000010000000000000010 "
b1011000000010000000000000010 (
#44
b11111110 7
b11111110 %#
b11111110 N#
b11111110 ?
b11111110 N
b11111110 }"
b11111110 ##
b11111110 |"
b1111111 O
b1111111 e
b1111111 {"
1a
b1111111 R
b1111111 b
1o
1_
11"
1m
1="
1^
b1111111 P
1l
1K
1J
1I
1H
1G
1F
1E
b1 0
b1 L
b1 \"
b1 a"
b1 f"
b1 k"
b1 p"
b1 u"
b1 z"
b1 M#
#45
b11111111 T
b11111111 c
b10100 ;
b10100 "#
b10100 )#
0#
#50
1#
#51
b10000 !
b10000 C
b10000 /#
#53
b10100 :
b10100 +#
b1100 =
b1100 K#
b10100 <
b10100 !#
b10100 *#
b10100 1#
b1100000000010000000000000010 "
b1100000000010000000000000010 (
#54
b10111110 7
b10111110 %#
b10111110 N#
b10111110 ?
b10111110 N
b10111110 }"
b10111110 ##
b10111110 |"
b1111101 O
b1111101 e
b1111101 {"
b1111101 R
b1111101 b
0o
0m
0="
b1111101 P
0l
0K
0I
0E
b10 0
b10 L
b10 \"
b10 a"
b10 f"
b10 k"
b10 p"
b10 u"
b10 z"
b10 M#
#55
b1111101 T
b1111101 c
b11000 ;
b11000 "#
b11000 )#
0#
#60
1#
#61
b10100 !
b10100 C
b10100 /#
#63
0z
0F
1E
03"
b11010111 7
b11010111 %#
b11010111 N#
0H"
0s"
1T"
1x"
0_
01"
b11010111 ?
b11010111 N
b11010111 }"
b11010111 ##
b11010111 |"
1G
1I
0G"
0J
1S"
0^
b11101011 O
b11101011 e
b11101011 {"
1<"
1n"
1m
1="
1P"
1d"
0D"
0_"
18"
1Q"
0\
0u
1W"
1?"
1'"
b11101011 R
b11101011 b
1o
1;"
b10111110 P
1l
1O"
0C"
17"
b10111110 Q
0[
b11100010 5#
b11100010 I#
1V"
1J"
1>"
12"
1&"
1y
1n
1`
0R"
0F"
0:"
0."
0#"
0v
0k
0]
1N"
1B"
16"
1*"
1}
1r
1h
1Z
b11101000 C#
b0 B#
b11111010 A#
b10 O#
b101 B
b101 M
b101 (#
b101 3#
b101 8#
b101 S#
b11000 :
b11000 +#
b1000 ~"
b10 >
b101 5
b101 &#
b101 =
b101 K#
b11000 <
b11000 !#
b11000 *#
b11000 1#
b101000000100000000000000101 "
b101000000100000000000000101 (
#64
b111 ?
b111 N
b111 }"
b111 ##
b111 |"
b11100000 O
b11100000 e
b11100000 {"
0a
0o
b11100000 R
b11100000 b
0'"
0I
0H
0G
0E
b0 7
b0 %#
b0 N#
b0 T
b0 c
b0 0
b0 L
b0 \"
b0 a"
b0 f"
b0 k"
b0 p"
b0 u"
b0 z"
b0 M#
01
b0 2
b0 4#
b0 L#
#65
0A
b101 7
b101 %#
b101 N#
b101 @
b101 $#
b101 6#
b100000 ;
b100000 "#
b100000 )#
0#
#70
1#
#71
b11000 !
b11000 C
b11000 /#
#73
0W"
1d
0T"
0x"
b0 ?
b0 N
b0 }"
b0 ##
b0 |"
0S"
b0 O
b0 e
b0 {"
1H"
1s"
1x
1I"
0m
0="
0P"
0d"
1D"
1_"
08"
0Q"
1\
1u
1K"
13"
1'"
1z
b1111100 R
b1111100 b
0o
1G"
1w
b1111100 P
0l
0O"
1C"
07"
b1011111 Q
1[
b11000100 5#
b11000100 I#
0V"
0J"
0>"
02"
0&"
0y
0n
0`
1R"
1F"
1:"
1."
1#"
1v
1k
1]
0N"
0B"
06"
0*"
0}
0r
0h
0Z
b11010000 D#
b0 C#
b11110100 B#
b0 A#
b11 O#
b1010 B
b1010 M
b1010 (#
b1010 3#
b1010 8#
b10 S#
b11100 :
b11100 +#
b1100 ~"
b11 >
b1010 5
b1010 &#
b11100 <
b11100 !#
b11100 *#
b11100 1#
b101000000110000000000001010 "
b101000000110000000000001010 (
#74
b1010 7
b1010 %#
b1010 N#
b1010 @
b1010 $#
b1010 6#
#75
b101 3
b101 '#
b101 .#
b11111011 4
b11111011 ,#
b11111011 V#
b101 8
b101 -#
b101 R#
b101 U#
b101000 ;
b101000 "#
b101000 )#
0#
#80
1#
#81
b11100 !
b11100 C
b11100 /#
#83
b11111 ?
b11111 N
b11111 }"
b11111 ##
b11111 |"
b11111000 O
b11111000 e
b11111000 {"
1W"
b11111000 R
b11111000 b
0z
0d
1T"
1x"
0x
0I"
1S"
b11111000 P
0w
1P"
1d"
0D"
0_"
18"
1Q"
0\
0u
1O"
0C"
17"
b10111110 Q
0[
b11101110 5#
b11101110 I#
b10 Q#
1N"
1B"
16"
1*"
1}
1r
1h
1Z
b0 D#
b11111010 A#
b100 O#
b10 6
b11 B
b11 M
b11 (#
b11 3#
b11 8#
b11 S#
b100000 :
b100000 +#
b10000 ~"
b100 >
b11 5
b11 &#
b1101 =
b1101 K#
b100000 <
b100000 !#
b100000 *#
b100000 1#
b1101000001000000001000000011 "
b1101000001000000001000000011 (
#84
b111 ?
b111 N
b111 }"
b111 ##
b111 |"
b11100000 O
b11100000 e
b11100000 {"
0H"
0s"
1x
1I"
1m
1="
1K"
1?"
03"
b11100000 R
b11100000 b
0'"
0G"
1w
b10111110 P
1l
b11100010 5#
b11100010 I#
1V"
1J"
1>"
12"
1&"
1y
1n
1`
0R"
0F"
0:"
0."
0#"
0v
0k
0]
b11101000 C#
b0 B#
b11 7
b11 %#
b11 N#
b101 B
b101 M
b101 (#
b101 3#
b101 8#
b11 @
b11 $#
b11 6#
b100 2
b100 4#
b100 L#
0-
#85
0?"
1d
0<"
0n"
00"
0i"
0%"
0U"
b0 ?
b0 N
b0 }"
b0 ##
b0 |"
0;"
0/"
0$"
b0 O
b0 e
b0 {"
0H"
0s"
0x
0I"
0m
0="
0,"
0E"
0!"
09"
0t
0-"
0j
0""
0K"
03"
0'"
0z
b10000000 R
b10000000 b
0o
0G"
0w
b10000000 P
0l
0+"
0~
0s
b10100000 Q
0i
0M"
1L"
1A"
0@"
05"
14"
0)"
0("
0|
0{
0q
0p
0g
0f
0Y
1Z"
b110010 5#
b110010 I#
0V"
0J"
0>"
02"
0&"
0y
0n
0`
1R"
1F"
1:"
1."
1#"
1v
1k
1]
0N"
0B"
06"
0*"
0}
0r
0h
0Z
b10100000 S
b10100000 X
b101000 D#
b0 C#
b1010 B#
b0 A#
b1010 B
b1010 M
b1010 (#
b1010 3#
b1010 8#
0Y"
0^"
0c"
0h"
0m"
0r"
0w"
b10100000 W
b101 @#
b1010 ?#
b10100 >#
b101000 =#
b1010000 <#
b10100000 ;#
b1000000 :#
b10000000 9#
b1010 3
b1010 '#
b1010 .#
b11110110 4
b11110110 ,#
b11110110 V#
b101 %
b101 D
b101 V
b101 2#
b101 7#
b101 9
b101 P#
b1010 8
b1010 -#
b1010 R#
b1010 U#
b110000 ;
b110000 "#
b110000 )#
0#
#90
b110010 7
b110010 %#
b110010 N#
1#
b110010 @
b110010 $#
b110010 6#
#91
b100000 !
b100000 C
b100000 /#
#93
bx Q#
bx O#
bx 6
bx S#
b100100 :
b100100 +#
bx00 ~"
bx >
bx 5
bx &#
bx =
bx K#
b100100 <
b100100 !#
b100100 *#
b100100 1#
bx "
bx (
#95
xT"
xx"
xH"
xs"
x<"
xn"
x0"
xi"
x%"
xU"
xS"
xG"
x;"
x/"
bx000 P
x$"
xP"
xd"
xD"
x_"
x8"
xQ"
x,"
xE"
x!"
x9"
xt
x-"
xj
x""
xd
bx0000000 R
bx0000000 b
xW"
xO"
xC"
x7"
x+"
x~
xs
bx0 Q
xi
xM"
xL"
xA"
x@"
x5"
x4"
x)"
x("
x|
x{
xq
xp
xg
xf
xY
xZ"
b0 5#
b0 I#
xV"
xJ"
x>"
x2"
x&"
xy
xn
x`
xR"
xF"
x:"
x."
x#"
xv
xk
x]
xN"
xB"
x6"
x*"
x}
xr
xh
xZ
bx S
bx X
b0 D#
b0 B#
bx B
bx M
bx (#
bx 3#
bx 8#
xY"
x^"
xc"
xh"
xm"
xr"
xw"
bx W
bx @#
bx0 ?#
bx00 >#
bx000 =#
bx0000 <#
bx00000 ;#
bx000000 :#
bx0000000 9#
bx 3
bx '#
bx .#
bx 4
bx ,#
bx V#
bx %
bx D
bx V
bx 2#
bx 7#
bx 9
bx P#
bx 8
bx -#
bx R#
bx U#
bx ;
bx "#
bx )#
0#
#100
1#
#101
1A
b0 7
b0 %#
b0 N#
b100100 !
b100100 C
b100100 /#
b0 @
b0 $#
b0 6#
#103
b101000 :
b101000 +#
b101000 <
b101000 !#
b101000 *#
b101000 1#
#105
0#
#110
1#
#111
b101000 !
b101000 C
b101000 /#
#113
b101100 :
b101100 +#
b101100 <
b101100 !#
b101100 *#
b101100 1#
#115
0#
#120
1#
#121
b101100 !
b101100 C
b101100 /#
#123
b110000 :
b110000 +#
b110000 <
b110000 !#
b110000 *#
b110000 1#
#125
0#
#130
1#
#131
b110000 !
b110000 C
b110000 /#
#133
b110100 :
b110100 +#
b110100 <
b110100 !#
b110100 *#
b110100 1#
#135
0#
#140
1#
#141
b110100 !
b110100 C
b110100 /#
#143
b111000 :
b111000 +#
b111000 <
b111000 !#
b111000 *#
b111000 1#
#145
0#
#150
1#
#151
b111000 !
b111000 C
b111000 /#
#153
b111100 :
b111100 +#
b111100 <
b111100 !#
b111100 *#
b111100 1#
#155
0#
#160
1#
#161
b111100 !
b111100 C
b111100 /#
#163
b1000000 :
b1000000 +#
b1000000 <
b1000000 !#
b1000000 *#
b1000000 1#
#165
0#
#170
1#
#171
b1000000 !
b1000000 C
b1000000 /#
#173
b1000100 :
b1000100 +#
b1000100 <
b1000100 !#
b1000100 *#
b1000100 1#
#175
0#
#180
1#
#181
b1000100 !
b1000100 C
b1000100 /#
#183
b1001000 :
b1001000 +#
b1001000 <
b1001000 !#
b1001000 *#
b1001000 1#
#185
0#
#190
1#
#191
b1001000 !
b1001000 C
b1001000 /#
#193
b1001100 :
b1001100 +#
b1001100 <
b1001100 !#
b1001100 *#
b1001100 1#
#195
0#
#200
1#
#201
b1001100 !
b1001100 C
b1001100 /#
#203
b1010000 :
b1010000 +#
b1010000 <
b1010000 !#
b1010000 *#
b1010000 1#
#205
0#
