Labs/Processor/Lab06/part02/cpu_wavedata.vcd
$date
	Sun Jun  7 20:23:16 2020
$end
$version
	Icarus Verilog
$end
$timescale
	1s
$end
$scope module testbenchCPU $end
$var wire 1 ! memWriteEn $end
$var wire 1 " memReadEn $end
$var wire 8 # WRITE_DATA [7:0] $end
$var wire 8 $ READ_DATA [7:0] $end
$var wire 32 % PC [31:0] $end
$var wire 32 & MAIN_MEM_WRITE_DATA [31:0] $end
$var wire 1 ' MAIN_MEM_WRITE $end
$var wire 32 ( MAIN_MEM_READ_DATA [31:0] $end
$var wire 1 ) MAIN_MEM_READ $end
$var wire 1 * MAIN_MEM_BUSY_WAIT $end
$var wire 6 + MAIN_MEM_ADDRESS [5:0] $end
$var wire 32 , INS [31:0] $end
$var wire 1 - BUSY_WAIT $end
$var wire 8 . ADDRESS [7:0] $end
$var reg 1 / CLK $end
$var reg 1 0 RESET $end
$scope module myCacheMemory $end
$var wire 1 / clock $end
$var wire 1 0 reset $end
$var wire 8 1 writedata [7:0] $end
$var wire 1 ! write $end
$var wire 3 2 tag [2:0] $end
$var wire 1 " read $end
$var wire 2 3 offset [1:0] $end
$var wire 3 4 index [2:0] $end
$var wire 8 5 address [7:0] $end
$var wire 32 6 MAIN_MEM_READ_DATA [31:0] $end
$var wire 1 * MAIN_MEM_BUSY_WAIT $end
$var reg 32 7 CURRENT_DATA [31:0] $end
$var reg 1 8 CURRENT_DIRTY $end
$var reg 3 9 CURRENT_TAG [2:0] $end
$var reg 1 : CURRENT_VALID $end
$var reg 6 ; MAIN_MEM_ADDRESS [5:0] $end
$var reg 1 ) MAIN_MEM_READ $end
$var reg 1 ' MAIN_MEM_WRITE $end
$var reg 32 < MAIN_MEM_WRITE_DATA [31:0] $end
$var reg 1 = TAG_MATCH $end
$var reg 1 - busywait $end
$var reg 2 > next_state [1:0] $end
$var reg 1 ? readaccess $end
$var reg 8 @ readdata [7:0] $end
$var reg 2 A state [1:0] $end
$var reg 8 B tempory_data [7:0] $end
$var reg 1 C writeaccess $end
$var integer 32 D i [31:0] $end
$upscope $end
$scope module myDataMem $end
$var wire 6 E address [5:0] $end
$var wire 1 / clock $end
$var wire 1 ) read $end
$var wire 1 0 reset $end
$var wire 1 ' write $end
$var wire 32 F writedata [31:0] $end
$var reg 1 * busywait $end
$var reg 1 G readaccess $end
$var reg 32 H readdata [31:0] $end
$var reg 1 I writeaccess $end
$var integer 32 J i [31:0] $end
$upscope $end
$scope module mycpu $end
$var wire 8 K ALOP2 [7:0] $end
$var wire 1 L ANDOUTBEQ $end
$var wire 1 M ANDOUTBNE $end
$var wire 1 - BUSY_WAIT $end
$var wire 1 / CLK $end
$var wire 32 N INSTRUCTION [31:0] $end
$var wire 8 O MEMREAD [7:0] $end
$var wire 1 0 RESET $end
$var wire 1 P jumpMUXSEL $end
$var wire 1 Q regWRITEEN_FIN $end
$var wire 1 R twoscompMUXSEL $end
$var wire 1 S regWRITEEN $end
$var wire 1 ! memWriteEn $end
$var wire 1 " memReadEn $end
$var wire 1 T memMUXSEL $end
$var wire 1 U jump $end
$var wire 1 V immeMUXSEL $end
$var wire 1 W bne $end
$var wire 1 X beq $end
$var wire 2 Y bShifterOpCode [1:0] $end
$var wire 1 Z alu_shiftMUXSEL $end
$var wire 3 [ aluOP [2:0] $end
$var wire 8 \ TWOSMUXOUT [7:0] $end
$var wire 8 ] TWOSCOMPOUT [7:0] $end
$var wire 8 ^ SOURCE2 [7:0] $end
$var wire 8 _ SOURCE1 [7:0] $end
$var wire 8 ` REGSAVE [7:0] $end
$var wire 8 a REGOUT2 [7:0] $end
$var wire 8 b REGOUT1 [7:0] $end
$var wire 8 c PREV_ALU_BARREL_OUT [7:0] $end
$var wire 32 d PCNEXT [31:0] $end
$var wire 32 e PCJUMP [31:0] $end
$var wire 32 f PCINCBY4 [31:0] $end
$var wire 8 g DESTINATION [7:0] $end
$var wire 8 h BARRELOUT [7:0] $end
$var wire 8 i ALUOUT [7:0] $end
$var wire 1 j ALUCOMP $end
$var wire 8 k ALOP1 [7:0] $end
$var reg 32 l PC [31:0] $end
$scope module bs $end
$var wire 8 m INPUT [7:0] $end
$var wire 1 n TMP7 $end
$var wire 1 o TMP6 $end
$var wire 1 p TMP5 $end
$var wire 1 q TMP4 $end
$var wire 1 r TMP3 $end
$var wire 1 s TMP2 $end
$var wire 1 t TMP1 $end
$var wire 2 u SHIFT_MODE [1:0] $end
$var wire 8 v SHIFT [7:0] $end
$var wire 8 w OUTPUT [7:0] $end
$var wire 8 x OUTINTER [7:0] $end
$var wire 8 y INTER2 [7:0] $end
$var wire 8 z INTER1 [7:0] $end
$var wire 8 { INNER3 [7:0] $end
$var wire 8 | ININTER [7:0] $end
$var reg 8 } LAYER4_IN [7:0] $end
$var reg 1 ~ SHIFT_DIR $end
$scope module inmux $end
$var wire 8 !" INPUT1 [7:0] $end
$var wire 8 "" INPUT2 [7:0] $end
$var wire 1 ~ SELECT $end
$var reg 8 #" RESULT [7:0] $end
$upscope $end
$scope module m0 $end
$var wire 1 $" INPUT1 $end
$var wire 1 %" SELECT $end
$var wire 1 t INPUT2 $end
$var reg 1 &" RESULT $end
$upscope $end
$scope module m00 $end
$var wire 1 '" INPUT1 $end
$var wire 1 (" SELECT $end
$var wire 1 s INPUT2 $end
$var reg 1 )" RESULT $end
$upscope $end
$scope module m000 $end
$var wire 1 *" INPUT1 $end
$var wire 1 +" SELECT $end
$var wire 1 q INPUT2 $end
$var reg 1 ," RESULT $end
$upscope $end
$scope module m0000 $end
$var wire 8 -" INPUT1 [7:0] $end
$var wire 8 ." INPUT2 [7:0] $end
$var wire 1 /" SELECT $end
$var reg 8 0" RESULT [7:0] $end
$upscope $end
$scope module m1 $end
$var wire 1 1" INPUT1 $end
$var wire 1 2" INPUT2 $end
$var wire 1 3" SELECT $end
$var reg 1 4" RESULT $end
$upscope $end
$scope module m11 $end
$var wire 1 5" INPUT1 $end
$var wire 1 6" SELECT $end
$var wire 1 r INPUT2 $end
$var reg 1 7" RESULT $end
$upscope $end
$scope module m111 $end
$var wire 1 8" INPUT1 $end
$var wire 1 9" SELECT $end
$var wire 1 p INPUT2 $end
$var reg 1 :" RESULT $end
$upscope $end
$scope module m2 $end
$var wire 1 ;" INPUT1 $end
$var wire 1 <" INPUT2 $end
$var wire 1 =" SELECT $end
$var reg 1 >" RESULT $end
$upscope $end
$scope module m22 $end
$var wire 1 ?" INPUT1 $end
$var wire 1 @" INPUT2 $end
$var wire 1 A" SELECT $end
$var reg 1 B" RESULT $end
$upscope $end
$scope module m222 $end
$var wire 1 C" INPUT1 $end
$var wire 1 D" SELECT $end
$var wire 1 o INPUT2 $end
$var reg 1 E" RESULT $end
$upscope $end
$scope module m3 $end
$var wire 1 F" INPUT1 $end
$var wire 1 G" INPUT2 $end
$var wire 1 H" SELECT $end
$var reg 1 I" RESULT $end
$upscope $end
$scope module m33 $end
$var wire 1 J" INPUT1 $end
$var wire 1 K" INPUT2 $end
$var wire 1 L" SELECT $end
$var reg 1 M" RESULT $end
$upscope $end
$scope module m333 $end
$var wire 1 N" INPUT1 $end
$var wire 1 O" SELECT $end
$var wire 1 n INPUT2 $end
$var reg 1 P" RESULT $end
$upscope $end
$scope module m4 $end
$var wire 1 Q" INPUT1 $end
$var wire 1 R" INPUT2 $end
$var wire 1 S" SELECT $end
$var reg 1 T" RESULT $end
$upscope $end
$scope module m44 $end
$var wire 1 U" INPUT1 $end
$var wire 1 V" INPUT2 $end
$var wire 1 W" SELECT $end
$var reg 1 X" RESULT $end
$upscope $end
$scope module m444 $end
$var wire 1 Y" INPUT1 $end
$var wire 1 Z" INPUT2 $end
$var wire 1 [" SELECT $end
$var reg 1 \" RESULT $end
$upscope $end
$scope module m5 $end
$var wire 1 ]" INPUT1 $end
$var wire 1 ^" INPUT2 $end
$var wire 1 _" SELECT $end
$var reg 1 `" RESULT $end
$upscope $end
$scope module m55 $end
$var wire 1 a" INPUT1 $end
$var wire 1 b" INPUT2 $end
$var wire 1 c" SELECT $end
$var reg 1 d" RESULT $end
$upscope $end
$scope module m555 $end
$var wire 1 e" INPUT1 $end
$var wire 1 f" INPUT2 $end
$var wire 1 g" SELECT $end
$var reg 1 h" RESULT $end
$upscope $end
$scope module m6 $end
$var wire 1 i" INPUT1 $end
$var wire 1 j" INPUT2 $end
$var wire 1 k" SELECT $end
$var reg 1 l" RESULT $end
$upscope $end
$scope module m66 $end
$var wire 1 m" INPUT1 $end
$var wire 1 n" INPUT2 $end
$var wire 1 o" SELECT $end
$var reg 1 p" RESULT $end
$upscope $end
$scope module m666 $end
$var wire 1 q" INPUT1 $end
$var wire 1 r" INPUT2 $end
$var wire 1 s" SELECT $end
$var reg 1 t" RESULT $end
$upscope $end
$scope module m7 $end
$var wire 1 u" INPUT1 $end
$var wire 1 v" INPUT2 $end
$var wire 1 w" SELECT $end
$var reg 1 x" RESULT $end
$upscope $end
$scope module m77 $end
$var wire 1 y" INPUT1 $end
$var wire 1 z" INPUT2 $end
$var wire 1 {" SELECT $end
$var reg 1 |" RESULT $end
$upscope $end
$scope module m777 $end
$var wire 1 }" INPUT1 $end
$var wire 1 ~" INPUT2 $end
$var wire 1 !# SELECT $end
$var reg 1 "# RESULT $end
$upscope $end
$scope module mt1 $end
$var wire 1 ## INPUT1 $end
$var wire 1 $# INPUT2 $end
$var wire 1 %# INPUT3 $end
$var wire 1 &# INPUT4 $end
$var wire 2 '# SELECT [1:0] $end
$var reg 1 t RESULT $end
$upscope $end
$scope module mt2 $end
$var wire 1 (# INPUT1 $end
$var wire 1 )# INPUT2 $end
$var wire 1 *# INPUT3 $end
$var wire 1 +# INPUT4 $end
$var wire 2 ,# SELECT [1:0] $end
$var reg 1 s RESULT $end
$upscope $end
$scope module mt3 $end
$var wire 1 -# INPUT1 $end
$var wire 1 .# INPUT2 $end
$var wire 1 /# INPUT3 $end
$var wire 1 0# INPUT4 $end
$var wire 2 1# SELECT [1:0] $end
$var reg 1 r RESULT $end
$upscope $end
$scope module mt4 $end
$var wire 1 2# INPUT1 $end
$var wire 1 3# INPUT2 $end
$var wire 1 4# INPUT3 $end
$var wire 1 5# INPUT4 $end
$var wire 2 6# SELECT [1:0] $end
$var reg 1 q RESULT $end
$upscope $end
$scope module mt5 $end
$var wire 1 7# INPUT1 $end
$var wire 1 8# INPUT2 $end
$var wire 1 9# INPUT3 $end
$var wire 1 :# INPUT4 $end
$var wire 2 ;# SELECT [1:0] $end
$var reg 1 p RESULT $end
$upscope $end
$scope module mt6 $end
$var wire 1 <# INPUT1 $end
$var wire 1 =# INPUT2 $end
$var wire 1 ># INPUT3 $end
$var wire 1 ?# INPUT4 $end
$var wire 2 @# SELECT [1:0] $end
$var reg 1 o RESULT $end
$upscope $end
$scope module mt7 $end
$var wire 1 A# INPUT1 $end
$var wire 1 B# INPUT2 $end
$var wire 1 C# INPUT3 $end
$var wire 1 D# INPUT4 $end
$var wire 2 E# SELECT [1:0] $end
$var reg 1 n RESULT $end
$upscope $end
$scope module outmux $end
$var wire 8 F# INPUT1 [7:0] $end
$var wire 8 G# INPUT2 [7:0] $end
$var wire 1 ~ SELECT $end
$var reg 8 H# RESULT [7:0] $end
$upscope $end
$upscope $end
$scope module jumpadder $end
$var wire 32 I# INPUT2 [31:0] $end
$var wire 32 J# INPUT1 [31:0] $end
$var reg 32 K# RESULT [31:0] $end
$upscope $end
$scope module muMem $end
$var wire 8 L# INPUT2 [7:0] $end
$var wire 1 T SELECT $end
$var wire 8 M# INPUT1 [7:0] $end
$var reg 8 N# RESULT [7:0] $end
$upscope $end
$scope module muxFin $end
$var wire 8 O# INPUT2 [7:0] $end
$var wire 1 Z SELECT $end
$var wire 8 P# INPUT1 [7:0] $end
$var reg 8 Q# RESULT [7:0] $end
$upscope $end
$scope module muximme $end
$var wire 8 R# INPUT2 [7:0] $end
$var wire 1 V SELECT $end
$var wire 8 S# INPUT1 [7:0] $end
$var reg 8 T# RESULT [7:0] $end
$upscope $end
$scope module muxjump $end
$var wire 32 U# INPUT2 [31:0] $end
$var wire 1 P SELECT $end
$var wire 32 V# INPUT1 [31:0] $end
$var reg 32 W# RESULT [31:0] $end
$upscope $end
$scope module muxtwos $end
$var wire 1 R SELECT $end
$var wire 8 X# INPUT2 [7:0] $end
$var wire 8 Y# INPUT1 [7:0] $end
$var reg 8 Z# RESULT [7:0] $end
$upscope $end
$scope module myadder $end
$var wire 32 [# INPUT1 [31:0] $end
$var wire 32 \# INPUT2 [31:0] $end
$var reg 32 ]# RESULT [31:0] $end
$upscope $end
$scope module myalu $end
$var wire 1 j COMP $end
$var wire 8 ^# DATA1 [7:0] $end
$var wire 8 _# DATA2 [7:0] $end
$var wire 3 `# SELECT [2:0] $end
$var wire 8 a# MULRESULT [7:0] $end
$var reg 8 b# RESULT [7:0] $end
$scope module mul $end
$var wire 8 c# DATA1 [7:0] $end
$var wire 8 d# DATA2 [7:0] $end
$var wire 8 e# SHIFT7 [7:0] $end
$var wire 8 f# SHIFT6 [7:0] $end
$var wire 8 g# SHIFT5 [7:0] $end
$var wire 8 h# SHIFT4 [7:0] $end
$var wire 8 i# SHIFT3 [7:0] $end
$var wire 8 j# SHIFT2 [7:0] $end
$var wire 8 k# SHIFT1 [7:0] $end
$var wire 8 l# SHIFT0 [7:0] $end
$var reg 8 m# RES0 [7:0] $end
$var reg 8 n# RES1 [7:0] $end
$var reg 8 o# RES2 [7:0] $end
$var reg 8 p# RES3 [7:0] $end
$var reg 8 q# RES4 [7:0] $end
$var reg 8 r# RES5 [7:0] $end
$var reg 8 s# RES6 [7:0] $end
$var reg 8 t# RES7 [7:0] $end
$var reg 8 u# RESULT [7:0] $end
$upscope $end
$upscope $end
$scope module mycu $end
$var wire 1 v# ALUCOMP $end
$var wire 32 w# INSTRUCTION [31:0] $end
$var wire 1 0 RESET $end
$var reg 3 x# aluOP [2:0] $end
$var reg 1 Z alu_shiftMUXSEL $end
$var reg 2 y# bShifterOpCode [1:0] $end
$var reg 1 X beq $end
$var reg 1 W bne $end
$var reg 1 V immeMUXSEL $end
$var reg 1 U jump $end
$var reg 1 T memMUXSEL $end
$var reg 1 " memReadEn $end
$var reg 1 ! memWriteEn $end
$var reg 1 S regWRITEEN $end
$var reg 1 R twoscompMUXSEL $end
$upscope $end
$scope module myreg $end
$var wire 1 / CLK $end
$var wire 8 z# IN [7:0] $end
$var wire 3 {# INADDRESS [2:0] $end
$var wire 8 |# OUT1 [7:0] $end
$var wire 3 }# OUT1ADDRESS [2:0] $end
$var wire 8 ~# OUT2 [7:0] $end
$var wire 3 !$ OUT2ADDRESS [2:0] $end
$var wire 1 0 RESET $end
$var wire 1 Q WRITE $end
$var integer 32 "$ i [31:0] $end
$upscope $end
$scope module twos $end
$var wire 8 #$ INPUT [7:0] $end
$var reg 8 $$ RESULT [7:0] $end
$upscope $end
$upscope $end
$upscope $end
$enddefinitions $end
#0
$dumpvars
bx $$
bx #$
bx "$
bx !$
bx ~#
bx }#
bx |#
bx {#
bx z#
bx y#
bx x#
bx w#
zv#
bx u#
b0 t#
b0 s#
b0 r#
b0 q#
b0 p#
b0 o#
b0 n#
b0 m#
bx l#
bx0 k#
bx00 j#
bx000 i#
bx0000 h#
bx00000 g#
bx000000 f#
bx0000000 e#
bx d#
bx c#
bx b#
bx a#
bx `#
bx _#
bx ^#
bx ]#
b100 \#
b11111111111111111111111111111100 [#
bx Z#
bx Y#
bx X#
bx W#
bx V#
bx U#
bx T#
bx S#
bx R#
bx Q#
bx P#
bx O#
bx N#
bx M#
bx L#
bx K#
bx J#
bx00 I#
bx H#
bx G#
bx F#
bx E#
0D#
xC#
xB#
0A#
bx @#
0?#
x>#
x=#
0<#
bx ;#
0:#
x9#
x8#
07#
bx 6#
05#
x4#
x3#
02#
bx 1#
00#
x/#
x.#
0-#
bx ,#
0+#
x*#
x)#
0(#
bx '#
0&#
x%#
x$#
0##
x"#
x!#
x~"
x}"
x|"
x{"
xz"
xy"
xx"
xw"
xv"
xu"
0t"
xs"
0r"
xq"
xp"
xo"
xn"
xm"
xl"
xk"
xj"
xi"
0h"
xg"
0f"
xe"
xd"
xc"
xb"
xa"
x`"
x_"
x^"
x]"
0\"
x["
0Z"
xY"
xX"
xW"
xV"
xU"
xT"
xS"
xR"
xQ"
0P"
xO"
xN"
xM"
xL"
xK"
xJ"
xI"
xH"
xG"
xF"
0E"
xD"
0C"
0B"
xA"
0@"
x?"
x>"
x="
x<"
x;"
0:"
x9"
08"
07"
x6"
x5"
x4"
x3"
x2"
x1"
bx 0"
x/"
bx ."
bx0000000 -"
0,"
x+"
0*"
0)"
x("
0'"
0&"
x%"
x$"
bx #"
bx ""
bx !"
x~
bx }
bx |
bx0000000 {
bx0 z
bx000 y
bx x
bx w
bx v
bx u
0t
0s
0r
0q
0p
0o
0n
bx m
b11111111111111111111111111111100 l
bx k
xj
bx i
bx h
bx g
bx f
bx e
bx d
bx c
bx b
bx a
bx `
bx _
bx ^
bx ]
bx \
bx [
xZ
bx Y
0X
0W
xV
0U
xT
xS
xR
xQ
0P
bx O
bx N
0M
0L
bx K
b100000000 J
0I
bx H
0G
bx F
bx E
b1000 D
xC
bx B
b0 A
bx @
x?
b0 >
x=
bx <
bx ;
x:
bx 9
x8
bx 7
bx 6
bx 5
bx 4
bx 3
bx 2
bx 1
10
1/
bx .
0-
bx ,
bx +
0*
x)
bx (
x'
bx &
b11111111111111111111111111111100 %
bx $
bx #
x"
x!
$end
#1
00
#2
b0 d
b0 W#
b1000 "$
b0 f
b0 J#
b0 V#
b0 ]#
#3
1j
b0 3
b0 4
b0 2
b0 .
b0 5
b0 i
b0 P#
b0 b#
b0 a#
b0 u#
#4
0/
#8
1/
#9
b0 %
b0 l
b0 [#
#11
xE"
xC"
xr"
bx00 y
xB"
x'"
x@"
1/"
xt"
xh"
x\"
bx00 {
bx00 -"
xP"
bx z
x&"
b0 }#
0!#
0s"
0g"
0["
0O"
0D"
09"
0+"
1{"
1o"
1c"
1W"
1L"
1A"
16"
1("
0w"
0k"
0_"
0S"
0H"
0="
03"
0%"
bx0000000 t#
bx000000 s#
bx00000 r#
bx0000 q#
bx000 p#
bx0 n#
b0 {#
b0 _
b11111010 k
b11111010 v
b11111010 T#
b11111010 _#
b11111010 d#
b10 !$
0C
0?
b100 d
b100 W#
b0 I#
b0 g
b11111010 ^
b11111010 R#
0"
0!
b100 f
b100 J#
b100 V#
b100 ]#
b101000000000000000011111010 ,
b101000000000000000011111010 N
b101000000000000000011111010 w#
#12
b0 h
b0 w
b0 H#
b0 O#
b0 G#
b0 x
b0 0"
b0 F#
b0 `
b0 N#
b0 z#
b0 c
b0 M#
b0 Q#
1Q
b0 }
b0 ."
1~
0T
b0 Y
b0 u
b0 '#
b0 ,#
b0 1#
b0 6#
b0 ;#
b0 @#
b0 E#
b0 y#
0Z
b0 [
b0 `#
b0 x#
1S
1V
0R
0/
#13
0h"
0\"
0P"
0"#
0E"
b0 {
b0 -"
0t"
0}"
0C#
0q"
0>#
0e"
09#
0Y"
04#
0N"
0~"
0C"
0r"
0|"
0p"
0d"
0X"
0M"
b0 y
0B"
0y"
0/#
0m"
0*#
0a"
0z"
0U"
0n"
0J"
0b"
0?"
0V"
05"
0K"
0'"
0@"
0x"
0l"
0`"
0T"
0I"
0>"
04"
b0 z
0&"
0j
0v"
0u"
0j"
0i"
0^"
0]"
0R"
0Q"
0G"
0F"
0<"
0;"
02"
01"
0$"
0%#
b11111010 `
b11111010 N#
b11111010 z#
b0 |
b0 #"
b0 t#
b0 s#
b0 r#
b0 q#
b0 p#
b0 n#
b10 3
b110 4
b111 2
b11111010 c
b11111010 M#
b11111010 Q#
0$#
0)#
0.#
03#
08#
0=#
0B#
b0 ""
b0 l#
b0 k#
b0 j#
b0 i#
b0 h#
b0 g#
b0 f#
b0 e#
b0 \
b0 S#
b0 Z#
b11111010 .
b11111010 5
b11111010 i
b11111010 P#
b11111010 b#
b0 K
b0 m
b0 !"
b0 ^#
b0 c#
b0 #
b0 1
b0 b
b0 |#
b0 a
b0 Y#
b0 ~#
b0 #$
b100 e
b100 K#
b100 U#
#14
b0 ]
b0 X#
b0 $$
#16
1/
#17
b100 %
b100 l
b100 [#
#19
b111110 h
b111110 w
b111110 H#
b111110 O#
b111110 G#
b1111100 x
b1111100 0"
b1111100 F#
1h"
1\"
1P"
1E"
b1111100 {
b1111100 -"
1t"
1q"
1>#
1e"
19#
1Y"
14#
1N"
1~"
1C"
1r"
1p"
1d"
1X"
1M"
b1111100 y
1B"
1m"
1*#
1U"
1n"
1J"
1b"
1?"
1V"
15"
1K"
1'"
1@"
1l"
1T"
1I"
1>"
14"
b1011111 z
1&"
0/"
1v"
1i"
1^"
1R"
1Q"
1G"
1F"
1<"
1;"
12"
11"
1$"
b1011111 |
b1011111 #"
b11110100 n#
b1 {#
b10 k
b10 v
b10 T#
b10 _#
b10 d#
b1000 d
b1000 W#
1$#
1)#
1.#
13#
18#
1=#
1B#
b1011111 ""
b11111010 l#
b11110100 k#
b11101000 j#
b11010000 i#
b10100000 h#
b1000000 g#
b10000000 f#
b100 I#
b1 g
b10 ^
b10 R#
b1000 f
b1000 J#
b1000 V#
b1000 ]#
b11111010 K
b11111010 m
b11111010 !"
b11111010 ^#
b11111010 c#
b11111010 #
b11111010 1
b11111010 b
b11111010 |#
b1001000000010000000000000010 ,
b1001000000010000000000000010 N
b1001000000010000000000000010 w#
#20
b10111 G#
b11101000 x
b11101000 0"
b11101000 F#
1"#
0\"
b11101000 {
b11101000 -"
0E"
1}"
1C#
0Y"
04#
0C"
0r"
1|"
0X"
b11101000 y
0B"
1y"
1/#
1a"
1z"
0?"
0V"
0'"
0@"
1x"
1`"
0>"
b11111010 z
0&"
1u"
1j"
1]"
0G"
0;"
02"
0$"
1%#
b11101000 `
b11101000 N#
b11101000 z#
b0 4
b0 2
b11111010 |
b11111010 #"
b11101000 h
b11101000 w
b11101000 H#
b11101000 O#
b11101000 c
b11101000 M#
b11101000 Q#
b10 .
b10 5
b10 i
b10 P#
b10 b#
0~
b11 Y
b11 u
b11 '#
b11 ,#
b11 1#
b11 6#
b11 ;#
b11 @#
b11 E#
b11 y#
1Z
0/
#21
b1100 e
b1100 K#
b1100 U#
#22
b11110100 a#
b11110100 u#
#24
1/
#25
b1000 %
b1000 l
b1000 [#
#27
b1100 d
b1100 W#
b1100 f
b1100 J#
b1100 V#
b1100 ]#
b1010000000010000000000000010 ,
b1010000000010000000000000010 N
b1010000000010000000000000010 w#
#28
1j
b0 3
b0 .
b0 5
b0 i
b0 P#
b0 b#
b0 Y
b0 u
b0 '#
b0 ,#
b0 1#
b0 6#
b0 ;#
b0 @#
b0 E#
b0 y#
b111 [
b111 `#
b111 x#
0/
#29
b111110 G#
b1111100 x
b1111100 0"
b1111100 F#
0"#
1\"
b1111100 {
b1111100 -"
1E"
0}"
0C#
1Y"
14#
1C"
1r"
0|"
1X"
b1111100 y
1B"
0y"
0/#
0a"
0z"
1?"
1V"
1'"
1@"
0x"
0`"
1>"
b1011111 z
1&"
b111110 `
b111110 N#
b111110 z#
0u"
0j"
0]"
1G"
1;"
12"
1$"
0%#
b111110 c
b111110 M#
b111110 Q#
b1011111 |
b1011111 #"
b111110 h
b111110 w
b111110 H#
b111110 O#
1~
b10000 e
b10000 K#
b10000 U#
#32
1/
#33
b1100 %
b1100 l
b1100 [#
#35
b10000 d
b10000 W#
b10000 f
b10000 J#
b10000 V#
b10000 ]#
b1011000000010000000000000010 ,
b1011000000010000000000000010 N
b1011000000010000000000000010 w#
#36
b11111110 `
b11111110 N#
b11111110 z#
b11111110 c
b11111110 M#
b11111110 Q#
b11111110 h
b11111110 w
b11111110 H#
b11111110 O#
b11111110 G#
b1111111 x
b1111111 0"
b1111111 F#
1,"
b1111111 {
b1111111 -"
1:"
1*"
1Z"
18"
1f"
1)"
b1111111 y
17"
1t
1s
1r
1q
1p
1o
1n
b1 Y
b1 u
b1 '#
b1 ,#
b1 1#
b1 6#
b1 ;#
b1 @#
b1 E#
b1 y#
0/
#37
b11111111 }
b11111111 ."
b10100 e
b10100 K#
b10100 U#
#40
1/
#41
b10000 %
b10000 l
b10000 [#
#43
b10100 d
b10100 W#
b10100 f
b10100 J#
b10100 V#
b10100 ]#
b1100000000010000000000000010 ,
b1100000000010000000000000010 N
b1100000000010000000000000010 w#
#44
b10111110 `
b10111110 N#
b10111110 z#
b10111110 c
b10111110 M#
b10111110 Q#
b10111110 h
b10111110 w
b10111110 H#
b10111110 O#
b10111110 G#
b1111101 x
b1111101 0"
b1111101 F#
b1111101 {
b1111101 -"
0:"
08"
0f"
b1111101 y
07"
0t
0r
0n
b10 Y
b10 u
b10 '#
b10 ,#
b10 1#
b10 6#
b10 ;#
b10 @#
b10 E#
b10 y#
0/
#45
b1111101 }
b1111101 ."
b11000 e
b11000 K#
b11000 U#
#48
1/
#49
b10100 %
b10100 l
b10100 [#
#51
0E"
b11010111 `
b11010111 N#
b11010111 z#
0o
1n
0\"
b11010111 c
b11010111 M#
b11010111 Q#
0q"
0>#
1}"
1C#
0*"
0Z"
b11010111 h
b11010111 w
b11010111 H#
b11010111 O#
b11010111 G#
1p
1r
0p"
0s
1|"
0)"
b11101011 x
b11101011 0"
b11101011 F#
1e"
19#
18"
1f"
1y"
1/#
0m"
0*#
1a"
1z"
0'"
0@"
1"#
1h"
1P"
b11101011 {
b11101011 -"
1:"
1d"
b10111110 y
17"
1x"
0l"
1`"
b10111110 z
0&"
1!#
1s"
1g"
1["
1O"
1D"
19"
1+"
0{"
0o"
0c"
0W"
0L"
0A"
06"
0("
1w"
1k"
1_"
1S"
1H"
1="
13"
1%"
b11101000 o#
b0 n#
b11111010 m#
b10 {#
b101 k
b101 v
b101 T#
b101 _#
b101 d#
b101 !$
b11000 d
b11000 W#
b1000 I#
b10 g
b101 ^
b101 R#
b11000 f
b11000 J#
b11000 V#
b11000 ]#
b101000000100000000000000101 ,
b101000000100000000000000101 N
b101000000100000000000000101 w#
#52
b111 h
b111 w
b111 H#
b111 O#
b111 G#
b11100000 x
b11100000 0"
b11100000 F#
0,"
0:"
b11100000 {
b11100000 -"
0P"
b0 `
b0 N#
b0 z#
0r
0q
0p
0n
b0 c
b0 M#
b0 Q#
b0 }
b0 ."
b0 Y
b0 u
b0 '#
b0 ,#
b0 1#
b0 6#
b0 ;#
b0 @#
b0 E#
b0 y#
0Z
b0 [
b0 `#
b0 x#
0/
#53
0j
b101 `
b101 N#
b101 z#
b1 3
b1 4
b101 c
b101 M#
b101 Q#
b101 .
b101 5
b101 i
b101 P#
b101 b#
b100000 e
b100000 K#
b100000 U#
#54
b11100010 a#
b11100010 u#
#56
1/
#57
b11000 %
b11000 l
b11000 [#
#59
0"#
1/"
0}"
0C#
b0 h
b0 w
b0 H#
b0 O#
b0 G#
0|"
b0 x
b0 0"
b0 F#
1q"
1>#
1C"
1r"
08"
0f"
0y"
0/#
1m"
1*#
0a"
0z"
1'"
1@"
1t"
1\"
1P"
1E"
b1111100 {
b1111100 -"
0:"
1p"
1B"
b1111100 y
07"
0x"
1l"
0`"
b1011111 z
1&"
0!#
0s"
0g"
0["
0O"
0D"
09"
0+"
1{"
1o"
1c"
1W"
1L"
1A"
16"
1("
0w"
0k"
0_"
0S"
0H"
0="
03"
0%"
b11010000 p#
b0 o#
b11110100 n#
b0 m#
b11 {#
b1010 k
b1010 v
b1010 T#
b1010 _#
b1010 d#
b10 !$
b11100 d
b11100 W#
b1100 I#
b11 g
b1010 ^
b1010 R#
b11100 f
b11100 J#
b11100 V#
b11100 ]#
b101000000110000000000001010 ,
b101000000110000000000001010 N
b101000000110000000000001010 w#
#60
b1010 `
b1010 N#
b1010 z#
b10 3
b10 4
b1010 c
b1010 M#
b1010 Q#
b1010 .
b1010 5
b1010 i
b1010 P#
b1010 b#
0/
#61
b101 \
b101 S#
b101 Z#
b101 a
b101 Y#
b101 ~#
b101 #$
b101000 e
b101000 K#
b101000 U#
#62
b11111011 ]
b11111011 X#
b11111011 $$
b11000100 a#
b11000100 u#
#64
1/
#65
b11100 %
b11100 l
b11100 [#
#67
b11111 h
b11111 w
b11111 H#
b11111 O#
b11111 G#
b11111000 x
b11111000 0"
b11111000 F#
1"#
b11111000 {
b11111000 -"
0E"
0/"
1}"
1C#
0C"
0r"
1|"
b11111000 y
0B"
1y"
1/#
0m"
0*#
1a"
1z"
0'"
0@"
1x"
0l"
1`"
b10111110 z
0&"
b10 }#
1w"
1k"
1_"
1S"
1H"
1="
13"
1%"
b0 p#
b11111010 m#
b100 {#
b10 _
b11 k
b11 v
b11 T#
b11 _#
b11 d#
b11 !$
b100000 d
b100000 W#
b10000 I#
b100 g
b11 ^
b11 R#
b100000 f
b100000 J#
b100000 V#
b100000 ]#
b1101000001000000001000000011 ,
b1101000001000000001000000011 N
b1101000001000000001000000011 w#
#68
b111 h
b111 w
b111 H#
b111 O#
b111 G#
b11100000 x
b11100000 0"
b11100000 F#
0q"
0>#
1C"
1r"
18"
1f"
1t"
1h"
0\"
b11100000 {
b11100000 -"
0P"
0p"
1B"
b10111110 y
17"
b110 2
b11000100 `
b11000100 N#
b11000100 z#
1!#
1s"
1g"
1["
1O"
1D"
19"
1+"
0{"
0o"
0c"
0W"
0L"
0A"
06"
0("
b11101000 o#
b0 n#
b0 3
b1 4
b11000100 c
b11000100 M#
b11000100 Q#
b101 k
b101 v
b101 T#
b101 _#
b101 d#
b11000100 .
b11000100 5
b11000100 i
b11000100 P#
b11000100 b#
b100 [
b100 `#
b100 x#
0V
0/
