Labs/Processor/Lab06/part02/cpu_wavedata.vcd
$date
	Sun Jun 21 17:34:52 2020
$end
$version
	Icarus Verilog
$end
$timescale
	100ps
$end
$scope module testbenchCPU $end
$var wire 1 ! memWriteEn $end
$var wire 1 " memReadEn $end
$var wire 8 # WRITE_DATA [7:0] $end
$var wire 8 $ READ_DATA [7:0] $end
$var wire 32 % PC [31:0] $end
$var wire 32 & MAIN_MEM_WRITE_DATA [31:0] $end
$var wire 1 ' MAIN_MEM_WRITE $end
$var wire 32 ( MAIN_MEM_READ_DATA [31:0] $end
$var wire 1 ) MAIN_MEM_READ $end
$var wire 1 * MAIN_MEM_BUSY_WAIT $end
$var wire 6 + MAIN_MEM_ADDRESS [5:0] $end
$var wire 32 , INS [31:0] $end
$var wire 1 - BUSY_WAIT $end
$var wire 8 . ADDRESS [7:0] $end
$var reg 1 / CLK $end
$var reg 1 0 RESET $end
$scope module myCacheMemory $end
$var wire 1 1 TAG_MATCH $end
$var wire 1 / clock $end
$var wire 1 0 reset $end
$var wire 8 2 writedata [7:0] $end
$var wire 1 ! write $end
$var wire 3 3 tag [2:0] $end
$var wire 1 " read $end
$var wire 2 4 offset [1:0] $end
$var wire 3 5 index [2:0] $end
$var wire 8 6 address [7:0] $end
$var wire 32 7 MAIN_MEM_READ_DATA [31:0] $end
$var wire 1 * MAIN_MEM_BUSY_WAIT $end
$var reg 32 8 CURRENT_DATA [31:0] $end
$var reg 1 9 CURRENT_DIRTY $end
$var reg 3 : CURRENT_TAG [2:0] $end
$var reg 1 ; CURRENT_VALID $end
$var reg 6 < MAIN_MEM_ADDRESS [5:0] $end
$var reg 1 ) MAIN_MEM_READ $end
$var reg 1 ' MAIN_MEM_WRITE $end
$var reg 32 = MAIN_MEM_WRITE_DATA [31:0] $end
$var reg 1 - busywait $end
$var reg 2 > next_state [1:0] $end
$var reg 1 ? readCache $end
$var reg 1 @ readaccess $end
$var reg 8 A readdata [7:0] $end
$var reg 2 B state [1:0] $end
$var reg 1 C writeCache $end
$var reg 1 D writeCache_mem $end
$var reg 1 E writeaccess $end
$var integer 32 F i [31:0] $end
$upscope $end
$scope module myDataMem $end
$var wire 6 G address [5:0] $end
$var wire 1 / clock $end
$var wire 1 ) read $end
$var wire 1 0 reset $end
$var wire 1 ' write $end
$var wire 32 H writedata [31:0] $end
$var reg 1 * busywait $end
$var reg 1 I readaccess $end
$var reg 32 J readdata [31:0] $end
$var reg 1 K writeaccess $end
$var integer 32 L i [31:0] $end
$upscope $end
$scope module mycpu $end
$var wire 8 M ALOP2 [7:0] $end
$var wire 1 N ANDOUTBEQ $end
$var wire 1 O ANDOUTBNE $end
$var wire 1 - BUSY_WAIT $end
$var wire 1 / CLK $end
$var wire 32 P INSTRUCTION [31:0] $end
$var wire 8 Q MEMREAD [7:0] $end
$var wire 1 0 RESET $end
$var wire 1 R jumpMUXSEL $end
$var wire 1 S regWRITEEN_FIN $end
$var wire 1 T twoscompMUXSEL $end
$var wire 1 U regWRITEEN $end
$var wire 1 ! memWriteEn $end
$var wire 1 " memReadEn $end
$var wire 1 V memMUXSEL $end
$var wire 1 W jump $end
$var wire 1 X immeMUXSEL $end
$var wire 1 Y bne $end
$var wire 1 Z beq $end
$var wire 2 [ bShifterOpCode [1:0] $end
$var wire 1 \ alu_shiftMUXSEL $end
$var wire 3 ] aluOP [2:0] $end
$var wire 8 ^ TWOSMUXOUT [7:0] $end
$var wire 8 _ TWOSCOMPOUT [7:0] $end
$var wire 8 ` SOURCE2 [7:0] $end
$var wire 8 a SOURCE1 [7:0] $end
$var wire 8 b REGSAVE [7:0] $end
$var wire 8 c REGOUT2 [7:0] $end
$var wire 8 d REGOUT1 [7:0] $end
$var wire 8 e PREV_ALU_BARREL_OUT [7:0] $end
$var wire 32 f PCNEXT [31:0] $end
$var wire 32 g PCJUMP [31:0] $end
$var wire 32 h PCINCBY4 [31:0] $end
$var wire 8 i DESTINATION [7:0] $end
$var wire 8 j BARRELOUT [7:0] $end
$var wire 8 k ALUOUT [7:0] $end
$var wire 1 l ALUCOMP $end
$var wire 8 m ALOP1 [7:0] $end
$var reg 32 n PC [31:0] $end
$scope module bs $end
$var wire 8 o INPUT [7:0] $end
$var wire 1 p TMP7 $end
$var wire 1 q TMP6 $end
$var wire 1 r TMP5 $end
$var wire 1 s TMP4 $end
$var wire 1 t TMP3 $end
$var wire 1 u TMP2 $end
$var wire 1 v TMP1 $end
$var wire 2 w SHIFT_MODE [1:0] $end
$var wire 8 x SHIFT [7:0] $end
$var wire 8 y OUTPUT [7:0] $end
$var wire 8 z OUTINTER [7:0] $end
$var wire 8 { INTER2 [7:0] $end
$var wire 8 | INTER1 [7:0] $end
$var wire 8 } INNER3 [7:0] $end
$var wire 8 ~ ININTER [7:0] $end
$var reg 8 !" LAYER4_IN [7:0] $end
$var reg 1 "" SHIFT_DIR $end
$scope module inmux $end
$var wire 8 #" INPUT1 [7:0] $end
$var wire 8 $" INPUT2 [7:0] $end
$var wire 1 "" SELECT $end
$var reg 8 %" RESULT [7:0] $end
$upscope $end
$scope module m0 $end
$var wire 1 &" INPUT1 $end
$var wire 1 '" SELECT $end
$var wire 1 v INPUT2 $end
$var reg 1 (" RESULT $end
$upscope $end
$scope module m00 $end
$var wire 1 )" INPUT1 $end
$var wire 1 *" SELECT $end
$var wire 1 u INPUT2 $end
$var reg 1 +" RESULT $end
$upscope $end
$scope module m000 $end
$var wire 1 ," INPUT1 $end
$var wire 1 -" SELECT $end
$var wire 1 s INPUT2 $end
$var reg 1 ." RESULT $end
$upscope $end
$scope module m0000 $end
$var wire 8 /" INPUT1 [7:0] $end
$var wire 8 0" INPUT2 [7:0] $end
$var wire 1 1" SELECT $end
$var reg 8 2" RESULT [7:0] $end
$upscope $end
$scope module m1 $end
$var wire 1 3" INPUT1 $end
$var wire 1 4" INPUT2 $end
$var wire 1 5" SELECT $end
$var reg 1 6" RESULT $end
$upscope $end
$scope module m11 $end
$var wire 1 7" INPUT1 $end
$var wire 1 8" SELECT $end
$var wire 1 t INPUT2 $end
$var reg 1 9" RESULT $end
$upscope $end
$scope module m111 $end
$var wire 1 :" INPUT1 $end
$var wire 1 ;" SELECT $end
$var wire 1 r INPUT2 $end
$var reg 1 <" RESULT $end
$upscope $end
$scope module m2 $end
$var wire 1 =" INPUT1 $end
$var wire 1 >" INPUT2 $end
$var wire 1 ?" SELECT $end
$var reg 1 @" RESULT $end
$upscope $end
$scope module m22 $end
$var wire 1 A" INPUT1 $end
$var wire 1 B" INPUT2 $end
$var wire 1 C" SELECT $end
$var reg 1 D" RESULT $end
$upscope $end
$scope module m222 $end
$var wire 1 E" INPUT1 $end
$var wire 1 F" SELECT $end
$var wire 1 q INPUT2 $end
$var reg 1 G" RESULT $end
$upscope $end
$scope module m3 $end
$var wire 1 H" INPUT1 $end
$var wire 1 I" INPUT2 $end
$var wire 1 J" SELECT $end
$var reg 1 K" RESULT $end
$upscope $end
$scope module m33 $end
$var wire 1 L" INPUT1 $end
$var wire 1 M" INPUT2 $end
$var wire 1 N" SELECT $end
$var reg 1 O" RESULT $end
$upscope $end
$scope module m333 $end
$var wire 1 P" INPUT1 $end
$var wire 1 Q" SELECT $end
$var wire 1 p INPUT2 $end
$var reg 1 R" RESULT $end
$upscope $end
$scope module m4 $end
$var wire 1 S" INPUT1 $end
$var wire 1 T" INPUT2 $end
$var wire 1 U" SELECT $end
$var reg 1 V" RESULT $end
$upscope $end
$scope module m44 $end
$var wire 1 W" INPUT1 $end
$var wire 1 X" INPUT2 $end
$var wire 1 Y" SELECT $end
$var reg 1 Z" RESULT $end
$upscope $end
$scope module m444 $end
$var wire 1 [" INPUT1 $end
$var wire 1 \" INPUT2 $end
$var wire 1 ]" SELECT $end
$var reg 1 ^" RESULT $end
$upscope $end
$scope module m5 $end
$var wire 1 _" INPUT1 $end
$var wire 1 `" INPUT2 $end
$var wire 1 a" SELECT $end
$var reg 1 b" RESULT $end
$upscope $end
$scope module m55 $end
$var wire 1 c" INPUT1 $end
$var wire 1 d" INPUT2 $end
$var wire 1 e" SELECT $end
$var reg 1 f" RESULT $end
$upscope $end
$scope module m555 $end
$var wire 1 g" INPUT1 $end
$var wire 1 h" INPUT2 $end
$var wire 1 i" SELECT $end
$var reg 1 j" RESULT $end
$upscope $end
$scope module m6 $end
$var wire 1 k" INPUT1 $end
$var wire 1 l" INPUT2 $end
$var wire 1 m" SELECT $end
$var reg 1 n" RESULT $end
$upscope $end
$scope module m66 $end
$var wire 1 o" INPUT1 $end
$var wire 1 p" INPUT2 $end
$var wire 1 q" SELECT $end
$var reg 1 r" RESULT $end
$upscope $end
$scope module m666 $end
$var wire 1 s" INPUT1 $end
$var wire 1 t" INPUT2 $end
$var wire 1 u" SELECT $end
$var reg 1 v" RESULT $end
$upscope $end
$scope module m7 $end
$var wire 1 w" INPUT1 $end
$var wire 1 x" INPUT2 $end
$var wire 1 y" SELECT $end
$var reg 1 z" RESULT $end
$upscope $end
$scope module m77 $end
$var wire 1 {" INPUT1 $end
$var wire 1 |" INPUT2 $end
$var wire 1 }" SELECT $end
$var reg 1 ~" RESULT $end
$upscope $end
$scope module m777 $end
$var wire 1 !# INPUT1 $end
$var wire 1 "# INPUT2 $end
$var wire 1 ## SELECT $end
$var reg 1 $# RESULT $end
$upscope $end
$scope module mt1 $end
$var wire 1 %# INPUT1 $end
$var wire 1 &# INPUT2 $end
$var wire 1 '# INPUT3 $end
$var wire 1 (# INPUT4 $end
$var wire 2 )# SELECT [1:0] $end
$var reg 1 v RESULT $end
$upscope $end
$scope module mt2 $end
$var wire 1 *# INPUT1 $end
$var wire 1 +# INPUT2 $end
$var wire 1 ,# INPUT3 $end
$var wire 1 -# INPUT4 $end
$var wire 2 .# SELECT [1:0] $end
$var reg 1 u RESULT $end
$upscope $end
$scope module mt3 $end
$var wire 1 /# INPUT1 $end
$var wire 1 0# INPUT2 $end
$var wire 1 1# INPUT3 $end
$var wire 1 2# INPUT4 $end
$var wire 2 3# SELECT [1:0] $end
$var reg 1 t RESULT $end
$upscope $end
$scope module mt4 $end
$var wire 1 4# INPUT1 $end
$var wire 1 5# INPUT2 $end
$var wire 1 6# INPUT3 $end
$var wire 1 7# INPUT4 $end
$var wire 2 8# SELECT [1:0] $end
$var reg 1 s RESULT $end
$upscope $end
$scope module mt5 $end
$var wire 1 9# INPUT1 $end
$var wire 1 :# INPUT2 $end
$var wire 1 ;# INPUT3 $end
$var wire 1 <# INPUT4 $end
$var wire 2 =# SELECT [1:0] $end
$var reg 1 r RESULT $end
$upscope $end
$scope module mt6 $end
$var wire 1 ># INPUT1 $end
$var wire 1 ?# INPUT2 $end
$var wire 1 @# INPUT3 $end
$var wire 1 A# INPUT4 $end
$var wire 2 B# SELECT [1:0] $end
$var reg 1 q RESULT $end
$upscope $end
$scope module mt7 $end
$var wire 1 C# INPUT1 $end
$var wire 1 D# INPUT2 $end
$var wire 1 E# INPUT3 $end
$var wire 1 F# INPUT4 $end
$var wire 2 G# SELECT [1:0] $end
$var reg 1 p RESULT $end
$upscope $end
$scope module outmux $end
$var wire 8 H# INPUT1 [7:0] $end
$var wire 8 I# INPUT2 [7:0] $end
$var wire 1 "" SELECT $end
$var reg 8 J# RESULT [7:0] $end
$upscope $end
$upscope $end
$scope module jumpadder $end
$var wire 32 K# INPUT2 [31:0] $end
$var wire 32 L# INPUT1 [31:0] $end
$var reg 32 M# RESULT [31:0] $end
$upscope $end
$scope module muMem $end
$var wire 8 N# INPUT2 [7:0] $end
$var wire 1 V SELECT $end
$var wire 8 O# INPUT1 [7:0] $end
$var reg 8 P# RESULT [7:0] $end
$upscope $end
$scope module muxFin $end
$var wire 8 Q# INPUT2 [7:0] $end
$var wire 1 \ SELECT $end
$var wire 8 R# INPUT1 [7:0] $end
$var reg 8 S# RESULT [7:0] $end
$upscope $end
$scope module muximme $end
$var wire 8 T# INPUT2 [7:0] $end
$var wire 1 X SELECT $end
$var wire 8 U# INPUT1 [7:0] $end
$var reg 8 V# RESULT [7:0] $end
$upscope $end
$scope module muxjump $end
$var wire 32 W# INPUT2 [31:0] $end
$var wire 1 R SELECT $end
$var wire 32 X# INPUT1 [31:0] $end
$var reg 32 Y# RESULT [31:0] $end
$upscope $end
$scope module muxtwos $end
$var wire 1 T SELECT $end
$var wire 8 Z# INPUT2 [7:0] $end
$var wire 8 [# INPUT1 [7:0] $end
$var reg 8 \# RESULT [7:0] $end
$upscope $end
$scope module myadder $end
$var wire 32 ]# INPUT1 [31:0] $end
$var wire 32 ^# INPUT2 [31:0] $end
$var reg 32 _# RESULT [31:0] $end
$upscope $end
$scope module myalu $end
$var wire 1 l COMP $end
$var wire 8 `# DATA1 [7:0] $end
$var wire 8 a# DATA2 [7:0] $end
$var wire 8 b# INTER_AND [7:0] $end
$var wire 8 c# INTER_FWD [7:0] $end
$var wire 8 d# INTER_OR [7:0] $end
$var wire 3 e# SELECT [2:0] $end
$var wire 8 f# MULRESULT [7:0] $end
$var wire 8 g# INTER_ADD [7:0] $end
$var reg 8 h# RESULT [7:0] $end
$scope module mul $end
$var wire 8 i# DATA1 [7:0] $end
$var wire 8 j# DATA2 [7:0] $end
$var wire 8 k# SHIFT7 [7:0] $end
$var wire 8 l# SHIFT6 [7:0] $end
$var wire 8 m# SHIFT5 [7:0] $end
$var wire 8 n# SHIFT4 [7:0] $end
$var wire 8 o# SHIFT3 [7:0] $end
$var wire 8 p# SHIFT2 [7:0] $end
$var wire 8 q# SHIFT1 [7:0] $end
$var wire 8 r# SHIFT0 [7:0] $end
$var reg 8 s# RES0 [7:0] $end
$var reg 8 t# RES1 [7:0] $end
$var reg 8 u# RES2 [7:0] $end
$var reg 8 v# RES3 [7:0] $end
$var reg 8 w# RES4 [7:0] $end
$var reg 8 x# RES5 [7:0] $end
$var reg 8 y# RES6 [7:0] $end
$var reg 8 z# RES7 [7:0] $end
$var reg 8 {# RESULT [7:0] $end
$upscope $end
$upscope $end
$scope module mycu $end
$var wire 1 |# ALUCOMP $end
$var wire 32 }# INSTRUCTION [31:0] $end
$var wire 1 0 RESET $end
$var reg 3 ~# aluOP [2:0] $end
$var reg 1 \ alu_shiftMUXSEL $end
$var reg 2 !$ bShifterOpCode [1:0] $end
$var reg 1 Z beq $end
$var reg 1 Y bne $end
$var reg 1 X immeMUXSEL $end
$var reg 1 W jump $end
$var reg 1 V memMUXSEL $end
$var reg 1 " memReadEn $end
$var reg 1 ! memWriteEn $end
$var reg 1 U regWRITEEN $end
$var reg 1 T twoscompMUXSEL $end
$upscope $end
$scope module myreg $end
$var wire 1 / CLK $end
$var wire 8 "$ IN [7:0] $end
$var wire 3 #$ INADDRESS [2:0] $end
$var wire 8 $$ OUT1 [7:0] $end
$var wire 3 %$ OUT1ADDRESS [2:0] $end
$var wire 8 &$ OUT2 [7:0] $end
$var wire 3 '$ OUT2ADDRESS [2:0] $end
$var wire 1 0 RESET $end
$var wire 1 S WRITE $end
$var integer 32 ($ i [31:0] $end
$upscope $end
$scope module twos $end
$var wire 8 )$ INPUT [7:0] $end
$var reg 8 *$ RESULT [7:0] $end
$upscope $end
$upscope $end
$upscope $end
$enddefinitions $end
#0
$dumpvars
bx *$
bx )$
bx ($
bx '$
bx &$
bx %$
bx $$
bx #$
bx "$
bx !$
bx ~#
bx }#
z|#
bx {#
b0 z#
b0 y#
b0 x#
b0 w#
b0 v#
b0 u#
b0 t#
b0 s#
bx r#
bx0 q#
bx00 p#
bx000 o#
bx0000 n#
bx00000 m#
bx000000 l#
bx0000000 k#
bx j#
bx i#
bx h#
bx g#
bx f#
bx e#
bx d#
bx c#
bx b#
bx a#
bx `#
bx _#
b100 ^#
b11111111111111111111111111111100 ]#
bx \#
bx [#
bx Z#
bx Y#
bx X#
bx W#
bx V#
bx U#
bx T#
bx S#
bx R#
bx Q#
bx P#
bx O#
bx N#
bx M#
bx L#
bx00 K#
bx J#
bx I#
bx H#
bx G#
0F#
xE#
xD#
0C#
bx B#
0A#
x@#
x?#
0>#
bx =#
0<#
x;#
x:#
09#
bx 8#
07#
x6#
x5#
04#
bx 3#
02#
x1#
x0#
0/#
bx .#
0-#
x,#
x+#
0*#
bx )#
0(#
x'#
x&#
0%#
x$#
x##
x"#
x!#
x~"
x}"
x|"
x{"
xz"
xy"
xx"
xw"
0v"
xu"
0t"
xs"
xr"
xq"
xp"
xo"
xn"
xm"
xl"
xk"
0j"
xi"
0h"
xg"
xf"
xe"
xd"
xc"
xb"
xa"
x`"
x_"
0^"
x]"
0\"
x["
xZ"
xY"
xX"
xW"
xV"
xU"
xT"
xS"
0R"
xQ"
xP"
xO"
xN"
xM"
xL"
xK"
xJ"
xI"
xH"
0G"
xF"
0E"
0D"
xC"
0B"
xA"
x@"
x?"
x>"
x="
0<"
x;"
0:"
09"
x8"
x7"
x6"
x5"
x4"
x3"
bx 2"
x1"
bx 0"
bx0000000 /"
0."
x-"
0,"
0+"
x*"
0)"
0("
x'"
x&"
bx %"
bx $"
bx #"
x""
bx !"
bx ~
bx0000000 }
bx0 |
bx000 {
bx z
bx y
bx x
bx w
0v
0u
0t
0s
0r
0q
0p
bx o
b11111111111111111111111111111100 n
bx m
xl
bx k
bx j
bx i
bx h
bx g
bx f
bx e
bx d
bx c
bx b
bx a
bx `
bx _
bx ^
bx ]
x\
bx [
0Z
0Y
xX
0W
xV
xU
xT
xS
0R
bx Q
bx P
0O
0N
bx M
b100000000 L
0K
bx J
0I
bx H
bx G
b1000 F
xE
xD
xC
b0 B
bx A
x@
x?
b0 >
bx =
bx <
x;
bx :
x9
bx 8
bx 7
bx 6
bx 5
bx 4
bx 3
bx 2
x1
10
1/
bx .
0-
bx ,
bx +
0*
x)
bx (
x'
bx &
b11111111111111111111111111111100 %
bx $
bx #
x"
x!
$end
#10
00
#20
b0 f
b0 Y#
b1000 ($
b0 h
b0 L#
b0 X#
b0 _#
#30
1l
b0 4
b0 5
b0 3
b0 .
b0 6
b0 k
b0 R#
b0 h#
b0 f#
b0 {#
#40
b0 8
09
0;
0/
#80
1/
#90
b0 %
b0 n
b0 ]#
#110
b0xxxxxxx e
b0xxxxxxx O#
b0xxxxxxx S#
b0xxxxxxx j
b0xxxxxxx y
b0xxxxxxx J#
b0xxxxxxx Q#
b0xxxxxxx I#
xG"
x<"
bx0 z
bx0 2"
bx0 H#
xE"
xt"
x:"
xh"
01"
xv"
xj"
x^"
bx0 }
bx0 /"
xR"
xD"
bx0 {
x9"
b0 %$
0##
0u"
0i"
0]"
0Q"
0F"
0;"
0-"
0}"
0q"
0e"
0Y"
0N"
0C"
08"
0*"
1y"
1m"
1a"
1U"
1J"
1?"
15"
1'"
bx s#
b0 #$
b0 a
b1 m
b1 x
b1 V#
b1 a#
b1 j#
b1 '$
0E
0@
b100 f
b100 Y#
b0 K#
b0 i
b1 `
b1 T#
0"
0!
b100 h
b100 L#
b100 X#
b100 _#
b101000000000000000000000001 ,
b101000000000000000000000001 P
b101000000000000000000000001 }#
#120
b1 4
b1 b
b1 P#
b1 "$
b1 e
b1 O#
b1 S#
b1 .
b1 6
b1 k
b1 R#
b1 h#
1S
b0 !"
b0 0"
1""
b0x b#
bx1 d#
b1 c#
0V
b0 [
b0 w
b0 )#
b0 .#
b0 3#
b0 8#
b0 =#
b0 B#
b0 G#
b0 !$
0\
b0 ]
b0 e#
b0 ~#
1U
1X
0T
0/
#130
b0 j
b0 y
b0 J#
b0 Q#
b0 I#
b0 z
b0 2"
b0 H#
0G"
0v"
0^"
0<"
0j"
0R"
b0 }
b0 /"
0$#
0!#
0E#
0s"
0@#
0g"
0;#
0E"
0t"
0["
06#
0:"
0h"
0P"
0"#
0~"
0r"
0f"
0D"
0Z"
09"
b0 {
0O"
0{"
01#
0o"
0,#
0c"
0|"
0W"
0p"
0L"
0d"
0A"
0X"
07"
0M"
0z"
0n"
0b"
0V"
0K"
0@"
b0 |
06"
0x"
0w"
0l"
0k"
0`"
0_"
0T"
0S"
0I"
0H"
0>"
0="
04"
03"
0&"
0'#
b0 ~
b0 %"
b0 s#
0&#
0+#
00#
05#
0:#
0?#
0D#
b0 $"
b0 r#
b0 q#
b0 p#
b0 o#
b0 n#
b0 m#
b0 l#
b0 k#
b0 ^
b0 U#
b0 \#
b0 M
b0 o
b0 #"
b0 `#
b0 i#
b0 #
b0 2
b0 d
b0 $$
b0 c
b0 [#
b0 &$
b0 )$
b100 g
b100 M#
b100 W#
#140
b0 b#
b1 d#
b0 _
b0 Z#
b0 *$
#150
b1 g#
#160
1/
#170
b100 %
b100 n
b100 ]#
#190
b1 j
b1 y
b1 J#
b1 Q#
b1 I#
b10000000 z
b10000000 2"
b10000000 H#
b10000000 }
b10000000 /"
1$#
1!#
1E#
b10000000 {
1~"
1{"
11#
b10000000 |
1z"
1w"
1'#
0y"
0m"
0a"
0U"
0J"
0?"
05"
0'"
b10000000 ~
b10000000 %"
b1 #$
b0 m
b0 x
b0 V#
b0 a#
b0 j#
b0 '$
b1000 f
b1000 Y#
b10000000 $"
b1 r#
b10 q#
b100 p#
b1000 o#
b10000 n#
b100000 m#
b1000000 l#
b10000000 k#
b100 K#
b1 i
b0 `
b0 T#
b1000 h
b1000 L#
b1000 X#
b1000 _#
b1 M
b1 o
b1 #"
b1 `#
b1 i#
b1 #
b1 2
b1 d
b1 $$
b101000000010000000000000000 ,
b101000000010000000000000000 P
b101000000010000000000000000 }#
#200
b0 b
b0 P#
b0 "$
b0 4
b0 e
b0 O#
b0 S#
b0 .
b0 6
b0 k
b0 R#
b0 h#
b0 c#
0/
#210
b1 ^
b1 U#
b1 \#
b1 c
b1 [#
b1 &$
b1 )$
b1100 g
b1100 M#
b1100 W#
#220
b11111111 _
b11111111 Z#
b11111111 *$
#240
1/
#250
b1000 %
b1000 n
b1000 ]#
#270
b0 j
b0 y
b0 J#
b0 Q#
b0 I#
11"
b0 z
b0 2"
b0 H#
b0 }
b0 /"
0$#
0!#
0E#
b0 {
0~"
1}"
1q"
1e"
1Y"
1N"
1C"
18"
1*"
b1000 v#
b10 t#
b10 #$
b1010 m
b1010 x
b1010 V#
b1010 a#
b1010 j#
b10 '$
b1100 f
b1100 Y#
b1000 K#
b10 i
b1010 `
b1010 T#
b1100 h
b1100 L#
b1100 X#
b1100 _#
b101000000100000000000001010 ,
b101000000100000000000001010 P
b101000000100000000000001010 }#
#280
0l
b1010 b
b1010 P#
b1010 "$
b10 4
b10 5
b1010 e
b1010 O#
b1010 S#
b1010 .
b1010 6
b1010 k
b1010 R#
b1010 h#
b1011 d#
b1010 c#
0/
#290
b0 ^
b0 U#
b0 \#
b1011 g#
b0 c
b0 [#
b0 &$
b0 )$
b10100 g
b10100 M#
b10100 W#
#300
b0 _
b0 Z#
b0 *$
b1010 f#
b1010 {#
#320
1/
#330
b1100 %
b1100 n
b1100 ]#
#350
b1 j
b1 y
b1 J#
b1 Q#
b1 I#
b10000000 z
b10000000 2"
b10000000 H#
01"
b10000000 }
b10000000 /"
1$#
1!#
1E#
b10000000 {
1~"
b1 %$
0}"
0q"
0e"
0Y"
0N"
0C"
08"
0*"
b0 v#
b0 t#
b1 #$
b1 a
b0 m
b0 x
b0 V#
b0 a#
b0 j#
b0 '$
b10000 f
b10000 Y#
b1010 ^
b1010 U#
b1010 \#
b100 K#
b1 i
b0 `
b0 T#
b10000 h
b10000 L#
b10000 X#
b10000 _#
b1010 c
b1010 [#
b1010 &$
b1010 )$
b10000000100000000 ,
b10000000100000000 P
b10000000100000000 }#
#360
b0 j
b0 y
b0 J#
b0 Q#
b0 I#
11"
b0 z
b0 2"
b0 H#
b0 }
b0 /"
0$#
0!#
0E#
b1011 b
b1011 P#
b1011 "$
b0 {
0~"
b11 4
b1011 e
b1011 O#
b1011 S#
1}"
1q"
1e"
1Y"
1N"
1C"
18"
1*"
b1000 v#
b10 t#
b1011 .
b1011 6
b1011 k
b1011 R#
b1011 h#
b1010 m
b1010 x
b1010 V#
b1010 a#
b1010 j#
b1 d#
b0 c#
b11110110 _
b11110110 Z#
b11110110 *$
b1 ]
b1 e#
b1 ~#
0X
0/
#370
01"
b0 }
b0 /"
0$#
0!#
0E#
0{"
01#
b0 {
0~"
b0 |
0z"
0w"
0'#
0}"
0q"
0e"
0Y"
0N"
0C"
08"
0*"
1y"
1m"
1a"
1U"
1J"
1?"
15"
1'"
b0 ~
b0 %"
b0 v#
b0 t#
b1 m
b1 x
b1 V#
b1 a#
b1 j#
b0 $"
b0 r#
b0 q#
b0 p#
b0 o#
b0 n#
b0 m#
b0 l#
b0 k#
b1 ^
b1 U#
b1 \#
b1011 d#
b1010 c#
b0 M
b0 o
b0 #"
b0 `#
b0 i#
b0 #
b0 2
b0 d
b0 $$
b1 c
b1 [#
b1 &$
b1 )$
#380
b1 c#
b1 d#
b11111111 _
b11111111 Z#
b11111111 *$
b0 f#
b0 {#
#390
1l
b1 b
b1 P#
b1 "$
b1 4
b0 5
b1 e
b1 O#
b1 S#
b1 .
b1 6
b1 k
b1 R#
b1 h#
b1 g#
#400
1/
#410
b10000 %
b10000 n
b10000 ]#
#430
1w"
1'#
b0 #$
b10000000 ~
b10000000 %"
b1 s#
b10100 f
b10100 Y#
b0 K#
b0 i
b10000000 $"
b1 r#
b10 q#
b100 p#
b1000 o#
b10000 n#
b100000 m#
b1000000 l#
b10000000 k#
b10100 h
b10100 L#
b10100 X#
b10100 _#
b10001000000000000000100000000 ,
b10001000000000000000100000000 P
b10001000000000000000100000000 }#
b1 M
b1 o
b1 #"
b1 `#
b1 i#
b1 #
b1 2
b1 d
b1 $$
#440
b1 j
b1 y
b1 J#
b1 Q#
b1 I#
b10000000 z
b10000000 2"
b10000000 H#
b10000000 }
b10000000 /"
1$#
1!#
1E#
b10000000 {
1~"
1{"
11#
b10000000 |
1z"
0C
0?
0'
0)
b1 >
0y"
0m"
0a"
0U"
0J"
0?"
05"
0'"
b0 s#
1E
1-
0S
b0 m
b0 x
b0 V#
b0 a#
b0 j#
1!
b0 ]
b0 e#
b0 ~#
0U
1X
b1 b#
0/
#450
b0 b
b0 P#
b0 "$
b0 4
b0 e
b0 O#
b0 S#
b0 .
b0 6
b0 k
b0 R#
b0 h#
b0 b#
b0 c#
#480
1I
1*
0D
b0 +
b0 <
b0 G
1)
b1 >
b1 B
1/
#520
0/
#560
1/
#600
0/
#640
1/
#680
0/
#720
1/
#760
0/
#800
1/
#840
0/
#880
1/
#920
0/
#960
1/
bx00000000 (
bx00000000 7
bx00000000 J
#1000
0/
#1040
1/
#1080
0/
#1120
1/
#1160
0/
#1200
1/
#1240
0/
#1280
1/
#1320
0/
#1360
1/
bx0000000000000000 (
bx0000000000000000 7
bx0000000000000000 J
#1400
0/
#1440
1/
#1480
0/
#1520
1/
#1560
0/
#1600
1/
#1640
0/
#1680
1/
#1720
0/
#1760
1/
bx111111110000000000000000 (
bx111111110000000000000000 7
bx111111110000000000000000 J
#1800
0/
#1840
1/
#1880
0/
#1920
1/
#1960
0/
#2000
1/
#2040
0/
#2080
1/
#2120
0/
#2160
0)
b0 B
1D
b1 >
1/
0I
0*
b111111110000000000000000 (
b111111110000000000000000 7
b111111110000000000000000 J
#2180
b0 :
b111111110000000000000000 8
1;
#2189
1C
b0 >
11
#2200
0/
#2240
0-
1/
#2250
1C
b10100 %
b10100 n
b10100 ]#
#2260
b111111110000000000000001 8
19
#2270
b0 j
b0 y
b0 J#
b0 Q#
b0 I#
b0 z
b0 2"
b0 H#
b0 }
b0 /"
0$#
0!#
0E#
b0 {
0~"
1}"
1q"
1e"
1Y"
1N"
1C"
18"
1*"
b10 t#
b101 #$
b10 m
b10 x
b10 V#
b10 a#
b10 j#
b10 '$
0E
b11000 f
b11000 Y#
b11111111111111111111111111110100 K#
b11111101 i
b10 `
b10 T#
0!
b11000 h
b11000 L#
b11000 X#
b11000 _#
b1000111111010000000100000010 ,
b1000111111010000000100000010 P
b1000111111010000000100000010 }#
#2280
0{"
01#
b1 b
b1 P#
b1 "$
11"
b0 |
0z"
b1 4
b1 e
b1 O#
b1 S#
1##
1u"
1i"
1]"
1Q"
1F"
1;"
1-"
1y"
1m"
1a"
1U"
1J"
1?"
15"
1'"
b10000000 z#
b1000000 y#
b100000 x#
b10000 w#
b1000 v#
b100 u#
b1 s#
b1 .
b1 6
b1 k
b1 R#
b1 h#
b11111111 m
b11111111 x
b11111111 V#
b11111111 a#
b11111111 j#
b11111111 ^
b11111111 U#
b11111111 \#
b11 d#
b10 c#
1Y
b1 ]
b1 e#
b1 ~#
0X
1T
0/
#2290
b1 b#
b11111111 d#
b11111111 c#
b1010 c
b1010 [#
b1010 &$
b1010 )$
b1100 g
b1100 M#
b1100 W#
#2300
1{"
11#
b10000000 |
1z"
0y"
0m"
0a"
0U"
0J"
0?"
05"
0'"
b0 v#
b0 s#
b0 b
b0 P#
b0 "$
b11110110 m
b11110110 x
b11110110 V#
b11110110 a#
b11110110 j#
b0 4
b0 e
b0 O#
b0 S#
b11110110 ^
b11110110 U#
b11110110 \#
b0 .
b0 6
b0 k
b0 R#
b0 h#
b11110110 _
b11110110 Z#
b11110110 *$
b0 g#
b11111111 f#
b11111111 {#
#2310
b0 b#
b11110111 d#
b11110110 c#
#2320
b1100 f
b1100 Y#
1R
1O
0l
b11110111 b
b11110111 P#
b11110111 "$
b11 4
b101 5
b111 3
b11110111 e
b11110111 O#
b11110111 S#
b11110111 .
b11110111 6
b11110111 k
b11110111 R#
b11110111 h#
b11110111 g#
1/
#2329
01
#2330
b111 :
b111111110000000000000000 8
09
b1100 %
b1100 n
b1100 ]#
0C
b11110110 f#
b11110110 {#
#2339
11
