Labs/Processor/Lab06/part03/submitted/cpu_wavedata.vcd
$date
	Sun Jun 21 16:01:36 2020
$end
$version
	Icarus Verilog
$end
$timescale
	100ps
$end
$scope module testbenchCPU $end
$var wire 1 ! memWriteEn $end
$var wire 1 " memReadEn $end
$var wire 1 # insReadEn $end
$var wire 8 $ WRITE_DATA [7:0] $end
$var wire 8 % READ_DATA [7:0] $end
$var wire 32 & PC [31:0] $end
$var wire 32 ' MAIN_MEM_WRITE_DATA [31:0] $end
$var wire 1 ( MAIN_MEM_WRITE $end
$var wire 32 ) MAIN_MEM_READ_DATA [31:0] $end
$var wire 1 * MAIN_MEM_READ $end
$var wire 1 + MAIN_MEM_BUSY_WAIT $end
$var wire 6 , MAIN_MEM_ADDRESS [5:0] $end
$var wire 128 - INS_MEM_READ_DATA [127:0] $end
$var wire 1 . INS_MEM_READ $end
$var wire 1 / INS_MEM_BUSY_WAIT $end
$var wire 6 0 INS_MEM_ADDRESS [5:0] $end
$var wire 1 1 INS_CACHE_BUSY_WAIT $end
$var wire 32 2 INS [31:0] $end
$var wire 1 3 BUSY_WAIT $end
$var wire 8 4 ADDRESS [7:0] $end
$var reg 1 5 CLK $end
$var reg 1 6 RESET $end
$scope module myCacheMemory $end
$var wire 1 5 clock $end
$var wire 1 6 reset $end
$var wire 8 7 writedata [7:0] $end
$var wire 1 ! write $end
$var wire 3 8 tag [2:0] $end
$var wire 1 " read $end
$var wire 2 9 offset [1:0] $end
$var wire 3 : index [2:0] $end
$var wire 8 ; address [7:0] $end
$var wire 32 < MAIN_MEM_READ_DATA [31:0] $end
$var wire 1 + MAIN_MEM_BUSY_WAIT $end
$var reg 32 = CURRENT_DATA [31:0] $end
$var reg 1 > CURRENT_DIRTY $end
$var reg 3 ? CURRENT_TAG [2:0] $end
$var reg 1 @ CURRENT_VALID $end
$var reg 6 A MAIN_MEM_ADDRESS [5:0] $end
$var reg 1 * MAIN_MEM_READ $end
$var reg 1 ( MAIN_MEM_WRITE $end
$var reg 32 B MAIN_MEM_WRITE_DATA [31:0] $end
$var reg 1 C TAG_MATCH $end
$var reg 1 3 busywait $end
$var reg 2 D next_state [1:0] $end
$var reg 1 E readCache $end
$var reg 1 F readaccess $end
$var reg 8 G readdata [7:0] $end
$var reg 2 H state [1:0] $end
$var reg 8 I tempory_data [7:0] $end
$var reg 1 J writeCache $end
$var reg 1 K writeaccess $end
$var integer 32 L i [31:0] $end
$upscope $end
$scope module myDataMem $end
$var wire 6 M address [5:0] $end
$var wire 1 5 clock $end
$var wire 1 * read $end
$var wire 1 6 reset $end
$var wire 1 ( write $end
$var wire 32 N writedata [31:0] $end
$var reg 1 + busywait $end
$var reg 1 O readaccess $end
$var reg 32 P readdata [31:0] $end
$var reg 1 Q writeaccess $end
$var integer 32 R i [31:0] $end
$upscope $end
$scope module myInsCacheMemory $end
$var wire 1 5 clock $end
$var wire 1 6 reset $end
$var wire 3 S tag [2:0] $end
$var wire 1 # read $end
$var wire 2 T offset [1:0] $end
$var wire 3 U index [2:0] $end
$var wire 32 V address [31:0] $end
$var wire 128 W MAIN_MEM_READ_DATA [127:0] $end
$var wire 1 / MAIN_MEM_BUSY_WAIT $end
$var reg 32 X CURRENT_DATA [31:0] $end
$var reg 3 Y CURRENT_TAG [2:0] $end
$var reg 1 Z CURRENT_VALID $end
$var reg 6 [ MAIN_MEM_ADDRESS [5:0] $end
$var reg 1 . MAIN_MEM_READ $end
$var reg 1 \ TAG_MATCH $end
$var reg 1 1 busywait $end
$var reg 2 ] next_state [1:0] $end
$var reg 1 ^ readCache $end
$var reg 1 _ readaccess $end
$var reg 32 ` readdata [31:0] $end
$var reg 2 a state [1:0] $end
$var reg 32 b tempory_data [31:0] $end
$var integer 32 c i [31:0] $end
$upscope $end
$scope module myInsMem $end
$var wire 6 d address [5:0] $end
$var wire 1 5 clock $end
$var wire 1 . read $end
$var reg 1 / busywait $end
$var reg 1 e readaccess $end
$var reg 128 f readdata [127:0] $end
$upscope $end
$scope module mycpu $end
$var wire 8 g ALOP2 [7:0] $end
$var wire 1 h ANDOUTBEQ $end
$var wire 1 i ANDOUTBNE $end
$var wire 1 3 BUSY_WAIT $end
$var wire 1 5 CLK $end
$var wire 32 j INSTRUCTION [31:0] $end
$var wire 1 1 INS_CACHE_BUSY_WAIT $end
$var wire 8 k MEMREAD [7:0] $end
$var wire 1 6 RESET $end
$var wire 1 l jumpMUXSEL $end
$var wire 1 m regWRITEEN_FIN $end
$var wire 1 n twoscompMUXSEL $end
$var wire 1 o regWRITEEN $end
$var wire 1 ! memWriteEn $end
$var wire 1 " memReadEn $end
$var wire 1 p memMUXSEL $end
$var wire 1 q jump $end
$var wire 1 r immeMUXSEL $end
$var wire 1 s bne $end
$var wire 1 t beq $end
$var wire 2 u bShifterOpCode [1:0] $end
$var wire 1 v alu_shiftMUXSEL $end
$var wire 3 w aluOP [2:0] $end
$var wire 8 x TWOSMUXOUT [7:0] $end
$var wire 8 y TWOSCOMPOUT [7:0] $end
$var wire 8 z SOURCE2 [7:0] $end
$var wire 8 { SOURCE1 [7:0] $end
$var wire 8 | REGSAVE [7:0] $end
$var wire 8 } REGOUT2 [7:0] $end
$var wire 8 ~ REGOUT1 [7:0] $end
$var wire 8 !" PREV_ALU_BARREL_OUT [7:0] $end
$var wire 32 "" PCNEXT [31:0] $end
$var wire 32 #" PCJUMP [31:0] $end
$var wire 32 $" PCINCBY4 [31:0] $end
$var wire 8 %" DESTINATION [7:0] $end
$var wire 8 &" BARRELOUT [7:0] $end
$var wire 8 '" ALUOUT [7:0] $end
$var wire 1 (" ALUCOMP $end
$var wire 8 )" ALOP1 [7:0] $end
$var reg 32 *" PC [31:0] $end
$var reg 1 # insReadEn $end
$scope module bs $end
$var wire 8 +" INPUT [7:0] $end
$var wire 1 ," TMP7 $end
$var wire 1 -" TMP6 $end
$var wire 1 ." TMP5 $end
$var wire 1 /" TMP4 $end
$var wire 1 0" TMP3 $end
$var wire 1 1" TMP2 $end
$var wire 1 2" TMP1 $end
$var wire 2 3" SHIFT_MODE [1:0] $end
$var wire 8 4" SHIFT [7:0] $end
$var wire 8 5" OUTPUT [7:0] $end
$var wire 8 6" OUTINTER [7:0] $end
$var wire 8 7" INTER2 [7:0] $end
$var wire 8 8" INTER1 [7:0] $end
$var wire 8 9" INNER3 [7:0] $end
$var wire 8 :" ININTER [7:0] $end
$var reg 8 ;" LAYER4_IN [7:0] $end
$var reg 1 <" SHIFT_DIR $end
$scope module inmux $end
$var wire 8 =" INPUT1 [7:0] $end
$var wire 8 >" INPUT2 [7:0] $end
$var wire 1 <" SELECT $end
$var reg 8 ?" RESULT [7:0] $end
$upscope $end
$scope module m0 $end
$var wire 1 @" INPUT1 $end
$var wire 1 A" SELECT $end
$var wire 1 2" INPUT2 $end
$var reg 1 B" RESULT $end
$upscope $end
$scope module m00 $end
$var wire 1 C" INPUT1 $end
$var wire 1 D" SELECT $end
$var wire 1 1" INPUT2 $end
$var reg 1 E" RESULT $end
$upscope $end
$scope module m000 $end
$var wire 1 F" INPUT1 $end
$var wire 1 G" SELECT $end
$var wire 1 /" INPUT2 $end
$var reg 1 H" RESULT $end
$upscope $end
$scope module m0000 $end
$var wire 8 I" INPUT1 [7:0] $end
$var wire 8 J" INPUT2 [7:0] $end
$var wire 1 K" SELECT $end
$var reg 8 L" RESULT [7:0] $end
$upscope $end
$scope module m1 $end
$var wire 1 M" INPUT1 $end
$var wire 1 N" INPUT2 $end
$var wire 1 O" SELECT $end
$var reg 1 P" RESULT $end
$upscope $end
$scope module m11 $end
$var wire 1 Q" INPUT1 $end
$var wire 1 R" SELECT $end
$var wire 1 0" INPUT2 $end
$var reg 1 S" RESULT $end
$upscope $end
$scope module m111 $end
$var wire 1 T" INPUT1 $end
$var wire 1 U" SELECT $end
$var wire 1 ." INPUT2 $end
$var reg 1 V" RESULT $end
$upscope $end
$scope module m2 $end
$var wire 1 W" INPUT1 $end
$var wire 1 X" INPUT2 $end
$var wire 1 Y" SELECT $end
$var reg 1 Z" RESULT $end
$upscope $end
$scope module m22 $end
$var wire 1 [" INPUT1 $end
$var wire 1 \" INPUT2 $end
$var wire 1 ]" SELECT $end
$var reg 1 ^" RESULT $end
$upscope $end
$scope module m222 $end
$var wire 1 _" INPUT1 $end
$var wire 1 `" SELECT $end
$var wire 1 -" INPUT2 $end
$var reg 1 a" RESULT $end
$upscope $end
$scope module m3 $end
$var wire 1 b" INPUT1 $end
$var wire 1 c" INPUT2 $end
$var wire 1 d" SELECT $end
$var reg 1 e" RESULT $end
$upscope $end
$scope module m33 $end
$var wire 1 f" INPUT1 $end
$var wire 1 g" INPUT2 $end
$var wire 1 h" SELECT $end
$var reg 1 i" RESULT $end
$upscope $end
$scope module m333 $end
$var wire 1 j" INPUT1 $end
$var wire 1 k" SELECT $end
$var wire 1 ," INPUT2 $end
$var reg 1 l" RESULT $end
$upscope $end
$scope module m4 $end
$var wire 1 m" INPUT1 $end
$var wire 1 n" INPUT2 $end
$var wire 1 o" SELECT $end
$var reg 1 p" RESULT $end
$upscope $end
$scope module m44 $end
$var wire 1 q" INPUT1 $end
$var wire 1 r" INPUT2 $end
$var wire 1 s" SELECT $end
$var reg 1 t" RESULT $end
$upscope $end
$scope module m444 $end
$var wire 1 u" INPUT1 $end
$var wire 1 v" INPUT2 $end
$var wire 1 w" SELECT $end
$var reg 1 x" RESULT $end
$upscope $end
$scope module m5 $end
$var wire 1 y" INPUT1 $end
$var wire 1 z" INPUT2 $end
$var wire 1 {" SELECT $end
$var reg 1 |" RESULT $end
$upscope $end
$scope module m55 $end
$var wire 1 }" INPUT1 $end
$var wire 1 ~" INPUT2 $end
$var wire 1 !# SELECT $end
$var reg 1 "# RESULT $end
$upscope $end
$scope module m555 $end
$var wire 1 ## INPUT1 $end
$var wire 1 $# INPUT2 $end
$var wire 1 %# SELECT $end
$var reg 1 &# RESULT $end
$upscope $end
$scope module m6 $end
$var wire 1 '# INPUT1 $end
$var wire 1 (# INPUT2 $end
$var wire 1 )# SELECT $end
$var reg 1 *# RESULT $end
$upscope $end
$scope module m66 $end
$var wire 1 +# INPUT1 $end
$var wire 1 ,# INPUT2 $end
$var wire 1 -# SELECT $end
$var reg 1 .# RESULT $end
$upscope $end
$scope module m666 $end
$var wire 1 /# INPUT1 $end
$var wire 1 0# INPUT2 $end
$var wire 1 1# SELECT $end
$var reg 1 2# RESULT $end
$upscope $end
$scope module m7 $end
$var wire 1 3# INPUT1 $end
$var wire 1 4# INPUT2 $end
$var wire 1 5# SELECT $end
$var reg 1 6# RESULT $end
$upscope $end
$scope module m77 $end
$var wire 1 7# INPUT1 $end
$var wire 1 8# INPUT2 $end
$var wire 1 9# SELECT $end
$var reg 1 :# RESULT $end
$upscope $end
$scope module m777 $end
$var wire 1 ;# INPUT1 $end
$var wire 1 <# INPUT2 $end
$var wire 1 =# SELECT $end
$var reg 1 ># RESULT $end
$upscope $end
$scope module mt1 $end
$var wire 1 ?# INPUT1 $end
$var wire 1 @# INPUT2 $end
$var wire 1 A# INPUT3 $end
$var wire 1 B# INPUT4 $end
$var wire 2 C# SELECT [1:0] $end
$var reg 1 2" RESULT $end
$upscope $end
$scope module mt2 $end
$var wire 1 D# INPUT1 $end
$var wire 1 E# INPUT2 $end
$var wire 1 F# INPUT3 $end
$var wire 1 G# INPUT4 $end
$var wire 2 H# SELECT [1:0] $end
$var reg 1 1" RESULT $end
$upscope $end
$scope module mt3 $end
$var wire 1 I# INPUT1 $end
$var wire 1 J# INPUT2 $end
$var wire 1 K# INPUT3 $end
$var wire 1 L# INPUT4 $end
$var wire 2 M# SELECT [1:0] $end
$var reg 1 0" RESULT $end
$upscope $end
$scope module mt4 $end
$var wire 1 N# INPUT1 $end
$var wire 1 O# INPUT2 $end
$var wire 1 P# INPUT3 $end
$var wire 1 Q# INPUT4 $end
$var wire 2 R# SELECT [1:0] $end
$var reg 1 /" RESULT $end
$upscope $end
$scope module mt5 $end
$var wire 1 S# INPUT1 $end
$var wire 1 T# INPUT2 $end
$var wire 1 U# INPUT3 $end
$var wire 1 V# INPUT4 $end
$var wire 2 W# SELECT [1:0] $end
$var reg 1 ." RESULT $end
$upscope $end
$scope module mt6 $end
$var wire 1 X# INPUT1 $end
$var wire 1 Y# INPUT2 $end
$var wire 1 Z# INPUT3 $end
$var wire 1 [# INPUT4 $end
$var wire 2 \# SELECT [1:0] $end
$var reg 1 -" RESULT $end
$upscope $end
$scope module mt7 $end
$var wire 1 ]# INPUT1 $end
$var wire 1 ^# INPUT2 $end
$var wire 1 _# INPUT3 $end
$var wire 1 `# INPUT4 $end
$var wire 2 a# SELECT [1:0] $end
$var reg 1 ," RESULT $end
$upscope $end
$scope module outmux $end
$var wire 8 b# INPUT1 [7:0] $end
$var wire 8 c# INPUT2 [7:0] $end
$var wire 1 <" SELECT $end
$var reg 8 d# RESULT [7:0] $end
$upscope $end
$upscope $end
$scope module jumpadder $end
$var wire 32 e# INPUT2 [31:0] $end
$var wire 32 f# INPUT1 [31:0] $end
$var reg 32 g# RESULT [31:0] $end
$upscope $end
$scope module muMem $end
$var wire 8 h# INPUT2 [7:0] $end
$var wire 1 p SELECT $end
$var wire 8 i# INPUT1 [7:0] $end
$var reg 8 j# RESULT [7:0] $end
$upscope $end
$scope module muxFin $end
$var wire 8 k# INPUT2 [7:0] $end
$var wire 1 v SELECT $end
$var wire 8 l# INPUT1 [7:0] $end
$var reg 8 m# RESULT [7:0] $end
$upscope $end
$scope module muximme $end
$var wire 8 n# INPUT2 [7:0] $end
$var wire 1 r SELECT $end
$var wire 8 o# INPUT1 [7:0] $end
$var reg 8 p# RESULT [7:0] $end
$upscope $end
$scope module muxjump $end
$var wire 32 q# INPUT2 [31:0] $end
$var wire 1 l SELECT $end
$var wire 32 r# INPUT1 [31:0] $end
$var reg 32 s# RESULT [31:0] $end
$upscope $end
$scope module muxtwos $end
$var wire 1 n SELECT $end
$var wire 8 t# INPUT2 [7:0] $end
$var wire 8 u# INPUT1 [7:0] $end
$var reg 8 v# RESULT [7:0] $end
$upscope $end
$scope module myadder $end
$var wire 32 w# INPUT1 [31:0] $end
$var wire 32 x# INPUT2 [31:0] $end
$var reg 32 y# RESULT [31:0] $end
$upscope $end
$scope module myalu $end
$var wire 1 (" COMP $end
$var wire 8 z# DATA1 [7:0] $end
$var wire 8 {# DATA2 [7:0] $end
$var wire 8 |# INTER_AND [7:0] $end
$var wire 8 }# INTER_FWD [7:0] $end
$var wire 8 ~# INTER_OR [7:0] $end
$var wire 3 !$ SELECT [2:0] $end
$var wire 8 "$ MULRESULT [7:0] $end
$var wire 8 #$ INTER_ADD [7:0] $end
$var reg 8 $$ RESULT [7:0] $end
$scope module mul $end
$var wire 8 %$ DATA1 [7:0] $end
$var wire 8 &$ DATA2 [7:0] $end
$var wire 8 '$ SHIFT7 [7:0] $end
$var wire 8 ($ SHIFT6 [7:0] $end
$var wire 8 )$ SHIFT5 [7:0] $end
$var wire 8 *$ SHIFT4 [7:0] $end
$var wire 8 +$ SHIFT3 [7:0] $end
$var wire 8 ,$ SHIFT2 [7:0] $end
$var wire 8 -$ SHIFT1 [7:0] $end
$var wire 8 .$ SHIFT0 [7:0] $end
$var reg 8 /$ RES0 [7:0] $end
$var reg 8 0$ RES1 [7:0] $end
$var reg 8 1$ RES2 [7:0] $end
$var reg 8 2$ RES3 [7:0] $end
$var reg 8 3$ RES4 [7:0] $end
$var reg 8 4$ RES5 [7:0] $end
$var reg 8 5$ RES6 [7:0] $end
$var reg 8 6$ RES7 [7:0] $end
$var reg 8 7$ RESULT [7:0] $end
$upscope $end
$upscope $end
$scope module mycu $end
$var wire 1 8$ ALUCOMP $end
$var wire 32 9$ INSTRUCTION [31:0] $end
$var wire 1 6 RESET $end
$var reg 3 :$ aluOP [2:0] $end
$var reg 1 v alu_shiftMUXSEL $end
$var reg 2 ;$ bShifterOpCode [1:0] $end
$var reg 1 t beq $end
$var reg 1 s bne $end
$var reg 1 r immeMUXSEL $end
$var reg 1 q jump $end
$var reg 1 p memMUXSEL $end
$var reg 1 " memReadEn $end
$var reg 1 ! memWriteEn $end
$var reg 1 o regWRITEEN $end
$var reg 1 n twoscompMUXSEL $end
$upscope $end
$scope module myreg $end
$var wire 1 5 CLK $end
$var wire 8 <$ IN [7:0] $end
$var wire 3 =$ INADDRESS [2:0] $end
$var wire 8 >$ OUT1 [7:0] $end
$var wire 3 ?$ OUT1ADDRESS [2:0] $end
$var wire 8 @$ OUT2 [7:0] $end
$var wire 3 A$ OUT2ADDRESS [2:0] $end
$var wire 1 6 RESET $end
$var wire 1 m WRITE $end
$var integer 32 B$ i [31:0] $end
$upscope $end
$scope module twos $end
$var wire 8 C$ INPUT [7:0] $end
$var reg 8 D$ RESULT [7:0] $end
$upscope $end
$upscope $end
$upscope $end
$enddefinitions $end
#0
$dumpvars
bx D$
bx C$
bx B$
bx A$
bx @$
bx ?$
bx >$
bx =$
bx <$
bx ;$
bx :$
bx 9$
z8$
bx 7$
b0 6$
b0 5$
b0 4$
b0 3$
b0 2$
b0 1$
b0 0$
b0 /$
bx .$
bx0 -$
bx00 ,$
bx000 +$
bx0000 *$
bx00000 )$
bx000000 ($
bx0000000 '$
bx &$
bx %$
bx $$
bx #$
bx "$
bx !$
bx ~#
bx }#
bx |#
bx {#
bx z#
bx y#
b100 x#
b11111111111111111111111111111100 w#
bx v#
bx u#
bx t#
bx s#
bx r#
bx q#
bx p#
bx o#
bx n#
bx m#
bx l#
bx k#
bx j#
bx i#
bx h#
bx g#
bx f#
bx00 e#
bx d#
bx c#
bx b#
bx a#
0`#
x_#
x^#
0]#
bx \#
0[#
xZ#
xY#
0X#
bx W#
0V#
xU#
xT#
0S#
bx R#
0Q#
xP#
xO#
0N#
bx M#
0L#
xK#
xJ#
0I#
bx H#
0G#
xF#
xE#
0D#
bx C#
0B#
xA#
x@#
0?#
x>#
x=#
x<#
x;#
x:#
x9#
x8#
x7#
x6#
x5#
x4#
x3#
02#
x1#
00#
x/#
x.#
x-#
x,#
x+#
x*#
x)#
x(#
x'#
0&#
x%#
0$#
x##
x"#
x!#
x~"
x}"
x|"
x{"
xz"
xy"
0x"
xw"
0v"
xu"
xt"
xs"
xr"
xq"
xp"
xo"
xn"
xm"
0l"
xk"
xj"
xi"
xh"
xg"
xf"
xe"
xd"
xc"
xb"
0a"
x`"
0_"
0^"
x]"
0\"
x["
xZ"
xY"
xX"
xW"
0V"
xU"
0T"
0S"
xR"
xQ"
xP"
xO"
xN"
xM"
bx L"
xK"
bx J"
bx0000000 I"
0H"
xG"
0F"
0E"
xD"
0C"
0B"
xA"
x@"
bx ?"
bx >"
bx ="
x<"
bx ;"
bx :"
bx0000000 9"
bx0 8"
bx000 7"
bx 6"
bx 5"
bx 4"
bx 3"
02"
01"
00"
0/"
0."
0-"
0,"
bx +"
b11111111111111111111111111111100 *"
bx )"
x("
bx '"
bx &"
bx %"
bx $"
bx #"
bx ""
bx !"
bx ~
bx }
bx |
bx {
bx z
bx y
bx x
bx w
xv
bx u
0t
0s
xr
0q
xp
xo
xn
xm
0l
bx k
bx j
0i
0h
bx g
bx f
0e
bx d
b1000 c
bx b
b0 a
bx `
x_
x^
b0 ]
x\
bx [
xZ
bx Y
bx X
bx W
b11111111111111111111111111111100 V
b111 U
b11 T
b111 S
b100000000 R
0Q
bx P
0O
bx N
bx M
b1000 L
xK
xJ
bx I
b0 H
bx G
xF
xE
b0 D
xC
bx B
bx A
x@
bx ?
x>
bx =
bx <
bx ;
bx :
bx 9
bx 8
bx 7
16
15
bx 4
03
bx 2
01
bx 0
0/
x.
bx -
bx ,
0+
x*
bx )
x(
bx '
b11111111111111111111111111111100 &
bx %
bx $
0#
x"
x!
$end
#10
06
#20
b0 ""
b0 s#
b1000 B$
b0 $"
b0 f#
b0 r#
b0 y#
#30
1("
b0 9
b0 :
b0 8
b0 4
b0 ;
b0 '"
b0 l#
b0 $$
b0 "$
b0 7$
#40
05
#80
15
#90
0m
0.
1_
11
b0 T
b0 U
b0 S
1#
b0 &
b0 V
b0 *"
b0 w#
#100
b1 ]
b0 X
0Z
#109
0^
b0 b
0\
#110
b100 ""
b100 s#
b100 $"
b100 f#
b100 r#
b100 y#
#120
05
#160
1e
1/
b0 0
b0 [
b0 d
1.
b1 ]
b1 a
0#
15
#200
05
#240
15
#280
05
#320
15
#360
05
#400
15
#440
05
#480
15
#520
05
#560
15
#600
05
#640
15
bx11111010 -
bx11111010 W
bx11111010 f
#680
05
#720
15
#760
05
#800
15
#840
05
#880
15
#920
05
#960
15
#1000
05
#1040
15
bx0000000011111010 -
bx0000000011111010 W
bx0000000011111010 f
#1080
05
#1120
15
#1160
05
#1200
15
#1240
05
#1280
15
#1320
05
#1360
15
#1400
05
#1440
15
bx000000000000000011111010 -
bx000000000000000011111010 W
bx000000000000000011111010 f
#1480
05
#1520
15
#1560
05
#1600
15
#1640
05
#1680
15
#1720
05
#1760
15
#1800
05
#1840
15
bx00000101000000000000000011111010 -
bx00000101000000000000000011111010 W
bx00000101000000000000000011111010 f
#1880
05
#1920
15
#1960
05
#2000
15
#2040
05
#2080
15
#2120
05
#2160
15
#2200
05
#2240
15
bx0000001000000101000000000000000011111010 -
bx0000001000000101000000000000000011111010 W
bx0000001000000101000000000000000011111010 f
#2280
05
#2320
15
#2360
05
#2400
15
#2440
05
#2480
15
#2520
05
#2560
15
#2600
05
#2640
15
bx000000000000001000000101000000000000000011111010 -
bx000000000000001000000101000000000000000011111010 W
bx000000000000001000000101000000000000000011111010 f
#2680
05
#2720
15
#2760
05
#2800
15
#2840
05
#2880
15
#2920
05
#2960
15
#3000
05
#3040
15
bx00000001000000000000001000000101000000000000000011111010 -
bx00000001000000000000001000000101000000000000000011111010 W
bx00000001000000000000001000000101000000000000000011111010 f
#3080
05
#3120
15
#3160
05
#3200
15
#3240
05
#3280
15
#3320
05
#3360
15
#3400
05
#3440
15
bx0000100100000001000000000000001000000101000000000000000011111010 -
bx0000100100000001000000000000001000000101000000000000000011111010 W
bx0000100100000001000000000000001000000101000000000000000011111010 f
#3480
05
#3520
15
#3560
05
#3600
15
#3640
05
#3680
15
#3720
05
#3760
15
#3800
05
#3840
15
bx000000100000100100000001000000000000001000000101000000000000000011111010 -
bx000000100000100100000001000000000000001000000101000000000000000011111010 W
bx000000100000100100000001000000000000001000000101000000000000000011111010 f
#3880
05
#3920
15
#3960
05
#4000
15
#4040
05
#4080
15
#4120
05
#4160
15
#4200
05
#4240
15
bx00000000000000100000100100000001000000000000001000000101000000000000000011111010 -
bx00000000000000100000100100000001000000000000001000000101000000000000000011111010 W
bx00000000000000100000100100000001000000000000001000000101000000000000000011111010 f
#4280
05
#4320
15
#4360
05
#4400
15
#4440
05
#4480
15
#4520
05
#4560
15
#4600
05
#4640
15
bx0000000100000000000000100000100100000001000000000000001000000101000000000000000011111010 -
bx0000000100000000000000100000100100000001000000000000001000000101000000000000000011111010 W
bx0000000100000000000000100000100100000001000000000000001000000101000000000000000011111010 f
#4680
05
#4720
15
#4760
05
#4800
15
#4840
05
#4880
15
#4920
05
#4960
15
#5000
05
#5040
15
bx000010100000000100000000000000100000100100000001000000000000001000000101000000000000000011111010 -
bx000010100000000100000000000000100000100100000001000000000000001000000101000000000000000011111010 W
bx000010100000000100000000000000100000100100000001000000000000001000000101000000000000000011111010 f
#5080
05
#5120
15
#5160
05
#5200
15
#5240
05
#5280
15
#5320
05
#5360
15
#5400
05
#5440
15
bx00000010000010100000000100000000000000100000100100000001000000000000001000000101000000000000000011111010 -
bx00000010000010100000000100000000000000100000100100000001000000000000001000000101000000000000000011111010 W
bx00000010000010100000000100000000000000100000100100000001000000000000001000000101000000000000000011111010 f
#5480
05
#5520
15
#5560
05
#5600
15
#5640
05
#5680
15
#5720
05
#5760
15
#5800
05
#5840
15
bx0000000000000010000010100000000100000000000000100000100100000001000000000000001000000101000000000000000011111010 -
bx0000000000000010000010100000000100000000000000100000100100000001000000000000001000000101000000000000000011111010 W
bx0000000000000010000010100000000100000000000000100000100100000001000000000000001000000101000000000000000011111010 f
#5880
05
#5920
15
#5960
05
#6000
15
#6040
05
#6080
15
#6120
05
#6160
15
#6200
05
#6240
15
bx000000010000000000000010000010100000000100000000000000100000100100000001000000000000001000000101000000000000000011111010 -
bx000000010000000000000010000010100000000100000000000000100000100100000001000000000000001000000101000000000000000011111010 W
bx000000010000000000000010000010100000000100000000000000100000100100000001000000000000001000000101000000000000000011111010 f
#6280
05
#6320
15
#6360
05
#6400
15
#6440
05
#6480
15
#6520
05
#6560
15
#6600
05
#6640
0.
b0 a
b1 ]
15
0e
0/
b1011000000010000000000000010000010100000000100000000000000100000100100000001000000000000001000000101000000000000000011111010 -
b1011000000010000000000000010000010100000000100000000000000100000100100000001000000000000001000000101000000000000000011111010 W
b1011000000010000000000000010000010100000000100000000000000100000100100000001000000000000001000000101000000000000000011111010 f
#6650
b0 Y
b101000000000000000011111010 X
1Z
#6659
xa"
x_"
x0#
bx00 7"
x^"
xC"
x\"
1K"
x2#
x&#
xx"
bx00 9"
bx00 I"
xl"
bx 8"
xB"
b0 ?$
0=#
01#
0%#
0w"
0k"
0`"
0U"
0G"
19#
1-#
1!#
1s"
1h"
1]"
1R"
1D"
05#
0)#
0{"
0o"
0d"
0Y"
0O"
0A"
bx0000000 6$
bx000000 5$
bx00000 4$
bx0000 3$
bx000 2$
bx0 0$
b0 =$
b0 {
b11111010 )"
b11111010 4"
b11111010 p#
b11111010 {#
b11111010 &$
b10 A$
0K
0F
b0 e#
b0 %"
b11111010 z
b11111010 n#
0"
0!
b0 ]
b101000000000000000011111010 2
b101000000000000000011111010 `
b101000000000000000011111010 j
b101000000000000000011111010 9$
1^
b101000000000000000011111010 b
1\
#6669
0("
b0 &"
b0 5"
b0 d#
b0 k#
b0 c#
b10 9
b110 :
b111 8
b0 6"
b0 L"
b0 b#
b11111010 |
b11111010 j#
b11111010 <$
b11111010 !"
b11111010 i#
b11111010 m#
b11111010 4
b11111010 ;
b11111010 '"
b11111010 l#
b11111010 $$
b0 ;"
b0 J"
1<"
bx0x0 |#
b11111x1x ~#
b11111010 }#
0p
b0 u
b0 3"
b0 C#
b0 H#
b0 M#
b0 R#
b0 W#
b0 \#
b0 a#
b0 ;$
0v
b0 w
b0 !$
b0 :$
1o
1r
0n
#6679
0&#
0x"
0l"
0>#
0a"
b0 9"
b0 I"
02#
0;#
0_#
0/#
0Z#
0##
0U#
0u"
0P#
0j"
0<#
0_"
00#
0:#
0.#
0"#
0t"
0i"
b0 7"
0^"
07#
0K#
0+#
0F#
0}"
08#
0q"
0,#
0f"
0~"
0["
0r"
0Q"
0g"
0C"
0\"
06#
0*#
0|"
0p"
0e"
0Z"
0P"
b0 8"
0B"
04#
03#
0(#
0'#
0z"
0y"
0n"
0m"
0c"
0b"
0X"
0W"
0N"
0M"
0@"
0A#
b0 :"
b0 ?"
b0 6$
b0 5$
b0 4$
b0 3$
b0 2$
b0 0$
0@#
0E#
0J#
0O#
0T#
0Y#
0^#
b0 >"
b0 .$
b0 -$
b0 ,$
b0 +$
b0 *$
b0 )$
b0 ($
b0 '$
b0 x
b0 o#
b0 v#
b0 g
b0 +"
b0 ="
b0 z#
b0 %$
b0 $
b0 7
b0 ~
b0 >$
b100 #"
b100 g#
b100 q#
b0 }
b0 u#
b0 @$
b0 C$
#6680
05
#6689
b0 |#
b11111010 ~#
b0 y
b0 t#
b0 D$
#6699
b11111010 #$
#6720
1m
0_
0^
01
15
#6730
0m
1_
11
b1 T
1#
b100 &
b100 V
b100 *"
b100 w#
#6749
0K"
b1 =$
b10 )"
b10 4"
b10 p#
b10 {#
b10 &$
b100 e#
b1 %"
b10 z
b10 n#
b1001000000010000000000000010 2
b1001000000010000000000000010 `
b1001000000010000000000000010 j
b1001000000010000000000000010 9$
1^
b1001000000010000000000000010 b
#6750
b111110 &"
b111110 5"
b111110 d#
b111110 k#
b111110 c#
b1111100 6"
b1111100 L"
b1111100 b#
1&#
1x"
1l"
1a"
b1111100 9"
b1111100 I"
12#
1/#
1Z#
1##
1U#
1u"
1P#
1j"
1<#
1_"
10#
1.#
1"#
1t"
1i"
b1111100 7"
1^"
1+#
1F#
1q"
1,#
1f"
1~"
1["
1r"
1Q"
1g"
1C"
1\"
1*#
1p"
1e"
1Z"
1P"
b1011111 8"
1B"
14#
1'#
1z"
1n"
1m"
1c"
1b"
1X"
1W"
1N"
1M"
1@"
b1011111 :"
b1011111 ?"
b11110100 0$
b1000 ""
b1000 s#
1@#
1E#
1J#
1O#
1T#
1Y#
1^#
b1011111 >"
b11111010 .$
b11110100 -$
b11101000 ,$
b11010000 +$
b10100000 *$
b1000000 )$
b10000000 ($
b1000 $"
b1000 f#
b1000 r#
b1000 y#
b11111010 g
b11111010 +"
b11111010 ="
b11111010 z#
b11111010 %$
b11111010 $
b11111010 7
b11111010 ~
b11111010 >$
#6759
b0 :
b0 8
b111110 |
b111110 j#
b111110 <$
b10 4
b10 ;
b10 '"
b10 l#
b10 $$
b111110 !"
b111110 i#
b111110 m#
b10 }#
b11 u
b11 3"
b11 C#
b11 H#
b11 M#
b11 R#
b11 W#
b11 \#
b11 a#
b11 ;$
1v
